%!PS-Adobe-3.0 EPSF-3.0
%%Creator: (MATLAB, The Mathworks, Inc. Version 9.10.0.1649659 \(R2021a\) Update 1. Operating System: Windows 10)
%%Title: C:/Users/sjenks/Desktop/research/rochester/AO/adaptiveoptics/ConeDesity/Sam_anisotropy/Z151_vertCDHist.eps
%%CreationDate: 2022-10-18T13:55:23
%%Pages: (atend)
%%BoundingBox:     0     0   420   315
%%LanguageLevel: 3
%%EndComments
%%BeginProlog
%%BeginResource: procset (Apache XML Graphics Std ProcSet) 1.2 0
%%Version: 1.2 0
%%Copyright: (Copyright 2001-2003,2010 The Apache Software Foundation. License terms: http://www.apache.org/licenses/LICENSE-2.0)
/bd{bind def}bind def
/ld{load def}bd
/GR/grestore ld
/GS/gsave ld
/RM/rmoveto ld
/C/curveto ld
/t/show ld
/L/lineto ld
/ML/setmiterlimit ld
/CT/concat ld
/f/fill ld
/N/newpath ld
/S/stroke ld
/CC/setcmykcolor ld
/A/ashow ld
/cp/closepath ld
/RC/setrgbcolor ld
/LJ/setlinejoin ld
/GC/setgray ld
/LW/setlinewidth ld
/M/moveto ld
/re {4 2 roll M
1 index 0 rlineto
0 exch rlineto
neg 0 rlineto
cp } bd
/_ctm matrix def
/_tm matrix def
/BT { _ctm currentmatrix pop matrix _tm copy pop 0 0 moveto } bd
/ET { _ctm setmatrix } bd
/iTm { _ctm setmatrix _tm concat } bd
/Tm { _tm astore pop iTm 0 0 moveto } bd
/ux 0.0 def
/uy 0.0 def
/F {
  /Tp exch def
  /Tf exch def
  Tf findfont Tp scalefont setfont
  /cf Tf def  /cs Tp def
} bd
/ULS {currentpoint /uy exch def /ux exch def} bd
/ULE {
  /Tcx currentpoint pop def
  gsave
  newpath
  cf findfont cs scalefont dup
  /FontMatrix get 0 get /Ts exch def /FontInfo get dup
  /UnderlinePosition get Ts mul /To exch def
  /UnderlineThickness get Ts mul /Tt exch def
  ux uy To add moveto  Tcx uy To add lineto
  Tt setlinewidth stroke
  grestore
} bd
/OLE {
  /Tcx currentpoint pop def
  gsave
  newpath
  cf findfont cs scalefont dup
  /FontMatrix get 0 get /Ts exch def /FontInfo get dup
  /UnderlinePosition get Ts mul /To exch def
  /UnderlineThickness get Ts mul /Tt exch def
  ux uy To add cs add moveto Tcx uy To add cs add lineto
  Tt setlinewidth stroke
  grestore
} bd
/SOE {
  /Tcx currentpoint pop def
  gsave
  newpath
  cf findfont cs scalefont dup
  /FontMatrix get 0 get /Ts exch def /FontInfo get dup
  /UnderlinePosition get Ts mul /To exch def
  /UnderlineThickness get Ts mul /Tt exch def
  ux uy To add cs 10 mul 26 idiv add moveto Tcx uy To add cs 10 mul 26 idiv add lineto
  Tt setlinewidth stroke
  grestore
} bd
/QT {
/Y22 exch store
/X22 exch store
/Y21 exch store
/X21 exch store
currentpoint
/Y21 load 2 mul add 3 div exch
/X21 load 2 mul add 3 div exch
/X21 load 2 mul /X22 load add 3 div
/Y21 load 2 mul /Y22 load add 3 div
/X22 load /Y22 load curveto
} bd
/SSPD {
dup length /d exch dict def
{
/v exch def
/k exch def
currentpagedevice k known {
/cpdv currentpagedevice k get def
v cpdv ne {
/upd false def
/nullv v type /nulltype eq def
/nullcpdv cpdv type /nulltype eq def
nullv nullcpdv or
{
/upd true def
} {
/sametype v type cpdv type eq def
sametype {
v type /arraytype eq {
/vlen v length def
/cpdvlen cpdv length def
vlen cpdvlen eq {
0 1 vlen 1 sub {
/i exch def
/obj v i get def
/cpdobj cpdv i get def
obj cpdobj ne {
/upd true def
exit
} if
} for
} {
/upd true def
} ifelse
} {
v type /dicttype eq {
v {
/dv exch def
/dk exch def
/cpddv cpdv dk get def
dv cpddv ne {
/upd true def
exit
} if
} forall
} {
/upd true def
} ifelse
} ifelse
} if
} ifelse
upd true eq {
d k v put
} if
} if
} if
} forall
d length 0 gt {
d setpagedevice
} if
} bd
/RE { % /NewFontName [NewEncodingArray] /FontName RE -
  findfont dup length dict begin
  {
    1 index /FID ne
    {def} {pop pop} ifelse
  } forall
  /Encoding exch def
  /FontName 1 index def
  currentdict definefont pop
  end
} bind def
%%EndResource
%%BeginResource: procset (Apache XML Graphics EPS ProcSet) 1.0 0
%%Version: 1.0 0
%%Copyright: (Copyright 2002-2003 The Apache Software Foundation. License terms: http://www.apache.org/licenses/LICENSE-2.0)
/BeginEPSF { %def
/b4_Inc_state save def         % Save state for cleanup
/dict_count countdictstack def % Count objects on dict stack
/op_count count 1 sub def      % Count objects on operand stack
userdict begin                 % Push userdict on dict stack
/showpage { } def              % Redefine showpage, { } = null proc
0 setgray 0 setlinecap         % Prepare graphics state
1 setlinewidth 0 setlinejoin
10 setmiterlimit [ ] 0 setdash newpath
/languagelevel where           % If level not equal to 1 then
{pop languagelevel             % set strokeadjust and
1 ne                           % overprint to their defaults.
{false setstrokeadjust false setoverprint
} if
} if
} bd
/EndEPSF { %def
count op_count sub {pop} repeat            % Clean up stacks
countdictstack dict_count sub {end} repeat
b4_Inc_state restore
} bd
%%EndResource
%FOPBeginFontDict
%%IncludeResource: font Courier-Oblique
%%IncludeResource: font Courier-BoldOblique
%%IncludeResource: font Courier-Bold
%%IncludeResource: font ZapfDingbats
%%IncludeResource: font Symbol
%%IncludeResource: font Helvetica
%%IncludeResource: font Helvetica-Oblique
%%IncludeResource: font Helvetica-Bold
%%IncludeResource: font Helvetica-BoldOblique
%%IncludeResource: font Times-Roman
%%IncludeResource: font Times-Italic
%%IncludeResource: font Times-Bold
%%IncludeResource: font Times-BoldItalic
%%IncludeResource: font Courier
%FOPEndFontDict
%%BeginResource: encoding WinAnsiEncoding
/WinAnsiEncoding [
/.notdef /.notdef /.notdef /.notdef /.notdef
/.notdef /.notdef /.notdef /.notdef /.notdef
/.notdef /.notdef /.notdef /.notdef /.notdef
/.notdef /.notdef /.notdef /.notdef /.notdef
/.notdef /.notdef /.notdef /.notdef /.notdef
/.notdef /.notdef /.notdef /.notdef /.notdef
/.notdef /.notdef /space /exclam /quotedbl
/numbersign /dollar /percent /ampersand /quotesingle
/parenleft /parenright /asterisk /plus /comma
/hyphen /period /slash /zero /one
/two /three /four /five /six
/seven /eight /nine /colon /semicolon
/less /equal /greater /question /at
/A /B /C /D /E
/F /G /H /I /J
/K /L /M /N /O
/P /Q /R /S /T
/U /V /W /X /Y
/Z /bracketleft /backslash /bracketright /asciicircum
/underscore /quoteleft /a /b /c
/d /e /f /g /h
/i /j /k /l /m
/n /o /p /q /r
/s /t /u /v /w
/x /y /z /braceleft /bar
/braceright /asciitilde /bullet /Euro /bullet
/quotesinglbase /florin /quotedblbase /ellipsis /dagger
/daggerdbl /circumflex /perthousand /Scaron /guilsinglleft
/OE /bullet /Zcaron /bullet /bullet
/quoteleft /quoteright /quotedblleft /quotedblright /bullet
/endash /emdash /asciitilde /trademark /scaron
/guilsinglright /oe /bullet /zcaron /Ydieresis
/space /exclamdown /cent /sterling /currency
/yen /brokenbar /section /dieresis /copyright
/ordfeminine /guillemotleft /logicalnot /sfthyphen /registered
/macron /degree /plusminus /twosuperior /threesuperior
/acute /mu /paragraph /middot /cedilla
/onesuperior /ordmasculine /guillemotright /onequarter /onehalf
/threequarters /questiondown /Agrave /Aacute /Acircumflex
/Atilde /Adieresis /Aring /AE /Ccedilla
/Egrave /Eacute /Ecircumflex /Edieresis /Igrave
/Iacute /Icircumflex /Idieresis /Eth /Ntilde
/Ograve /Oacute /Ocircumflex /Otilde /Odieresis
/multiply /Oslash /Ugrave /Uacute /Ucircumflex
/Udieresis /Yacute /Thorn /germandbls /agrave
/aacute /acircumflex /atilde /adieresis /aring
/ae /ccedilla /egrave /eacute /ecircumflex
/edieresis /igrave /iacute /icircumflex /idieresis
/eth /ntilde /ograve /oacute /ocircumflex
/otilde /odieresis /divide /oslash /ugrave
/uacute /ucircumflex /udieresis /yacute /thorn
/ydieresis
] def
%%EndResource
%FOPBeginFontReencode
/Courier-Oblique findfont
dup length dict begin
  {1 index /FID ne {def} {pop pop} ifelse} forall
  /Encoding WinAnsiEncoding def
  currentdict
end
/Courier-Oblique exch definefont pop
/Courier-BoldOblique findfont
dup length dict begin
  {1 index /FID ne {def} {pop pop} ifelse} forall
  /Encoding WinAnsiEncoding def
  currentdict
end
/Courier-BoldOblique exch definefont pop
/Courier-Bold findfont
dup length dict begin
  {1 index /FID ne {def} {pop pop} ifelse} forall
  /Encoding WinAnsiEncoding def
  currentdict
end
/Courier-Bold exch definefont pop
/Helvetica findfont
dup length dict begin
  {1 index /FID ne {def} {pop pop} ifelse} forall
  /Encoding WinAnsiEncoding def
  currentdict
end
/Helvetica exch definefont pop
/Helvetica-Oblique findfont
dup length dict begin
  {1 index /FID ne {def} {pop pop} ifelse} forall
  /Encoding WinAnsiEncoding def
  currentdict
end
/Helvetica-Oblique exch definefont pop
/Helvetica-Bold findfont
dup length dict begin
  {1 index /FID ne {def} {pop pop} ifelse} forall
  /Encoding WinAnsiEncoding def
  currentdict
end
/Helvetica-Bold exch definefont pop
/Helvetica-BoldOblique findfont
dup length dict begin
  {1 index /FID ne {def} {pop pop} ifelse} forall
  /Encoding WinAnsiEncoding def
  currentdict
end
/Helvetica-BoldOblique exch definefont pop
/Times-Roman findfont
dup length dict begin
  {1 index /FID ne {def} {pop pop} ifelse} forall
  /Encoding WinAnsiEncoding def
  currentdict
end
/Times-Roman exch definefont pop
/Times-Italic findfont
dup length dict begin
  {1 index /FID ne {def} {pop pop} ifelse} forall
  /Encoding WinAnsiEncoding def
  currentdict
end
/Times-Italic exch definefont pop
/Times-Bold findfont
dup length dict begin
  {1 index /FID ne {def} {pop pop} ifelse} forall
  /Encoding WinAnsiEncoding def
  currentdict
end
/Times-Bold exch definefont pop
/Times-BoldItalic findfont
dup length dict begin
  {1 index /FID ne {def} {pop pop} ifelse} forall
  /Encoding WinAnsiEncoding def
  currentdict
end
/Times-BoldItalic exch definefont pop
/Courier findfont
dup length dict begin
  {1 index /FID ne {def} {pop pop} ifelse} forall
  /Encoding WinAnsiEncoding def
  currentdict
end
/Courier exch definefont pop
%FOPEndFontReencode
%%EndProlog
%%Page: 1 1
%%PageBoundingBox: 0 0 420 315
%%BeginPageSetup
[1 0 0 -1 0 315] CT
%%EndPageSetup
GS
[0.75 0 0 0.75 0 0] CT
1 GC
N
0 0 560 420 re
f
GR
GS
[0.75 0 0 0.75 0 0] CT
1 GC
N
0 0 560 420 re
f
GR
GS
[0.75 0 0 0.75 0 0] CT
1 GC
N
73 374 M
507 374 L
507 31 L
73 31 L
cp
f
GR
GS
[0.75 0 0 0.75 0 0] CT
0.149 GC
2 setlinecap
1 LJ
0.667 LW
N
73 374 M
507 374 L
S
GR
GS
[0.75 0 0 0.75 0 0] CT
0.149 GC
2 setlinecap
1 LJ
0.667 LW
N
73 374 M
73 369.66 L
S
GR
GS
[0.75 0 0 0.75 0 0] CT
0.149 GC
2 setlinecap
1 LJ
0.667 LW
N
127.25 374 M
127.25 369.66 L
S
GR
GS
[0.75 0 0 0.75 0 0] CT
0.149 GC
2 setlinecap
1 LJ
0.667 LW
N
181.5 374 M
181.5 369.66 L
S
GR
GS
[0.75 0 0 0.75 0 0] CT
0.149 GC
2 setlinecap
1 LJ
0.667 LW
N
235.75 374 M
235.75 369.66 L
S
GR
GS
[0.75 0 0 0.75 0 0] CT
0.149 GC
2 setlinecap
1 LJ
0.667 LW
N
290 374 M
290 369.66 L
S
GR
GS
[0.75 0 0 0.75 0 0] CT
0.149 GC
2 setlinecap
1 LJ
0.667 LW
N
344.25 374 M
344.25 369.66 L
S
GR
GS
[0.75 0 0 0.75 0 0] CT
0.149 GC
2 setlinecap
1 LJ
0.667 LW
N
398.5 374 M
398.5 369.66 L
S
GR
GS
[0.75 0 0 0.75 0 0] CT
0.149 GC
2 setlinecap
1 LJ
0.667 LW
N
452.75 374 M
452.75 369.66 L
S
GR
GS
[0.75 0 0 0.75 0 0] CT
0.149 GC
2 setlinecap
1 LJ
0.667 LW
N
507 374 M
507 369.66 L
S
GR
GS
[0.75 0 0 0.75 54.75 284.50001] CT
0.149 GC
/Helvetica 13.333 F
GS
[1 0 0 1 0 0] CT
-10 14 moveto 
1 -1 scale
(-40) t 
GR
GR
GS
[0.75 0 0 0.75 95.4375 284.50001] CT
0.149 GC
/Helvetica 13.333 F
GS
[1 0 0 1 0 0] CT
-10 14 moveto 
1 -1 scale
(-30) t 
GR
GR
GS
[0.75 0 0 0.75 136.125 284.50001] CT
0.149 GC
/Helvetica 13.333 F
GS
[1 0 0 1 0 0] CT
-10 14 moveto 
1 -1 scale
(-20) t 
GR
GR
GS
[0.75 0 0 0.75 176.8125 284.50001] CT
0.149 GC
/Helvetica 13.333 F
GS
[1 0 0 1 0 0] CT
-10 14 moveto 
1 -1 scale
(-10) t 
GR
GR
GS
[0.75 0 0 0.75 217.5 284.50001] CT
0.149 GC
/Helvetica 13.333 F
GS
[1 0 0 1 0 0] CT
-4 14 moveto 
1 -1 scale
(0) t 
GR
GR
GS
[0.75 0 0 0.75 258.1875 284.50001] CT
0.149 GC
/Helvetica 13.333 F
GS
[1 0 0 1 0 0] CT
-7.5 14 moveto 
1 -1 scale
(10) t 
GR
GR
GS
[0.75 0 0 0.75 298.875 284.50001] CT
0.149 GC
/Helvetica 13.333 F
GS
[1 0 0 1 0 0] CT
-7.5 14 moveto 
1 -1 scale
(20) t 
GR
GR
GS
[0.75 0 0 0.75 339.5625 284.50001] CT
0.149 GC
/Helvetica 13.333 F
GS
[1 0 0 1 0 0] CT
-7.5 14 moveto 
1 -1 scale
(30) t 
GR
GR
GS
[0.75 0 0 0.75 380.25 284.50001] CT
0.149 GC
/Helvetica 13.333 F
GS
[1 0 0 1 0 0] CT
-7.5 14 moveto 
1 -1 scale
(40) t 
GR
GR
GS
[0.75 0 0 0.75 217.50016 298.24999] CT
0.149 GC
/Helvetica 14.667 F
GS
[1 0 0 1 0 0] CT
-67.5 15 moveto 
1 -1 scale
(Degrees Eccentricity) t 
GR
GR
GS
[0.75 0 0 0.75 0 0] CT
0.149 GC
2 setlinecap
1 LJ
0.667 LW
N
73 374 M
73 31 L
S
GR
GS
[0.75 0 0 0.75 0 0] CT
0.149 GC
2 setlinecap
1 LJ
0.667 LW
N
73 374 M
77.34 374 L
S
GR
GS
[0.75 0 0 0.75 0 0] CT
0.149 GC
2 setlinecap
1 LJ
0.667 LW
N
73 316.833 M
77.34 316.833 L
S
GR
GS
[0.75 0 0 0.75 0 0] CT
0.149 GC
2 setlinecap
1 LJ
0.667 LW
N
73 259.667 M
77.34 259.667 L
S
GR
GS
[0.75 0 0 0.75 0 0] CT
0.149 GC
2 setlinecap
1 LJ
0.667 LW
N
73 202.5 M
77.34 202.5 L
S
GR
GS
[0.75 0 0 0.75 0 0] CT
0.149 GC
2 setlinecap
1 LJ
0.667 LW
N
73 145.333 M
77.34 145.333 L
S
GR
GS
[0.75 0 0 0.75 0 0] CT
0.149 GC
2 setlinecap
1 LJ
0.667 LW
N
73 88.167 M
77.34 88.167 L
S
GR
GS
[0.75 0 0 0.75 0 0] CT
0.149 GC
2 setlinecap
1 LJ
0.667 LW
N
73 31 M
77.34 31 L
S
GR
GS
[0.75 0 0 0.75 50.74999 280.5] CT
0.149 GC
/Helvetica 13.333 F
GS
[1 0 0 1 0 0] CT
-19 5.5 moveto 
1 -1 scale
(0.6) t 
GR
GR
GS
[0.75 0 0 0.75 50.74999 237.62501] CT
0.149 GC
/Helvetica 13.333 F
GS
[1 0 0 1 0 0] CT
-19 5.5 moveto 
1 -1 scale
(0.8) t 
GR
GR
GS
[0.75 0 0 0.75 50.74999 194.74999] CT
0.149 GC
/Helvetica 13.333 F
GS
[1 0 0 1 0 0] CT
-8 5.5 moveto 
1 -1 scale
(1) t 
GR
GR
GS
[0.75 0 0 0.75 50.74999 151.875] CT
0.149 GC
/Helvetica 13.333 F
GS
[1 0 0 1 0 0] CT
-19 5.5 moveto 
1 -1 scale
(1.2) t 
GR
GR
GS
[0.75 0 0 0.75 50.74999 109] CT
0.149 GC
/Helvetica 13.333 F
GS
[1 0 0 1 0 0] CT
-19 5.5 moveto 
1 -1 scale
(1.4) t 
GR
GR
GS
[0.75 0 0 0.75 50.74999 66.125] CT
0.149 GC
/Helvetica 13.333 F
GS
[1 0 0 1 0 0] CT
-19 5.5 moveto 
1 -1 scale
(1.6) t 
GR
GR
GS
[0.75 0 0 0.75 50.74999 23.25] CT
0.149 GC
/Helvetica 13.333 F
GS
[1 0 0 1 0 0] CT
-19 5.5 moveto 
1 -1 scale
(1.8) t 
GR
GR
GS
[0 -0.75 0.75 0 30.75 225.75] CT
0.149 GC
/Helvetica 14.667 F
GS
[1 0 0 1 0 0] CT
0 0 moveto 
1 -1 scale
(Cone Density \(cones/degree) t 
GR
GR
GS
[0 -0.75 0.75 0 25.5 86.25] CT
0.149 GC
/Helvetica 11.733 F
GS
[1 0 0 1 0 0] CT
0 0 moveto 
1 -1 scale
(2) t 
GR
GR
GS
[0 -0.75 0.75 0 30.75 81] CT
0.149 GC
/Helvetica 14.667 F
GS
[1 0 0 1 0 0] CT
0 0 moveto 
1 -1 scale
(\)) t 
GR
GR
GS
[0.75 0 0 0.75 54.75 21] CT
0.149 GC
N
1.906 -0.375 M
1.906 -0.469 1.969 -0.563 QT
4.672 -3.25 L
1.969 -5.953 L
1.906 -6.016 1.906 -6.125 QT
1.906 -6.219 1.984 -6.305 QT
2.063 -6.391 2.172 -6.391 QT
2.266 -6.391 2.375 -6.297 QT
5.063 -3.609 L
7.734 -6.297 L
7.844 -6.391 7.922 -6.391 QT
8.031 -6.391 8.109 -6.313 QT
8.188 -6.234 8.188 -6.125 QT
8.188 -6.016 8.125 -5.953 QT
5.422 -3.25 L
8.125 -0.563 L
8.188 -0.469 8.188 -0.375 QT
8.188 -0.266 8.109 -0.188 QT
8.031 -0.109 7.922 -0.109 QT
7.828 -0.109 7.734 -0.203 QT
5.063 -2.891 L
2.375 -0.203 L
2.266 -0.109 2.172 -0.109 QT
2.063 -0.109 1.984 -0.195 QT
1.906 -0.281 1.906 -0.375 QT
cp
f
GR
GS
[0.75 0 0 0.75 63 21] CT
0.149 GC
/Helvetica 13.333 F
GS
[1 0 0 1 0 0] CT
0 0 moveto 
1 -1 scale
(10) t 
GR
GR
GS
[0.75 0 0 0.75 74.25 16.5] CT
0.149 GC
/Helvetica 10.667 F
GS
[1 0 0 1 0 0] CT
0 0 moveto 
1 -1 scale
(4) t 
GR
GR
GS
[0.75 0 0 0.75 217.50021 21.18752] CT
/Helvetica-Bold 14.667 F
GS
[1 0 0 1 0 0] CT
-124 -4 moveto 
1 -1 scale
(Cone Density centered around PCD) t 
GR
GR
GS
[0.75 0 0 0.75 0 0] CT
0 1 1 RC
1 LJ
0.667 LW
N
134.438 374.041 M
134.879 372.875 L
135.515 372.204 L
136.15 371.457 L
136.786 371.057 L
137.422 370.555 L
138.058 370.071 L
138.693 369.77 L
139.329 369.194 L
139.965 369.183 L
140.601 369.088 L
141.236 368.929 L
141.872 368.744 L
142.508 368.541 L
143.144 367.555 L
143.779 365.764 L
144.415 360.373 L
145.051 353.621 L
145.687 349.84 L
146.322 349.543 L
146.958 348.893 L
147.594 348.232 L
148.229 347.765 L
148.865 347.583 L
149.501 347.298 L
150.137 346.872 L
150.772 346.328 L
151.408 346.043 L
152.044 345.859 L
152.68 345.551 L
153.315 345.12 L
153.951 344.582 L
154.587 344.14 L
155.223 343.434 L
155.858 342.966 L
156.494 342.538 L
157.13 341.957 L
157.766 341.608 L
158.401 341.114 L
159.037 340.712 L
159.673 340.365 L
160.309 340.119 L
160.944 339.878 L
161.58 339.602 L
162.216 339.274 L
162.852 339.005 L
163.487 338.217 L
164.123 337.806 L
164.759 337.404 L
165.395 336.694 L
166.03 335.993 L
166.666 335.456 L
167.302 334.866 L
167.938 334.378 L
168.573 333.836 L
169.209 333.214 L
169.845 332.634 L
170.48 331.954 L
171.116 331.117 L
171.752 330.617 L
172.388 330.091 L
173.023 329.415 L
173.659 328.727 L
174.295 328.265 L
174.931 327.803 L
175.566 327.154 L
176.202 326.527 L
176.838 326.08 L
177.474 325.417 L
178.109 325.123 L
178.745 324.738 L
179.381 324.347 L
180.017 323.887 L
180.652 323.242 L
181.288 322.953 L
181.924 322.548 L
182.56 321.98 L
183.195 321.357 L
183.831 321.219 L
184.467 320.833 L
185.103 320.299 L
185.738 319.906 L
186.374 319.97 L
187.01 319.975 L
187.646 319.66 L
188.281 319.505 L
188.917 318.66 L
189.553 317.87 L
190.188 317.022 L
190.824 316.193 L
191.46 315.175 L
192.096 314.811 L
192.731 314.617 L
193.367 313.591 L
194.003 312.415 L
194.639 311.231 L
195.274 310.421 L
195.91 309.541 L
196.546 309.26 L
197.182 309.046 L
197.817 308.559 L
198.453 307.801 L
199.089 307.38 L
199.725 307.173 L
200.36 306.509 L
200.996 305.851 L
201.632 305.386 L
202.268 304.635 L
202.903 303.415 L
203.539 302.401 L
204.175 301.956 L
204.811 301.33 L
205.446 300.356 L
206.082 299.555 L
206.718 299.078 L
207.354 298.099 L
207.989 297.234 L
208.625 296.471 L
209.261 295.248 L
209.896 294.179 L
210.532 293.592 L
211.168 292.798 L
211.804 292.032 L
212.439 291.158 L
213.075 290.11 L
213.711 288.757 L
214.347 287.94 L
214.982 286.832 L
215.618 285.721 L
216.254 284.801 L
216.89 284.177 L
217.525 283.273 L
218.161 282.795 L
218.797 281.867 L
219.433 281.197 L
220.068 280.53 L
220.704 280.143 L
221.34 279.698 L
221.976 278.736 L
222.611 278.014 L
223.247 276.908 L
223.883 275.32 L
224.519 274.48 L
225.154 273.375 L
225.79 272.458 L
226.426 271.362 L
227.062 270.293 L
227.697 269.207 L
228.333 268.417 L
228.969 267.499 L
229.604 267.354 L
230.24 266.761 L
230.876 266.013 L
231.512 265.097 L
232.147 263.809 L
232.783 263.137 L
233.419 262.481 L
234.055 262.1 L
234.69 261.498 L
235.326 260.789 L
235.962 259.61 L
236.598 258.909 L
237.233 258.282 L
237.869 257.555 L
238.505 256.34 L
239.141 256.386 L
239.776 256.092 L
240.412 255.776 L
241.048 255.139 L
241.684 254.671 L
242.319 254.221 L
242.955 252.824 L
243.591 252.517 L
244.227 251.694 L
244.862 251.573 L
245.498 251.16 L
246.134 251.047 L
246.77 251.059 L
247.405 250.548 L
248.041 250.447 L
248.677 249.771 L
249.313 249.798 L
249.948 249.312 L
250.584 248.56 L
251.22 247.626 L
251.855 247.079 L
252.491 245.846 L
253.127 245.152 L
253.763 244.492 L
254.398 244.179 L
255.034 243.159 L
255.67 242.265 L
256.306 241.262 L
256.941 240.411 L
257.577 239.528 L
258.213 239.155 L
258.849 239.037 L
259.484 238.568 L
260.12 238.161 L
260.756 237.614 L
261.392 237.119 L
262.027 236.597 L
262.663 236.165 L
263.299 235.99 L
263.935 234.981 L
264.57 233.931 L
265.206 233.066 L
265.842 232.473 L
266.478 232.343 L
267.113 231.468 L
267.749 230.684 L
268.385 229.727 L
269.021 228.325 L
269.656 227.807 L
270.292 227.181 L
270.928 226.439 L
271.563 224.944 L
272.199 223.907 L
272.835 222.295 L
273.471 221.015 L
274.106 219.232 L
274.742 218.152 L
275.378 216.735 L
276.014 215.983 L
276.649 215.108 L
277.285 214.238 L
277.921 213.365 L
278.557 212.153 L
279.192 211.068 L
279.828 210.574 L
280.464 209.491 L
281.1 208.614 L
281.735 207.44 L
282.371 205.843 L
283.007 205.993 L
283.643 205.922 L
284.278 205.18 L
284.914 204.683 L
285.55 203.922 L
286.186 202.718 L
286.821 201.599 L
287.457 200.829 L
288.093 200.373 L
288.729 199.592 L
289.364 198.729 L
290 197.984 L
290.636 197.936 L
291.271 198.219 L
291.907 198.606 L
292.543 199.979 L
293.179 200.862 L
293.814 201.528 L
294.45 202.447 L
295.086 203.367 L
295.722 204.243 L
296.357 204.251 L
296.993 204.159 L
297.629 204.61 L
298.265 205.615 L
298.9 205.96 L
299.536 206.052 L
300.172 206.091 L
300.808 206.181 L
301.443 206.786 L
302.079 207.555 L
302.715 208.216 L
303.351 209.325 L
303.986 209.697 L
304.622 210.615 L
305.258 210.372 L
305.894 210.676 L
306.529 210.995 L
307.165 211.385 L
307.801 211.304 L
308.437 211.668 L
309.072 211.642 L
309.708 211.931 L
310.344 211.761 L
310.979 212.256 L
311.615 212.111 L
312.251 212.928 L
312.887 212.944 L
313.522 214.094 L
314.158 215.104 L
314.794 216.324 L
315.43 217.201 L
316.065 217.999 L
316.701 218.518 L
317.337 218.704 L
317.973 219.242 L
318.608 219.451 L
319.244 219.266 L
319.88 219.945 L
320.516 219.947 L
321.151 219.417 L
321.787 219.627 L
322.423 219.835 L
323.059 219.997 L
323.694 220.317 L
324.33 219.978 L
324.966 220.018 L
325.602 220.671 L
326.237 221.254 L
326.873 221.871 L
327.509 222.433 L
328.145 223.101 L
328.78 223.903 L
329.416 224.245 L
330.052 224.966 L
330.688 226.012 L
331.323 226.97 L
331.959 227.674 L
332.595 228.073 L
333.23 228.401 L
333.866 228.562 L
334.502 228.699 L
335.138 228.964 L
335.773 229.098 L
336.409 229.235 L
337.045 229.358 L
337.681 230.13 L
338.316 230.362 L
338.952 231.042 L
339.588 231.297 L
340.224 231.303 L
340.859 232.147 L
341.495 232.711 L
342.131 233.212 L
342.767 234.046 L
343.402 234.364 L
344.038 235.037 L
344.674 235.754 L
345.31 235.374 L
345.945 235.615 L
346.581 235.53 L
347.217 235.395 L
347.853 235.134 L
348.488 235.155 L
349.124 235.059 L
349.76 235.002 L
350.396 234.931 L
351.031 235.172 L
351.667 235.103 L
352.303 235.165 L
352.938 235.209 L
353.574 235.084 L
354.21 235.449 L
354.846 235.516 L
355.481 235.929 L
356.117 236.626 L
356.753 237.396 L
357.389 237.618 L
358.024 237.368 L
358.66 237.013 L
359.296 237.551 L
359.932 238.201 L
360.567 238.399 L
361.203 239.312 L
361.839 240.706 L
362.475 241.204 L
363.11 242.21 L
363.746 243.023 L
364.382 243.598 L
365.018 244.32 L
365.653 245.078 L
366.289 245.941 L
366.925 246.525 L
367.561 247.195 L
368.196 248.085 L
368.832 248.918 L
369.468 249.807 L
370.104 251.272 L
370.739 252.487 L
371.375 253.403 L
372.011 254.427 L
372.646 255.514 L
373.282 256.509 L
373.918 257.601 L
374.554 258.428 L
375.189 259.146 L
375.825 260.116 L
376.461 261.21 L
377.097 261.853 L
377.732 262.724 L
378.368 263.478 L
379.004 264.564 L
379.64 265.41 L
380.275 266.013 L
380.911 266.445 L
381.547 267.224 L
382.183 267.798 L
382.818 268.04 L
383.454 268.292 L
384.09 268.961 L
384.726 269.51 L
385.361 269.88 L
385.997 270.702 L
386.633 271.384 L
387.269 272.353 L
387.904 273.006 L
388.54 273.823 L
389.176 274.8 L
389.812 276.066 L
390.447 276.816 L
391.083 278.102 L
391.719 279.295 L
392.354 280.098 L
392.99 281.165 L
393.626 282.284 L
394.262 283.357 L
394.897 284.138 L
395.533 285.01 L
396.169 285.715 L
396.805 286.521 L
397.44 287.265 L
398.076 288.008 L
398.712 288.774 L
399.348 289.318 L
399.983 290.082 L
400.619 290.879 L
401.255 291.856 L
401.891 293.204 L
402.526 294.228 L
403.162 295.903 L
403.798 297.24 L
404.434 298.351 L
405.069 298.875 L
405.705 299.47 L
406.341 300.281 L
406.977 300.844 L
407.612 301.58 L
408.248 301.993 L
408.884 302.329 L
409.52 302.892 L
410.155 303.259 L
410.791 303.939 L
411.427 304.671 L
412.063 304.941 L
412.698 305.543 L
413.334 306.138 L
413.97 306.692 L
414.605 307.181 L
415.241 307.558 L
415.877 308.034 L
416.513 308.294 L
417.148 309.355 L
417.784 309.596 L
418.42 310.027 L
419.056 310.652 L
419.691 311.326 L
420.327 311.565 L
420.963 311.598 L
421.599 312.033 L
422.234 312.665 L
422.87 312.947 L
423.506 313.327 L
424.142 313.284 L
424.777 313.747 L
425.413 313.997 L
426.049 314.278 L
426.685 315.026 L
427.32 315.804 L
427.956 316.573 L
428.592 316.862 L
429.228 316.684 L
429.863 317.028 L
430.499 317.285 L
431.135 317.211 L
431.771 317.114 L
432.406 316.61 L
433.042 316.473 L
433.678 316.01 L
434.313 315.602 L
434.949 315.113 L
435.585 314.09 L
436.221 313.399 L
436.856 312.512 L
437.492 311.671 L
438.128 310.864 L
438.764 310.037 L
439.399 309.62 L
440.035 309.293 L
440.671 308.524 L
441.307 307.693 L
441.942 306.792 L
442.578 306.116 L
443.214 305.752 L
443.85 305.485 L
444.485 304.675 L
445.121 303.868 L
445.757 303.493 L
446.393 303.228 L
447.028 303.224 L
447.664 303.539 L
448.3 304.137 L
448.936 304.115 L
449.571 304.498 L
450.207 304.617 L
450.843 306.469 L
451.479 326.388 L
452.114 345.46 L
452.75 359.601 L
452.917 374.041 L
S
GR
GS
[0.75 0 0 0.75 0 0] CT
1 LJ
0.667 LW
N
123.222 374.041 M
123.436 372.621 L
124.071 367.466 L
124.707 363.212 L
125.343 358.468 L
125.979 355.261 L
126.614 351.573 L
127.25 351.689 L
127.886 351.98 L
128.521 351.919 L
129.157 351.257 L
129.793 350.588 L
130.429 349.86 L
131.064 349.193 L
131.7 348.755 L
132.336 348.381 L
132.972 347.873 L
133.607 347.077 L
134.243 346.478 L
134.879 345.672 L
135.515 345.019 L
136.15 344.522 L
136.786 344.084 L
137.422 343.415 L
138.058 342.903 L
138.693 342.504 L
139.329 342 L
139.965 341.747 L
140.601 341.407 L
141.236 341.188 L
141.872 340.877 L
142.508 340.466 L
143.144 340.39 L
143.779 340.008 L
144.415 339.539 L
145.051 338.934 L
145.687 338.273 L
146.322 337.138 L
146.958 336.61 L
147.594 336.048 L
148.229 335.627 L
148.865 335.223 L
149.501 334.558 L
150.137 334.017 L
150.772 333.26 L
151.408 332.93 L
152.044 332.421 L
152.68 331.755 L
153.315 330.683 L
153.951 329.733 L
154.587 329.383 L
155.223 328.589 L
155.858 328.174 L
156.494 327.683 L
157.13 326.948 L
157.766 326.501 L
158.401 325.535 L
159.037 325.007 L
159.673 324.457 L
160.309 323.946 L
160.944 323.627 L
161.58 323.106 L
162.216 322.792 L
162.852 322.438 L
163.487 322.057 L
164.123 321.486 L
164.759 320.733 L
165.395 319.895 L
166.03 319.401 L
166.666 318.624 L
167.302 318.282 L
167.938 317.741 L
168.573 316.591 L
169.209 315.586 L
169.845 315.179 L
170.48 314.671 L
171.116 314.177 L
171.752 313.455 L
172.388 312.844 L
173.023 312.625 L
173.659 312.362 L
174.295 312.126 L
174.931 312.066 L
175.566 311.683 L
176.202 311.202 L
176.838 310.538 L
177.474 310.279 L
178.109 309.389 L
178.745 308.747 L
179.381 308.244 L
180.017 307.435 L
180.652 306.83 L
181.288 305.622 L
181.924 304.757 L
182.56 303.363 L
183.195 301.979 L
183.831 301.067 L
184.467 299.924 L
185.103 298.757 L
185.738 297.667 L
186.374 296.425 L
187.01 295.603 L
187.646 294.655 L
188.281 293.905 L
188.917 292.93 L
189.553 292.408 L
190.188 291.877 L
190.824 290.912 L
191.46 290.288 L
192.096 289.48 L
192.731 289.054 L
193.367 288.898 L
194.003 288.571 L
194.639 288.153 L
195.274 288.027 L
195.91 287.615 L
196.546 286.845 L
197.182 284.574 L
197.817 283.796 L
198.453 283.351 L
199.089 282.943 L
199.725 282.535 L
200.36 281.682 L
200.996 281.499 L
201.632 280.833 L
202.268 280.04 L
202.903 279.225 L
203.539 278.038 L
204.175 277.18 L
204.811 276.045 L
205.446 274.706 L
206.082 273.754 L
206.718 272.651 L
207.354 271.721 L
207.989 270.834 L
208.625 268.881 L
209.261 267.438 L
209.896 265.956 L
210.532 264.918 L
211.168 264.136 L
211.804 263.095 L
212.439 262.463 L
213.075 261.959 L
213.711 260.553 L
214.347 259.77 L
214.982 258.36 L
215.618 258.089 L
216.254 258.049 L
216.89 257.736 L
217.525 257.315 L
218.161 256.506 L
218.797 255.769 L
219.433 255.337 L
220.068 254.588 L
220.704 254.291 L
221.34 254.137 L
221.976 253.776 L
222.611 253.177 L
223.247 253.351 L
223.883 253.48 L
224.519 252.697 L
225.154 251.279 L
225.79 251.522 L
226.426 251.42 L
227.062 251.733 L
227.697 251.778 L
228.333 251.927 L
228.969 251.43 L
229.604 251.576 L
230.24 251.353 L
230.876 251.152 L
231.512 250.626 L
232.147 250.174 L
232.783 249.501 L
233.419 248.694 L
234.055 247.514 L
234.69 246.453 L
235.326 244.523 L
235.962 243.327 L
236.598 242.438 L
237.233 241.196 L
237.869 240.196 L
238.505 239.733 L
239.141 238.989 L
239.776 238.579 L
240.412 237.875 L
241.048 237.872 L
241.684 238.212 L
242.319 238.109 L
242.955 237.828 L
243.591 237.365 L
244.227 236.884 L
244.862 235.943 L
245.498 234.384 L
246.134 233.695 L
246.77 233.261 L
247.405 232.82 L
248.041 231.297 L
248.677 230.477 L
249.313 229.74 L
249.948 228.459 L
250.584 227.95 L
251.22 227.021 L
251.855 226.317 L
252.491 225.01 L
253.127 223.726 L
253.763 222.988 L
254.398 222.265 L
255.034 220.372 L
255.67 218.991 L
256.306 217.798 L
256.941 216.417 L
257.577 213.885 L
258.213 212.294 L
258.849 210.908 L
259.484 209.201 L
260.12 208.114 L
260.756 206.956 L
261.392 205.543 L
262.027 203.806 L
262.663 202.704 L
263.299 202.132 L
263.935 202.272 L
264.57 202.293 L
265.206 202.207 L
265.842 201.229 L
266.478 201.208 L
267.113 201.579 L
267.749 201.452 L
268.385 201.148 L
269.021 200.922 L
269.656 200.053 L
270.292 199.805 L
270.928 200.164 L
271.563 199.386 L
272.199 199.733 L
272.835 199.959 L
273.471 200.629 L
274.106 201.844 L
274.742 202.376 L
275.378 202.919 L
276.014 203.439 L
276.649 203.997 L
277.285 205.016 L
277.921 205.816 L
278.557 206.246 L
279.192 207.256 L
279.828 207.417 L
280.464 207.409 L
281.1 207.607 L
281.735 207.473 L
282.371 208.058 L
283.007 207.935 L
283.643 207.656 L
284.278 207.987 L
284.914 208.903 L
285.55 209.349 L
286.186 209.626 L
286.821 210.555 L
287.457 211.271 L
288.093 211.675 L
288.729 212.168 L
289.364 212.658 L
290 213.45 L
290.636 213.524 L
291.271 214.788 L
291.907 216.111 L
292.543 216.678 L
293.179 217.184 L
293.814 217.573 L
294.45 218.632 L
295.086 219.863 L
295.722 220.385 L
296.357 220.484 L
296.993 220.543 L
297.629 220.711 L
298.265 220.478 L
298.9 221.286 L
299.536 221.759 L
300.172 221.84 L
300.808 223.003 L
301.443 223.802 L
302.079 224.392 L
302.715 224.842 L
303.351 224.95 L
303.986 224.983 L
304.622 225.257 L
305.258 225.484 L
305.894 225.714 L
306.529 225.971 L
307.165 226.65 L
307.801 227.133 L
308.437 227.361 L
309.072 227.931 L
309.708 228.366 L
310.344 228.898 L
310.979 228.635 L
311.615 228.135 L
312.251 228.26 L
312.887 228.017 L
313.522 228.236 L
314.158 228.819 L
314.794 229.64 L
315.43 229.705 L
316.065 230.434 L
316.701 230.858 L
317.337 231.469 L
317.973 231.877 L
318.608 232.694 L
319.244 232.633 L
319.88 233.524 L
320.516 234.561 L
321.151 234.325 L
321.787 234.571 L
322.423 235.05 L
323.059 235.395 L
323.694 235.81 L
324.33 236.044 L
324.966 236.171 L
325.602 236.658 L
326.237 236.847 L
326.873 237.223 L
327.509 237.462 L
328.145 237.678 L
328.78 237.903 L
329.416 238.275 L
330.052 238.628 L
330.688 239.031 L
331.323 238.852 L
331.959 238.978 L
332.595 239.194 L
333.23 239.492 L
333.866 239.629 L
334.502 239.723 L
335.138 240.126 L
335.773 240.726 L
336.409 240.687 L
337.045 240.756 L
337.681 240.71 L
338.316 240.61 L
338.952 240.64 L
339.588 240.55 L
340.224 240.485 L
340.859 239.961 L
341.495 239.052 L
342.131 239.271 L
342.767 238.619 L
343.402 237.936 L
344.038 237.909 L
344.674 238.051 L
345.31 238.454 L
345.945 238.85 L
346.581 239.027 L
347.217 238.854 L
347.853 238.744 L
348.488 239.178 L
349.124 239.955 L
349.76 240.917 L
350.396 241.299 L
351.031 241.516 L
351.667 242.376 L
352.303 242.83 L
352.938 243.628 L
353.574 244.759 L
354.21 246.157 L
354.846 248.059 L
355.481 249.264 L
356.117 250.332 L
356.753 251.288 L
357.389 252.438 L
358.024 253.57 L
358.66 254.842 L
359.296 255.864 L
359.932 256.61 L
360.567 257.992 L
361.203 259.155 L
361.839 259.926 L
362.475 260.56 L
363.11 261.326 L
363.746 262.437 L
364.382 262.594 L
365.018 263.075 L
365.653 263.407 L
366.289 263.96 L
366.925 264.249 L
367.561 264.728 L
368.196 265.465 L
368.832 266.841 L
369.468 267.589 L
370.104 267.984 L
370.739 268.797 L
371.375 269.697 L
372.011 270.58 L
372.646 271.833 L
373.282 272.612 L
373.918 273.34 L
374.554 274.26 L
375.189 275.53 L
375.825 276.074 L
376.461 276.965 L
377.097 277.933 L
377.732 278.925 L
378.368 280.026 L
379.004 281.623 L
379.64 282.677 L
380.275 283.357 L
380.911 284.23 L
381.547 285.525 L
382.183 286.902 L
382.818 288.557 L
383.454 289.645 L
384.09 291.055 L
384.726 291.951 L
385.361 293.109 L
385.997 293.741 L
386.633 294.593 L
387.269 295.758 L
387.904 296.831 L
388.54 297.68 L
389.176 299.03 L
389.812 299.668 L
390.447 300.411 L
391.083 301.464 L
391.719 302.249 L
392.354 303.016 L
392.99 303.707 L
393.626 304.595 L
394.262 305.125 L
394.897 305.652 L
395.533 306.213 L
396.169 307.276 L
396.805 307.746 L
397.44 308.421 L
398.076 309.244 L
398.712 309.745 L
399.348 310.3 L
399.983 310.979 L
400.619 311.098 L
401.255 311.428 L
401.891 311.981 L
402.526 312.554 L
403.162 312.787 L
403.798 312.921 L
404.434 313.327 L
405.069 313.726 L
405.705 313.871 L
406.341 314.103 L
406.977 314.246 L
407.612 314.349 L
408.248 314.377 L
408.884 314.225 L
409.52 314.186 L
410.155 314.29 L
410.791 314.268 L
411.427 314.057 L
412.063 313.947 L
412.698 313.937 L
413.334 313.517 L
413.97 312.758 L
414.605 312.076 L
415.241 311.78 L
415.877 311.458 L
416.513 311.065 L
417.148 310.909 L
417.784 310.767 L
418.42 310.798 L
419.056 310.177 L
419.691 309.801 L
420.327 309.443 L
420.963 308.89 L
421.599 308.413 L
422.234 308.077 L
422.87 308.132 L
423.506 307.695 L
424.142 307.661 L
424.777 307.525 L
425.413 307.293 L
426.049 307.431 L
426.685 307.228 L
427.32 307.228 L
427.956 306.741 L
428.592 306.449 L
429.228 305.673 L
429.863 305.114 L
430.499 304.824 L
431.135 304.303 L
431.771 303.753 L
432.406 303.54 L
433.042 303.211 L
433.678 303.016 L
434.313 305.088 L
434.949 311.257 L
435.585 320.752 L
436.221 329.67 L
436.856 334.991 L
437.492 339.858 L
438.128 343.861 L
438.764 344.403 L
439.399 345.085 L
440.035 348.603 L
440.671 351.972 L
441.307 374.011 L
441.308 374.041 L
S
GR
GS
[0.75 0 0 0.75 0 0] CT
1 GC
N
496 78 M
496 42 L
369 42 L
369 78 L
cp
f
GR
GS
[0.75 0 0 0.75 312 38.89726] CT
/Helvetica 12 F
GS
[1 0 0 1 0 0] CT
0 5 moveto 
1 -1 scale
(PCD centered) t 
GR
GR
GS
[0.75 0 0 0.75 0 0] CT
0 1 1 RC
1 LJ
0.667 LW
N
373 51.863 M
413 51.863 L
S
GR
GS
[0.75 0 0 0.75 312 51.10274] CT
/Helvetica 12 F
GS
[1 0 0 1 0 0] CT
0 5 moveto 
1 -1 scale
(PRL centered) t 
GR
GR
GS
[0.75 0 0 0.75 0 0] CT
1 LJ
0.667 LW
N
373 68.137 M
413 68.137 L
S
GR
GS
[0.75 0 0 0.75 0 0] CT
0.149 GC
10.0 ML
0.667 LW
N
369 78 M
369 42 L
496 42 L
496 78 L
cp
S
GR
%%Trailer
%%Pages: 1
%%EOF
