     x      y
73.7	183.7
73.8	212.3
73.7	233.3
75.5	225.5
77.0	176.5
77.0	205.0
80.5	231.0
81.5	157.0
81.0	223.5
83.5	171.5
83.0	217.0
85.0	202.5
84.0	210.0
85.0	227.5
87.5	194.5
87.7	233.7
88.3	221.7
89.0	188.0
90.0	158.5
90.0	215.0
91.0	207.0
92.5	200.0
93.0	227.0
96.0	220.0
97.5	213.0
97.5	232.0
98.0	205.5
99.0	158.0
100.5	199.0
101.0	225.5
102.0	236.5
103.0	193.0
103.5	219.0
104.5	181.0
104.7	211.3
107.0	231.0
109.0	199.0
109.5	224.5
110.5	170.0
111.7	177.3
111.0	184.5
111.0	217.5
112.5	162.5
112.5	210.5
112.5	237.0
114.7	229.7
117.5	191.0
117.0	222.5
118.0	168.0
118.0	175.0
118.0	183.5
118.0	216.0
119.7	160.7
119.5	209.0
119.5	235.0
122.5	228.0
123.3	202.3
124.5	180.5
124.5	188.5
124.5	219.5
125.0	172.5
126.3	210.7
128.5	233.5
130.0	226.0
130.7	177.3
131.7	169.3
131.5	185.5
131.0	202.5
132.5	154.0
132.0	193.5
132.7	219.3
133.0	142.0
134.3	161.3
134.0	212.0
134.0	238.5
136.0	231.5
137.5	136.0
137.0	148.0
137.0	174.5
138.0	181.0
138.3	206.7
138.0	224.5
139.5	166.0
139.0	188.0
140.7	142.3
140.5	154.5
140.3	194.3
140.3	217.7
141.3	130.3
141.0	201.0
141.3	236.7
142.0	171.5
143.0	229.5
144.3	148.7
144.0	162.0
144.0	176.5
144.0	211.5
145.5	137.0
145.3	183.3
145.5	223.0
146.0	190.5
146.5	241.5
147.3	197.3
147.5	205.0
148.5	143.0
148.5	156.0
148.0	168.5
148.0	218.0
148.3	234.7
149.5	131.0
151.0	177.5
151.0	211.0
151.0	228.5
152.5	186.0
153.5	150.0
153.0	162.5
153.0	193.0
154.0	200.0
154.5	137.5
154.0	170.0
154.0	223.0
156.0	206.0
156.0	217.0
156.5	234.0
157.5	143.0
157.0	157.0
158.0	175.5
158.5	182.5
158.5	212.0
159.3	131.3
159.5	189.0
159.0	228.0
160.5	164.0
160.3	195.3
161.5	149.5
161.5	202.0
161.5	222.0
161.5	240.0
162.7	138.3
164.5	172.0
164.7	178.7
164.0	208.0
164.0	233.5
165.3	155.3
165.3	215.7
166.5	132.5
166.5	144.5
166.5	185.0
167.0	192.0
167.0	227.5
168.0	161.0
168.0	198.0
169.5	204.5
169.5	222.0
169.0	239.0
170.5	150.0
170.5	168.0
170.5	174.5
171.0	139.5
171.5	211.0
172.5	181.0
172.3	232.3
173.3	155.7
174.0	133.0
174.5	162.0
174.0	188.0
174.0	194.0
174.5	200.0
175.7	144.7
175.0	217.5
176.5	238.0
177.3	205.3
177.0	225.0
178.3	175.7
179.0	151.5
179.0	168.5
179.5	232.0
180.7	138.3
180.0	183.5
180.5	191.0
180.0	212.0
181.5	198.0
182.0	159.5
182.7	218.7
183.7	146.7
184.7	172.7
184.0	237.0
185.0	206.0
185.5	231.0
186.3	166.3
186.0	179.5
186.5	186.5
186.0	224.0
187.5	130.5
187.5	153.5
187.5	212.5
188.0	143.5
188.7	193.3
189.5	200.5
189.7	218.7
190.5	136.5
190.3	235.7
192.3	166.7
192.5	174.0
192.5	182.0
192.0	207.5
193.0	224.5
193.5	230.0
194.5	148.0
194.3	188.3
195.0	141.5
195.5	195.0
195.5	213.5
195.5	241.0
196.5	155.5
196.5	202.0
196.0	220.5
197.5	135.0
197.0	234.5
198.5	162.0
198.5	177.5
199.0	169.5
200.0	184.5
200.0	208.0
200.0	225.5
201.5	143.5
201.0	219.0
203.0	151.0
202.3	190.3
202.5	239.5
203.3	196.3
204.5	159.0
204.0	203.0
204.5	232.5
205.7	134.7
205.5	166.0
205.5	173.0
205.5	180.5
205.5	214.0
206.5	221.5
208.5	207.0
208.0	227.0
209.0	141.5
209.5	148.0
209.8	186.3
209.5	238.0
210.7	155.3
210.0	193.0
210.5	200.5
211.7	177.7
212.3	162.7
212.5	169.5
213.0	211.5
212.0	218.5
212.0	232.0
213.5	137.0
215.5	205.0
215.0	225.5
216.7	189.3
216.0	197.0
217.0	142.5
217.0	150.5
217.3	182.3
217.0	237.5
218.0	173.5
219.0	160.0
219.5	214.0
219.0	220.5
220.5	167.0
220.5	232.0
221.7	134.7
222.5	185.5
222.0	201.5
222.0	208.0
223.0	146.5
223.0	177.0
223.0	193.5
223.0	225.5
225.0	155.5
225.0	236.0
226.5	163.5
226.0	219.0
227.0	139.0
227.5	172.0
227.5	213.0
228.5	200.5
228.0	230.5
229.0	180.5
229.0	188.0
229.0	207.0
229.0	241.5
230.0	132.0
231.0	151.5
231.0	195.0
231.0	224.5
232.3	167.7
233.5	160.0
233.0	218.0
233.5	235.0
234.5	138.0
235.7	229.3
236.5	146.5
236.7	177.3
236.0	185.5
236.0	199.5
236.0	206.0
236.0	213.0
237.0	131.5
237.0	154.0
237.5	193.0
237.0	240.5
238.0	223.0
239.5	164.0
239.0	170.0
241.5	144.0
241.5	218.0
241.7	232.3
242.5	137.5
242.0	210.5
243.7	130.3
243.5	158.0
243.0	174.0
243.0	184.5
243.0	190.0
243.7	196.7
243.5	204.0
243.5	226.5
245.0	150.5
245.0	239.0
246.7	167.7
246.5	180.0
247.0	215.0
248.0	142.5
248.0	229.0
249.3	135.3
249.5	163.0
249.7	174.3
249.0	208.5
249.3	222.3
250.5	187.0
250.0	194.0
250.0	200.5
252.2	156.4
253.3	148.3
253.5	213.5
253.0	238.5
254.0	181.0
254.0	233.0
255.5	167.0
256.7	134.7
256.3	173.7
256.5	194.5
256.5	205.5
256.0	227.0
257.0	161.0
257.5	219.5
258.0	186.5
260.0	155.5
260.5	147.0
260.0	211.0
260.0	238.0
261.0	178.5
261.5	199.5
261.0	232.0
262.7	170.3
263.3	137.3
263.0	192.0
263.0	226.5
264.0	163.0
264.5	217.0
265.4	130.8
265.5	185.0
266.0	204.0
266.5	210.0
267.5	144.0
268.0	223.5
267.0	238.0
268.0	157.0
268.5	176.5
268.3	197.7
270.0	169.0
270.0	232.5
271.0	137.0
271.0	190.5
271.5	219.0
272.0	149.0
272.7	161.7
272.0	213.0
273.0	182.5
273.0	207.5
273.7	228.3
274.7	238.7
275.7	155.7
276.5	143.0
276.5	167.0
276.0	196.0
276.3	202.7
276.0	223.0
277.5	177.5
278.0	190.0
278.0	216.0
278.5	233.0
279.0	137.0
279.5	149.0
280.0	160.5
281.0	184.0
281.5	131.0
281.0	171.5
281.0	207.5
282.0	154.5
282.5	222.0
282.0	228.0
282.5	239.0
283.5	142.5
283.0	197.5
284.5	178.0
284.5	216.5
285.0	164.0
285.5	190.0
286.7	149.7
286.5	205.0
287.7	157.7
287.0	211.5
287.5	232.5
288.0	137.0
288.0	170.5
289.0	183.0
289.0	226.0
289.3	239.7
290.0	200.0
290.5	219.0
291.5	143.5
291.7	164.3
291.7	176.7
291.5	194.0
293.5	131.5
293.7	212.7
294.0	150.5
294.5	158.0
294.0	188.0
294.7	230.3
295.5	170.5
295.5	206.0
295.5	236.5
296.5	139.0
296.3	182.3
296.0	224.0
297.5	199.5
298.0	217.5
299.0	176.5
299.0	193.0
300.0	146.0
300.7	154.7
300.5	163.5
300.7	211.3
301.0	133.5
301.0	187.0
301.5	229.0
301.7	234.7
303.5	172.0
303.0	205.0
303.3	222.7
303.7	240.7
305.2	139.6
304.3	198.7
305.0	180.0
305.5	216.5
306.3	192.7
307.5	151.0
307.5	210.0
308.0	145.5
308.0	158.5
308.7	186.3
308.5	232.0
309.0	166.0
309.5	204.0
310.0	173.0
310.5	221.0
310.5	227.0
310.0	238.0
311.0	198.5
312.5	134.5
312.3	180.3
313.5	192.0
313.0	216.0
314.0	142.0
314.0	148.5
314.0	209.0
315.5	161.0
315.7	167.7
316.5	154.0
316.0	186.0
316.0	204.0
316.5	232.5
317.0	174.5
317.0	226.0
317.0	239.5
319.0	131.0
318.0	198.0
318.0	220.5
319.7	137.7
320.3	180.3
320.7	191.7
321.5	144.0
321.5	163.0
321.0	209.0
321.0	215.5
322.3	169.3
322.5	235.0
323.5	150.0
323.5	203.0
323.5	229.0
323.7	241.7
324.5	157.0
324.0	175.0
324.0	186.0
325.5	197.0
325.8	222.0
326.7	133.7
326.5	140.0
327.5	180.0
328.0	164.5
328.7	191.3
328.5	208.5
328.0	216.0
328.0	233.0
329.0	239.0
330.5	145.5
330.0	173.5
331.0	153.0
331.0	185.5
331.5	202.5
331.0	228.0
332.0	159.5
333.0	221.5
334.7	134.7
334.5	166.5
334.5	180.5
334.5	197.0
334.5	235.5
335.0	190.5
335.3	208.3
336.5	149.0
336.7	214.7
337.5	142.0
337.0	174.0
338.0	155.5
338.5	226.0
339.0	203.0
339.0	220.5
341.0	162.0
340.5	188.0
340.0	233.0
341.5	131.0
341.0	168.0
341.5	196.0
341.0	238.5
342.5	138.0
342.0	178.0
342.0	209.0
343.3	144.3
344.0	150.5
344.0	215.5
344.5	223.0
345.0	156.5
345.7	173.3
345.5	183.5
345.5	229.5
346.3	190.3
347.0	202.5
347.5	235.0
348.5	167.0
348.5	196.5
349.0	133.5
349.5	140.0
349.5	161.0
349.0	209.0
349.0	220.0
350.5	146.0
351.0	153.5
351.5	179.0
351.0	227.0
352.3	172.3
352.0	185.0
353.7	191.7
353.0	214.5
354.0	240.5
354.5	198.0
354.5	204.0
354.0	234.0
355.0	221.5
356.5	136.5
356.3	158.3
356.0	166.5
357.0	143.0
357.5	151.0
357.5	175.5
357.5	210.0
357.5	227.0
359.0	183.0
359.5	232.0
360.0	192.5
360.0	216.5
360.0	238.0
361.5	132.5
361.0	200.0
362.5	147.0
362.5	162.0
362.0	170.0
362.0	206.0
362.3	222.3
364.7	154.7
364.0	177.0
365.0	141.0
365.0	212.0
365.0	228.0
366.5	183.0
366.0	188.5
366.0	234.0
367.0	195.5
367.5	218.5
367.3	239.3
368.5	148.0
368.0	166.5
368.0	202.0
370.0	160.5
370.0	172.8
370.5	135.5
370.0	208.0
370.0	224.5
371.7	178.7
371.0	230.5
372.0	154.0
372.5	214.0
373.5	142.0
373.5	185.0
373.0	191.5
373.0	236.0
374.0	198.0
374.5	220.0
375.7	167.3
375.5	204.0
376.0	149.0
376.5	226.0
377.0	175.0
378.0	137.0
378.0	159.5
378.0	210.5
378.0	232.0
379.3	181.7
379.0	194.0
379.5	238.0
380.0	188.0
380.5	200.0
380.0	216.0
381.3	144.7
382.0	130.5
382.0	152.5
382.0	165.5
382.5	172.0
382.0	222.0
383.0	206.5
383.0	228.5
384.5	234.0
385.3	138.3
385.0	159.5
385.5	212.0
386.0	179.0
386.0	193.5
386.5	240.5
387.7	186.3
387.0	201.0
387.0	218.0
388.5	165.5
389.0	146.5
389.5	154.0
389.0	172.5
389.0	224.5
390.5	131.5
390.0	230.5
390.0	236.5
392.7	138.7
392.5	160.0
392.0	198.0
392.0	207.0
392.7	214.3
393.0	183.0
394.5	190.0
394.0	221.0
394.0	241.0
395.5	169.0
395.5	176.0
396.0	144.0
396.0	151.0
396.0	228.0
397.5	196.0
397.5	203.0
397.0	235.0
398.5	133.0
398.5	158.0
398.0	210.0
400.0	187.0
399.5	217.5
400.5	165.0
400.0	180.5
401.0	139.5
401.0	224.5
402.3	146.3
403.0	173.8
402.7	232.3
402.5	239.0
403.5	154.0
403.0	193.0
403.7	200.3
403.3	206.7
404.8	213.0
406.5	134.5
406.7	160.7
407.0	167.0
407.3	220.7
407.0	227.5
408.6	141.8
408.6	150.2
408.3	181.3
409.0	189.0
409.3	197.7
409.0	235.0
410.0	205.0
410.5	209.0
411.0	156.5
411.0	173.0
411.5	215.0
413.5	136.0
413.0	229.0
414.0	163.0
414.3	193.7
415.0	150.0
415.0	179.5
415.7	186.7
415.0	222.0
416.3	239.7
417.0	143.0
417.5	172.5
417.0	203.0
417.5	210.0
418.5	132.0
418.5	156.0
418.0	234.0
419.0	216.5
419.0	228.0
421.5	138.0
421.6	164.0
421.0	192.0
422.0	149.5
422.0	180.0
422.5	199.0
424.0	207.0
423.5	237.0
424.7	130.3
424.5	173.0
424.0	187.0
424.0	222.5
424.7	230.3
425.0	214.5
426.3	155.3
427.5	146.0
428.5	184.0
428.0	194.5
429.0	161.0
429.3	168.7
429.5	178.0
430.7	139.3
430.5	227.0
430.0	240.5
431.5	204.0
431.0	219.5
431.5	234.0
432.5	190.0
432.5	212.5
433.5	131.5
435.3	148.3
435.0	156.5
435.5	164.0
436.0	170.5
436.3	177.7
436.0	184.0
436.0	224.0
437.0	238.0
438.0	137.0
438.5	231.0
439.5	142.0
439.7	208.7
439.5	217.0
440.3	189.7
441.5	131.5
441.7	153.7
441.5	175.0
442.5	161.0
442.0	167.5
442.5	224.5
445.0	181.4
443.7	235.3
444.5	146.5
445.0	138.5
445.0	195.5
445.0	203.0
446.5	188.0
446.0	229.5
447.5	173.5
447.0	210.0
448.5	165.5
449.3	132.3
449.0	152.0
449.0	159.0
449.5	224.0
449.0	239.5
451.3	233.7
452.5	139.5
452.0	147.0
452.5	185.0
452.0	192.0
452.0	198.5
452.5	205.5
453.0	178.0
453.3	212.3
454.0	170.0
454.0	228.5
455.0	155.5
455.0	163.0
458.0	133.0
457.5	223.5
457.0	237.0
458.6	144.8
458.5	189.0
458.0	202.0
458.5	217.5
459.5	175.0
459.5	182.0
459.0	196.0
460.0	209.0
461.3	159.7
461.0	167.5
462.5	138.5
462.5	152.5
462.0	233.0
463.0	241.0
464.7	192.7
464.5	205.5
464.5	215.0
465.0	199.0
465.0	221.5
466.0	145.5
466.7	179.3
466.0	186.0
466.5	228.0
467.0	132.5
467.5	164.5
467.0	172.0
467.7	236.3
468.5	157.5
468.7	210.3
470.0	138.5
470.5	150.0
470.0	241.5
471.0	189.5
471.5	196.5
471.7	204.3
471.5	218.0
472.5	231.0
473.5	144.5
473.5	169.5
473.0	183.0
473.0	225.0
474.0	162.0
474.0	177.0
475.7	131.7
475.3	236.7
476.0	154.5
476.0	212.0
477.5	140.0
477.0	194.0
478.0	220.5
479.0	148.0
479.7	173.7
479.0	200.5
480.0	167.5
480.5	181.0
481.2	187.4
481.0	160.5
481.0	227.0
481.0	234.0
482.0	134.0
483.7	154.3
483.5	194.5
483.5	206.5
483.0	214.0
484.0	141.5
485.3	220.3
486.0	170.0
486.0	231.0
486.5	237.0
487.0	149.0
487.0	177.0
487.5	184.0
487.3	200.3
488.5	162.0
489.5	137.0
489.0	212.0
489.5	225.0
490.5	144.0
490.0	192.0
491.0	231.0
492.0	156.0
492.5	205.0
492.7	218.7
493.3	168.7
493.3	179.0
493.3	237.7
495.5	149.5
495.0	187.5
496.7	196.3
496.3	211.3
497.0	142.0
497.0	162.5
497.5	225.0
498.0	134.5
498.5	175.0
498.0	232.0
499.5	218.0
499.5	238.0
500.3	155.0
500.0	182.0
500.3	203.7
501.0	168.5
501.7	189.7
503.0	138.5
504.0	147.5
504.0	197.5
504.5	228.0
505.7	161.3
505.0	234.5
506.0	174.5
506.0	211.5
506.0	220.0
507.5	183.0
508.3	203.7
508.5	239.0
509.5	140.5
509.5	155.0
509.3	167.7
509.0	190.5
511.0	130.5
511.5	224.0
512.5	148.0
512.0	196.5
512.0	231.0
513.0	161.5
513.0	175.5
513.3	210.7
514.7	237.7
515.5	183.5
516.5	139.5
516.5	155.0
516.5	191.0
516.5	205.0
517.0	216.5
518.0	169.5
518.5	198.0
518.0	224.5
520.0	148.0
519.0	232.0
520.5	133.5
521.3	161.7
521.3	210.3
522.0	239.0
523.5	177.0
524.2	184.6
523.0	192.0
523.7	202.7
524.5	141.0
524.5	154.5
524.3	220.7
524.5	228.0
526.7	214.7
527.3	169.3
527.0	197.5
527.5	234.0
528.3	134.3
529.0	147.5
529.7	161.3
529.5	189.5
529.0	206.5
529.5	240.0
531.0	180.5
531.3	220.7
532.0	154.0
532.0	199.5
532.0	228.0
533.0	140.5
534.5	166.5
534.5	175.0
534.0	212.0
536.3	188.3
536.7	204.7
536.0	234.5
537.3	134.3
537.0	148.5
538.6	158.2
538.5	196.0
539.0	220.0
540.5	170.0
540.5	227.5
541.7	141.7
541.3	179.3
541.0	209.0
541.5	239.0
543.8	192.6
543.7	215.3
544.0	150.0
544.0	164.0
544.5	185.5
544.3	199.3
544.7	222.7
545.0	133.5
545.0	232.5
547.0	157.5
547.0	174.0
547.0	204.5
549.0	181.8
548.0	211.0
548.0	239.5
550.0	140.0
550.0	226.5
551.0	164.0
551.0	189.0
551.5	198.5
551.5	217.0
552.5	132.5
552.0	149.5
553.5	206.0
553.6	233.8
555.5	177.5
555.0	157.0
557.0	170.5
558.0	144.3
557.0	185.0
557.0	193.5
557.0	221.0
558.5	163.0
558.3	212.3
558.5	228.0
560.0	136.8
559.7	200.3
560.0	206.0
560.3	234.3
561.0	130.5
561.0	241.0
563.5	150.5
563.5	182.0
564.0	158.0
564.5	166.5
564.5	192.5
564.5	217.5
564.5	224.0
565.5	142.5
565.0	174.5
565.0	210.5
566.0	230.5
567.0	205.0
567.0	237.0
568.3	133.3
569.0	186.5
570.0	154.0
570.7	199.3
571.5	147.0
571.0	160.5
571.5	168.0
571.0	179.5
571.7	219.3
572.0	140.5
572.0	213.0
572.5	226.0
572.0	232.5
573.0	192.5
573.5	240.0
575.5	134.5
575.5	154.0
576.0	172.0
576.0	185.5
577.0	206.0
578.7	141.7
578.5	165.0
578.0	216.0
578.7	228.3
578.5	235.0
579.0	178.0
579.0	198.5
579.5	222.5
580.7	130.3
580.5	148.0
580.5	191.0
582.7	136.3
582.3	157.3
582.5	241.0
583.0	171.0
583.0	184.0
583.7	211.3
585.5	204.0
585.3	218.7
585.0	234.0
586.5	197.0
587.5	142.5
587.5	150.5
587.0	177.0
587.0	227.0
588.0	164.0
588.3	189.3
589.0	131.0
590.7	182.7
590.0	209.5
590.0	240.5
591.0	156.0
591.3	216.7
591.7	232.3
593.0	170.0
593.5	147.0
593.7	193.7
594.0	200.5
594.5	205.5
594.5	225.0
596.0	138.3
595.5	177.0
596.5	163.0
597.3	186.3
597.5	211.5
597.5	239.0
598.0	153.5
598.0	231.5
599.0	219.0
601.5	145.5
602.3	171.3
601.0	204.5
602.5	133.5
603.7	179.7
603.0	195.5
603.0	226.5
604.5	158.0
604.0	236.5
605.0	151.0
605.3	164.3
605.5	188.0
605.5	211.0
606.3	219.3
607.5	139.5
608.0	203.5
610.5	146.0
610.5	154.0
610.5	176.0
610.7	191.7
610.7	232.3
610.0	240.5
612.0	184.5
611.5	224.5
612.0	168.5
612.0	198.0
614.0	132.5
613.5	160.5
613.0	208.5
614.5	215.5
616.5	140.0
616.0	151.5
617.7	202.3
618.5	173.0
618.5	180.5
618.5	229.0
618.0	236.5
619.5	188.5
619.3	195.7
619.0	222.0
620.0	164.5
621.5	134.5
621.3	147.7
622.0	156.0
623.0	209.0
624.5	217.0
624.0	240.0
625.5	140.0
625.5	177.0
625.7	184.3
625.0	233.0
626.7	169.3
626.0	200.5
626.0	225.5
628.5	147.5
629.5	133.0
629.7	162.3
630.0	155.0
630.5	213.0
631.3	191.7
631.7	229.3
631.0	236.0
632.3	174.7
632.5	184.0
632.0	205.0
633.5	220.5
634.0	140.5
634.0	168.0
635.0	149.0
636.0	197.5
637.5	133.0
637.3	179.7
637.7	210.7
637.0	239.5
638.3	157.7
638.5	231.0
639.7	203.7
640.5	145.0
640.0	173.0
641.5	166.0
641.0	187.0
641.5	224.0
642.3	193.7
644.0	139.5
643.3	216.7
644.0	151.5
644.0	237.5
645.3	180.7
645.0	210.5
646.5	159.0
647.0	133.0
647.0	230.5
648.0	145.5
648.0	171.5
648.7	187.7
648.3	201.3
650.5	194.0
650.0	222.0
651.5	139.5
652.5	163.0
652.3	214.7
652.3	236.3
653.0	179.5
655.5	147.5
655.7	155.3
655.0	206.5
655.0	227.5
656.3	133.7
656.5	198.5
657.0	170.0
658.5	174.5
658.5	184.5
658.0	220.5
659.5	191.5
660.5	212.5
660.5	239.0
661.7	143.0
661.0	232.5
662.0	149.5
662.3	162.7
662.0	203.5
663.0	168.5
663.3	179.7
663.5	226.0
665.0	173.0
665.0	218.5
666.3	137.7
666.5	186.5
666.0	196.5
71.5	245.0
72.0	256.0
72.7	263.3
72.0	271.0
72.0	279.5
72.5	295.0
73.5	302.0
73.3	337.7
73.0	344.5
74.7	309.7
74.0	316.5
74.3	324.3
75.0	331.5
75.5	351.0
76.5	251.0
77.7	276.3
77.5	284.5
78.0	243.0
78.5	269.0
78.0	291.5
79.5	298.5
80.0	261.5
80.5	305.5
80.5	313.0
80.5	328.0
81.0	320.5
81.5	335.0
81.0	343.0
83.0	349.5
84.0	288.0
85.3	274.3
85.5	281.0
85.0	295.0
86.0	301.5
87.0	267.0
87.5	324.0
87.5	331.0
87.5	338.0
88.0	242.0
88.0	316.5
88.5	345.0
89.0	250.0
89.5	309.0
91.0	279.5
92.0	273.0
92.0	285.5
92.0	292.0
92.0	299.5
93.0	256.0
94.7	312.3
94.3	320.3
94.5	328.0
94.5	335.0
95.5	305.0
95.0	342.0
95.3	348.7
96.0	268.0
98.5	281.0
98.3	288.7
98.0	296.0
99.3	274.3
101.5	316.0
101.3	323.3
101.5	331.0
101.0	338.0
101.5	345.5
102.0	308.5
104.0	270.5
105.5	278.5
105.0	293.5
106.0	262.5
106.3	285.7
107.0	251.0
107.5	313.0
107.5	334.0
108.0	319.5
108.0	326.5
108.0	342.0
108.0	348.5
110.5	256.5
111.0	306.5
112.0	245.0
112.0	276.5
112.0	299.0
113.7	263.3
114.5	251.0
114.0	283.0
114.0	291.0
114.5	330.0
115.0	314.5
115.5	323.0
115.0	337.5
115.5	345.5
116.5	271.0
116.5	352.0
117.5	257.5
117.7	303.7
119.0	243.0
120.5	265.0
120.7	279.3
120.0	287.0
120.0	296.5
120.7	333.3
121.5	311.5
121.5	326.5
121.0	341.0
122.5	251.5
122.0	319.0
122.7	348.7
124.0	259.0
124.5	272.0
124.7	292.3
125.0	303.5
125.5	336.0
126.5	246.5
127.5	265.5
127.0	285.0
127.5	330.0
127.3	343.3
128.3	310.3
128.5	317.0
128.0	323.5
129.0	278.0
130.7	258.3
130.0	349.5
131.7	251.7
131.5	298.0
132.0	271.5
132.5	290.5
132.0	336.5
133.0	245.0
133.0	305.5
133.0	327.0
133.5	344.0
134.5	283.0
134.0	313.0
135.0	263.5
135.5	321.0
137.0	256.5
137.0	276.0
137.6	332.8
137.5	349.0
138.5	250.0
138.7	294.7
138.0	341.5
139.0	242.5
139.0	269.5
139.5	288.0
139.0	302.0
139.0	309.0
140.0	315.0
141.0	261.0
141.0	281.0
141.3	326.7
142.5	246.0
143.7	319.7
144.0	274.0
144.5	298.5
144.0	339.0
144.0	346.0
145.5	255.0
145.3	267.7
145.7	285.3
145.5	313.0
145.0	331.5
146.7	305.7
147.5	292.5
148.3	279.7
148.5	323.5
149.7	248.7
150.5	318.0
150.0	343.0
150.5	350.0
151.0	274.5
151.0	299.5
151.3	310.7
151.0	329.5
151.0	336.0
152.0	260.0
152.5	267.5
153.5	242.0
154.5	253.5
154.0	286.5
154.5	293.0
154.0	305.0
155.7	279.7
156.5	324.0
156.5	347.0
157.7	272.3
157.0	316.0
157.0	333.0
157.0	340.0
158.3	247.3
159.0	265.0
159.5	298.0
159.0	310.0
160.7	258.3
161.0	291.0
162.5	252.0
162.3	277.7
162.0	284.5
162.0	304.0
162.0	320.0
162.5	330.5
162.5	337.0
162.5	344.0
162.5	351.0
164.0	314.0
165.7	245.7
165.0	271.0
165.0	324.0
166.5	297.5
166.0	308.5
167.0	264.5
167.5	290.0
167.5	335.0
168.5	257.0
168.3	328.3
168.5	341.0
168.5	347.5
169.5	277.0
169.0	284.0
169.0	303.5
169.0	319.5
171.5	251.0
171.0	270.0
171.0	312.5
173.0	294.0
173.5	324.0
174.0	244.5
174.5	263.0
174.0	288.0
174.8	300.6
174.3	306.7
174.0	331.0
174.0	337.5
174.3	344.7
174.5	352.0
175.0	281.0
176.5	256.5
176.0	318.0
177.0	274.5
177.5	312.0
179.0	249.5
179.0	267.5
179.7	290.7
179.5	327.0
180.0	335.0
180.0	341.0
180.0	348.5
181.0	243.0
181.7	261.3
181.0	297.0
181.5	303.5
182.0	278.5
182.7	285.3
183.7	255.3
183.3	271.7
183.0	309.0
183.0	315.0
183.0	321.0
185.7	332.3
185.5	345.0
186.3	248.7
186.0	326.0
186.0	338.5
186.0	351.0
187.0	265.5
187.0	292.0
188.3	242.3
188.0	281.5
188.0	298.0
188.5	304.0
188.7	310.7
189.7	316.7
190.0	275.5
191.7	254.3
191.0	261.0
191.0	270.0
191.0	287.5
191.5	323.0
191.5	329.0
191.3	347.7
192.0	335.0
192.0	341.5
193.5	248.0
194.5	306.5
195.0	280.5
195.0	293.0
195.0	300.0
195.5	313.0
196.0	266.0
197.0	286.5
197.0	319.0
197.3	350.7
198.0	253.0
198.0	259.5
198.0	274.0
198.0	325.0
198.0	331.5
198.0	338.0
198.0	344.5
200.7	246.3
200.3	309.3
201.0	297.0
201.0	303.5
202.0	280.5
202.5	290.5
203.0	267.5
203.5	314.5
203.7	321.3
203.5	335.0
203.3	348.7
204.0	254.0
204.0	328.5
204.0	342.0
205.5	275.0
206.5	244.5
206.5	259.5
207.0	294.5
207.0	301.0
207.0	308.0
208.0	282.5
210.0	332.0
209.0	338.5
209.0	346.0
210.5	249.0
210.0	265.0
210.5	271.0
210.0	318.5
210.0	326.0
211.0	254.5
211.0	289.0
212.0	277.5
212.5	304.0
212.7	310.7
213.0	295.5
214.0	244.0
214.7	259.7
214.5	283.0
214.5	343.0
215.5	316.5
215.7	336.3
215.0	349.5
216.5	323.0
216.5	329.5
218.0	250.5
217.0	267.5
217.5	289.0
217.5	300.0
217.7	306.7
218.5	275.5
220.0	258.0
220.3	294.3
220.7	312.7
220.0	346.5
221.3	282.3
221.7	334.3
221.3	340.7
222.0	242.5
222.5	264.5
222.0	319.0
223.0	253.5
223.5	271.0
223.3	303.3
223.0	326.0
224.3	288.3
224.0	300.0
224.5	350.0
225.5	277.0
226.5	248.0
226.5	259.0
226.3	308.3
226.0	332.0
227.5	295.0
227.0	316.0
227.5	338.0
227.0	345.0
228.0	283.5
228.0	322.0
229.0	265.0
230.0	253.0
230.0	302.0
230.3	328.7
230.0	350.0
231.0	271.0
231.0	290.0
231.0	312.0
232.0	278.5
232.3	342.7
233.5	259.0
233.5	318.0
233.0	335.0
234.0	246.5
234.0	296.0
234.5	307.0
234.0	323.5
235.5	266.0
235.0	284.5
236.7	272.7
236.5	328.5
236.5	341.0
236.0	351.5
237.0	253.0
237.0	313.0
238.0	290.5
238.0	302.0
238.3	345.7
239.5	260.5
239.0	279.0
239.3	319.3
239.0	337.0
240.7	331.7
241.5	245.0
241.0	308.0
242.5	266.5
242.3	285.3
242.0	297.0
242.7	325.3
243.0	274.0
243.0	314.0
243.0	342.0
244.0	253.5
244.0	347.5
245.0	303.0
245.0	336.0
246.5	260.0
246.5	281.0
246.0	291.5
246.0	319.5
247.0	247.5
247.7	270.3
247.5	309.0
247.0	330.0
249.3	297.7
249.5	324.5
249.7	339.7
249.5	345.0
249.0	351.0
250.0	244.0
250.5	255.0
250.3	264.7
250.0	276.0
250.0	287.0
250.5	314.0
251.0	334.0
252.0	303.5
253.5	260.0
253.5	292.0
253.0	329.0
254.0	250.0
254.0	270.5
254.0	282.0
254.0	320.0
254.5	348.5
255.0	309.0
255.5	343.5
256.5	276.0
256.0	298.5
256.0	337.5
257.0	244.0
257.0	255.0
257.0	265.0
257.5	287.0
257.5	315.0
257.7	325.3
257.5	332.0
259.0	304.5
259.5	352.5
260.5	272.0
260.0	293.0
260.5	347.0
261.0	249.5
261.0	260.5
261.0	280.0
261.5	310.0
261.0	320.0
261.5	341.5
262.0	336.0
263.5	266.5
263.5	287.5
263.0	299.0
263.0	330.0
264.0	243.5
264.0	315.5
264.7	325.3
265.5	255.5
265.5	274.5
265.5	305.5
265.0	350.5
266.5	345.0
267.5	262.0
267.0	282.0
267.0	320.0
267.0	334.0
267.0	339.5
268.0	249.0
268.0	294.0
268.0	311.0
269.0	269.5
269.0	301.0
269.5	329.0
270.0	288.0
271.0	244.0
271.0	276.5
271.5	317.0
271.0	324.0
271.3	348.7
272.0	258.5
272.0	306.5
272.7	335.7
272.0	342.5
273.0	283.0
273.5	299.5
274.0	250.5
274.0	264.5
274.5	293.0
274.5	311.5
275.0	271.5
275.7	321.3
275.5	327.0
277.0	277.5
277.0	287.0
277.0	339.5
277.0	347.0
278.0	244.0
278.0	255.0
278.0	304.5
278.5	316.5
278.0	334.0
279.0	261.5
279.5	298.5
280.0	267.5
280.5	311.0
280.5	328.5
281.0	250.0
281.0	273.5
281.0	291.5
281.0	322.0
281.0	344.0
281.0	352.0
282.7	279.7
282.5	338.0
283.5	257.0
284.3	285.3
284.3	307.7
284.7	314.7
284.0	332.5
285.0	245.0
285.7	264.3
285.0	296.0
285.5	302.0
285.0	326.0
285.0	347.0
286.5	272.0
287.5	251.0
287.5	279.0
287.5	290.5
287.5	320.5
287.0	342.0
287.0	352.5
288.5	331.0
289.3	336.7
290.0	257.0
290.3	297.3
290.0	347.0
291.7	246.3
291.5	284.0
291.0	308.0
291.0	314.5
291.0	326.0
292.0	263.0
292.0	269.5
292.0	276.0
292.5	341.5
293.0	290.5
293.5	302.5
293.0	352.5
294.3	252.7
294.0	321.0
294.0	331.0
296.5	259.0
296.0	297.5
296.3	315.7
296.0	337.0
296.0	347.0
297.0	242.5
297.5	266.0
297.0	280.0
297.5	286.5
297.0	307.0
297.5	326.0
298.5	248.0
298.0	273.5
298.3	292.3
298.7	341.7
299.5	301.5
299.5	311.5
299.5	352.0
300.0	332.0
301.0	253.5
302.5	321.8
302.5	260.0
302.5	316.5
302.0	337.0
302.0	346.5
303.5	266.0
303.7	271.3
303.0	277.5
303.0	283.5
303.5	290.0
303.0	296.0
303.3	306.3
303.5	327.5
304.7	247.3
305.0	342.0
306.5	301.0
306.0	311.5
306.0	333.0
306.3	350.7
307.0	255.5
308.5	262.0
308.5	287.0
308.0	294.0
308.0	317.5
308.0	346.5
309.0	268.0
309.0	275.0
309.0	281.0
309.5	306.0
309.0	328.5
309.0	338.5
310.5	323.5
311.0	245.0
311.0	251.0
311.7	296.7
312.0	312.5
312.0	334.0
312.7	344.3
313.0	302.0
313.0	349.5
314.0	258.5
314.0	265.0
314.0	290.5
314.5	318.0
314.5	329.0
315.0	271.5
315.0	278.0
315.0	284.0
315.3	339.7
316.5	297.5
316.0	308.0
317.3	249.7
317.5	324.0
317.5	335.0
319.5	256.0
319.5	303.0
319.0	314.0
319.0	347.0
320.0	262.5
320.0	269.0
320.7	286.7
320.0	292.5
320.7	329.7
321.0	275.0
321.3	319.3
321.0	341.0
322.5	247.0
322.5	281.0
322.5	308.0
323.0	297.5
323.5	335.5
323.0	351.0
324.0	325.0
325.0	253.0
325.5	259.5
325.7	265.7
325.5	272.0
325.5	290.0
325.3	312.3
326.0	302.0
326.0	320.0
326.5	330.0
326.0	346.0
327.0	340.0
328.0	277.0
328.0	284.0
328.7	295.7
328.5	307.5
329.5	245.0
329.0	316.0
329.0	335.0
329.0	352.0
330.0	251.5
330.0	270.0
330.0	324.0
331.5	263.5
331.5	290.0
331.3	343.3
332.0	257.5
332.0	302.0
332.5	311.5
332.5	330.5
332.7	339.7
333.0	348.0
334.0	274.5
334.0	280.0
334.3	285.3
334.5	296.0
334.7	318.7
335.5	242.0
335.0	248.5
335.0	306.5
336.0	268.0
336.0	324.0
336.5	336.0
337.5	255.5
337.5	344.0
338.0	262.0
338.0	290.0
338.0	301.0
338.0	312.0
338.5	329.5
338.5	350.5
339.5	277.5
340.7	272.3
341.5	245.0
341.0	251.5
341.0	284.0
341.0	295.0
341.0	306.0
341.0	317.0
341.5	324.0
341.0	339.5
342.5	266.0
342.0	334.0
342.7	347.7
343.7	343.7
344.5	261.0
344.7	289.7
344.0	300.5
344.0	311.5
345.5	278.5
345.7	320.7
345.0	329.5
346.5	256.0
346.0	271.0
347.0	242.0
347.0	249.5
347.7	284.7
347.5	295.5
347.0	306.0
347.0	335.0
348.0	316.0
348.0	325.0
348.5	345.5
348.5	351.0
349.0	340.5
350.0	266.5
350.5	290.0
351.5	260.5
351.0	274.0
351.0	300.0
351.3	310.3
351.3	320.3
351.0	330.5
352.0	246.5
352.0	280.5
353.5	254.0
353.5	295.5
353.5	348.5
354.0	315.0
354.0	325.0
354.0	336.5
355.5	270.0
355.0	286.5
355.0	305.0
355.7	343.3
357.0	249.5
357.0	276.0
357.0	320.0
357.0	329.5
358.0	244.0
358.5	259.0
358.5	265.0
358.5	292.5
358.0	310.0
359.0	282.5
359.5	299.0
359.5	334.0
359.7	339.3
359.0	349.5
360.0	316.0
360.0	325.0
361.5	304.5
362.7	242.7
362.0	254.0
362.0	272.0
362.0	288.0
362.5	345.5
363.0	248.0
363.0	278.0
363.0	320.0
363.0	329.0
363.5	352.0
364.7	261.3
364.5	295.0
364.3	311.7
365.0	267.5
365.5	284.0
365.0	335.5
365.0	340.5
367.0	300.5
367.0	306.5
367.5	324.0
367.7	348.3
368.7	251.7
368.5	257.0
368.5	279.0
368.3	290.3
368.0	317.5
369.0	245.0
369.0	273.0
369.0	330.0
369.0	343.0
370.5	311.5
370.5	337.0
371.7	267.3
371.5	285.0
371.5	296.0
372.0	306.0
373.5	261.5
373.3	347.3
374.5	242.0
374.3	279.7
374.0	316.5
374.0	325.0
374.0	331.5
375.0	291.0
375.0	301.5
375.0	341.5
376.0	248.0
377.0	255.0
376.0	273.0
377.0	286.0
377.0	308.5
377.0	336.0
377.0	351.5
378.5	266.5
378.0	320.0
379.0	296.5
379.0	330.0
379.0	345.0
380.0	277.0
380.0	314.0
381.3	244.3
381.0	261.0
381.0	283.5
381.5	303.0
381.5	325.0
381.0	340.0
382.0	290.0
382.3	349.3
383.5	250.0
383.5	272.0
383.5	309.0
383.0	334.5
384.0	255.0
384.0	319.0
384.7	329.7
385.3	297.7
385.0	344.0
386.0	266.0
386.0	278.5
386.5	285.0
387.0	314.5
387.5	325.0
387.0	339.0
388.3	259.3
388.5	292.0
388.0	303.5
388.0	310.5
388.5	348.0
389.0	246.0
389.0	333.0
390.7	273.3
390.0	319.5
391.5	252.0
391.5	280.5
392.0	265.0
392.0	287.0
392.5	297.5
392.7	314.3
392.0	343.0
393.3	308.7
393.7	325.3
393.0	337.0
393.0	350.5
395.0	257.5
395.7	291.7
395.0	303.0
395.7	319.7
395.5	331.0
396.0	246.5
396.5	269.5
397.0	285.0
398.5	263.0
398.0	278.5
398.0	313.5
398.0	341.0
398.4	348.2
399.5	307.5
399.5	324.5
399.3	334.7
400.5	251.5
400.5	273.5
400.7	295.3
400.0	301.0
401.5	289.0
401.5	319.0
402.0	257.5
402.0	329.0
403.5	245.5
403.5	267.0
403.0	283.0
403.5	312.0
403.0	344.0
404.5	305.0
404.5	338.0
404.5	350.0
405.7	278.3
406.0	262.0
406.5	272.0
406.5	293.0
406.7	331.7
407.7	255.3
407.0	299.5
407.0	318.0
407.5	324.5
408.0	287.0
409.5	242.0
409.5	249.0
409.5	312.5
409.3	341.3
410.7	267.3
410.0	350.5
411.0	306.0
412.5	260.0
412.0	275.0
412.0	295.5
412.5	330.0
412.0	336.0
413.5	289.0
413.5	301.0
413.0	318.5
414.5	253.5
414.0	281.0
414.5	346.0
415.5	312.0
415.0	325.5
415.5	340.5
416.5	247.0
416.0	266.0
417.5	306.0
418.5	272.0
418.0	293.5
419.5	259.5
419.0	285.0
419.5	317.0
419.5	331.0
420.0	299.0
420.7	337.3
420.0	349.0
421.5	278.0
421.5	311.5
421.0	343.0
422.0	252.0
422.0	267.0
422.0	322.0
422.0	327.0
423.0	243.5
423.0	290.5
424.0	306.0
425.0	283.0
426.0	271.0
426.0	301.0
426.0	335.0
426.0	347.0
427.5	248.0
427.0	296.0
427.5	312.0
427.0	317.5
427.0	330.0
427.3	340.7
428.0	255.0
428.0	324.0
429.0	276.5
429.0	289.5
430.0	306.0
431.7	282.7
431.0	350.5
432.5	260.5
432.5	345.0
433.0	270.0
433.0	300.5
433.3	313.3
433.0	321.5
433.0	328.5
433.0	335.0
434.0	251.5
434.0	294.0
434.7	340.7
435.5	276.5
435.0	288.0
435.5	306.0
436.5	245.0
437.7	349.3
438.0	265.0
438.7	284.3
439.7	310.7
439.5	318.0
439.5	325.0
439.0	331.0
440.0	257.5
440.5	291.0
440.0	298.0
440.0	338.0
440.0	344.0
441.3	273.7
441.0	304.0
442.0	250.0
442.0	280.0
444.0	243.5
444.0	268.5
444.5	314.5
445.3	262.3
445.5	287.0
445.5	320.5
445.7	327.7
445.0	334.5
446.5	256.0
446.0	294.0
446.0	301.0
446.0	308.0
446.0	342.5
446.0	350.5
448.5	273.0
448.0	279.5
449.0	332.0
450.5	311.0
450.0	347.5
451.0	252.5
451.0	267.0
451.7	316.7
451.0	323.0
451.0	337.5
452.0	246.5
452.0	285.0
452.5	291.5
452.0	298.0
452.0	305.0
453.0	260.0
453.0	329.0
453.0	343.0
454.5	273.0
456.0	280.0
456.5	312.0
456.0	334.0
457.0	243.5
457.3	254.7
457.5	268.0
457.5	302.0
457.0	318.0
457.5	340.0
458.0	287.5
458.5	295.0
458.0	325.0
458.0	347.5
459.7	249.3
459.0	261.0
461.5	281.0
461.5	331.0
462.0	274.0
462.0	313.5
462.5	343.5
462.0	352.5
463.7	291.7
463.3	300.3
463.0	320.5
463.0	337.0
464.3	266.7
465.0	253.5
465.5	260.0
465.0	326.5
466.0	348.5
467.5	247.0
467.0	285.0
467.0	309.0
467.5	333.0
468.0	278.0
468.0	315.5
469.5	271.5
469.0	295.0
469.5	322.0
469.0	343.0
470.0	304.0
471.5	258.0
471.0	264.5
471.5	289.0
471.3	328.3
471.3	337.7
472.0	299.5
473.0	251.0
473.5	283.0
473.7	313.3
473.5	348.5
474.5	319.0
475.5	277.0
475.5	307.5
475.0	341.0
476.0	244.5
476.7	269.3
476.0	333.0
477.5	295.0
477.7	301.3
477.5	326.0
478.0	256.0
478.5	288.0
479.3	262.7
479.5	345.0
479.0	350.5
480.0	250.0
480.0	313.0
480.0	319.5
480.5	337.5
481.0	282.5
482.5	306.0
483.0	243.5
483.5	276.0
483.5	330.5
484.0	257.5
484.0	269.0
484.0	298.0
485.0	290.5
485.7	323.7
485.5	343.0
485.0	349.5
486.0	316.0
487.0	250.5
487.0	336.5
488.0	263.0
488.0	283.5
488.7	302.7
488.0	309.0
489.7	295.3
490.5	244.0
490.5	314.5
491.3	257.3
491.5	269.0
491.0	276.0
491.0	328.0
491.5	347.0
492.0	289.0
492.0	321.0
492.0	334.0
492.0	341.0
494.0	250.5
494.0	307.5
495.0	263.5
495.0	282.0
495.0	300.5
496.7	294.3
496.0	316.0
497.5	244.5
497.0	258.0
497.0	326.0
497.0	338.5
497.0	352.0
498.0	273.0
499.0	288.0
499.5	305.0
499.0	332.0
499.0	345.5
500.0	311.5
501.0	252.5
501.0	265.0
501.5	281.0
501.0	320.0
502.7	339.3
503.5	259.0
503.0	293.5
504.0	242.5
504.0	300.5
504.0	327.0
505.5	249.0
505.0	275.5
505.5	287.0
505.5	315.0
506.0	307.5
506.0	333.0
506.5	346.0
507.5	269.0
508.0	263.0
508.5	321.0
508.7	338.7
509.0	255.0
509.7	280.7
509.3	291.7
509.5	298.0
510.0	328.0
510.0	352.0
511.0	245.5
511.0	305.0
512.0	274.0
513.0	313.0
513.0	334.5
514.5	261.5
514.0	286.0
514.0	341.0
514.5	347.0
515.0	294.0
515.7	320.7
516.3	251.3
516.5	269.0
516.0	301.0
516.5	330.0
517.7	244.3
517.0	279.5
518.0	308.0
519.7	314.7
520.0	257.5
520.0	289.0
520.0	336.0
520.7	342.7
521.3	264.3
521.5	296.0
521.0	326.0
521.0	349.0
522.7	282.7
523.0	303.0
523.0	320.5
523.0	331.0
524.0	246.5
524.0	275.5
524.5	310.0
525.0	253.0
526.5	269.5
526.0	288.5
527.0	259.5
527.5	295.0
527.5	316.0
527.0	327.0
527.0	345.5
527.0	352.0
528.5	333.0
529.0	281.5
529.0	304.5
529.5	322.0
530.0	248.0
532.0	255.0
532.0	275.0
532.0	288.5
532.0	311.0
533.0	300.0
533.3	327.7
533.0	343.5
533.0	350.0
534.7	260.7
534.0	267.5
534.5	294.0
534.0	319.0
534.3	334.3
535.5	242.0
535.5	282.5
535.5	306.0
537.3	249.7
537.0	340.0
538.0	314.5
538.0	324.0
539.5	256.0
539.3	275.3
539.0	289.5
539.0	331.0
540.5	263.0
540.0	298.5
540.0	348.0
541.5	269.0
541.5	282.0
542.0	245.0
542.7	319.3
543.0	305.5
543.0	343.0
544.5	251.5
544.0	327.5
545.5	293.5
545.0	312.5
546.7	278.7
546.7	286.7
546.5	348.5
547.0	257.5
547.5	265.0
547.0	272.0
547.0	300.0
549.0	246.5
549.5	318.0
549.5	325.0
549.5	343.0
550.0	307.5
550.0	332.0
553.0	253.0
553.0	260.5
553.7	267.7
553.0	282.0
553.0	289.0
553.0	295.5
553.5	338.0
553.0	350.5
554.0	275.0
554.0	314.0
555.0	244.0
555.0	302.0
555.5	327.5
556.0	320.5
556.5	345.0
557.5	308.0
557.5	333.0
559.3	256.7
559.3	297.7
561.0	248.5
560.0	263.5
560.0	271.5
560.3	278.3
560.5	285.0
560.0	291.5
560.5	315.0
560.5	339.5
560.0	352.0
562.0	326.5
563.5	303.0
563.5	346.0
564.0	309.5
565.0	321.0
565.5	333.0
566.0	254.0
566.5	289.0
566.0	296.0
567.5	261.0
567.3	267.3
567.0	275.0
567.0	282.5
567.7	314.3
567.5	339.5
567.0	352.5
568.0	244.0
569.3	307.7
569.0	326.5
570.5	250.0
570.5	301.0
570.5	346.0
572.7	293.7
572.0	319.5
573.5	257.0
573.5	272.0
573.7	279.3
573.5	286.5
573.4	332.8
574.0	313.0
574.0	340.5
574.0	351.0
575.5	264.0
575.7	305.7
576.3	325.3
577.8	246.6
577.5	298.5
578.0	253.0
579.0	318.0
579.0	346.0
580.3	269.7
580.7	276.7
580.5	291.5
580.0	337.5
581.3	258.3
581.5	283.5
581.0	311.5
581.0	330.0
582.5	304.5
584.5	252.0
584.5	264.0
584.0	297.5
584.0	323.0
585.5	246.0
586.0	316.0
586.0	334.0
586.7	340.7
587.0	271.5
587.0	309.0
587.5	347.0
588.0	279.0
588.0	287.0
588.5	301.5
588.5	328.0
589.3	293.7
590.7	257.7
591.0	265.0
591.5	320.5
591.5	334.5
592.0	248.5
592.3	311.3
593.0	341.5
594.0	273.0
594.0	282.0
594.5	289.0
594.0	298.0
595.0	328.0
596.0	349.0
597.0	265.5
597.5	315.0
598.5	251.5
598.0	258.0
598.3	307.7
598.0	335.0
599.0	323.0
600.0	278.0
600.0	286.5
600.0	294.0
600.5	302.0
600.0	341.5
602.0	270.5
602.0	329.0
603.0	244.5
603.0	262.5
603.0	318.5
604.3	311.7
604.5	347.0
605.3	335.7
606.7	290.3
606.3	305.3
607.0	253.0
607.5	275.0
607.0	283.0
607.0	298.0
607.0	324.0
607.0	352.5
608.7	267.3
608.0	342.0
609.5	259.5
609.5	317.0
610.5	247.0
610.5	329.5
612.5	310.0
613.5	286.5
613.0	294.5
613.0	302.5
613.0	348.5
614.7	272.3
614.5	279.5
614.0	340.5
615.0	321.5
616.5	257.0
616.0	264.0
617.0	243.5
617.7	250.3
618.5	307.0
618.0	314.0
618.0	328.5
619.5	291.0
619.0	299.5
619.0	335.5
620.0	343.5
621.0	268.5
621.3	283.3
622.0	276.0
622.0	318.5
622.5	324.0
622.0	350.0
624.5	247.0
624.5	330.0
625.5	254.0
625.5	262.0
625.0	295.5
625.0	303.5
626.0	313.0
626.0	336.5
627.0	287.0
627.0	343.5
629.0	271.0
629.3	279.3
629.0	321.5
630.0	349.5
631.0	243.0
631.0	299.5
631.0	308.5
632.3	249.3
632.0	291.5
632.0	329.5
632.5	337.0
633.0	257.5
633.3	284.3
633.5	344.0
634.0	315.5
635.0	264.5
635.5	273.0
636.5	304.0
636.0	321.5
638.0	253.5
638.0	295.5
638.5	334.0
639.0	279.5
639.0	288.0
639.0	310.5
639.5	327.5
639.5	340.5
641.0	244.5
640.0	260.5
640.0	348.0
642.0	317.0
643.0	268.5
643.5	302.0
644.5	284.0
644.0	292.5
645.4	252.2
645.0	323.5
646.0	310.5
646.3	330.3
646.3	337.7
646.5	344.5
647.0	277.0
647.0	352.0
648.4	260.4
648.5	316.0
650.0	244.0
650.0	298.0
651.5	270.0
651.3	282.7
651.0	290.5
651.0	306.0
651.0	320.0
652.0	326.8
653.0	253.5
653.5	333.5
653.0	341.5
653.0	348.5
654.3	313.7
655.0	264.5
656.0	277.5
656.7	295.7
656.0	302.5
657.0	246.0
657.5	288.0
658.0	257.5
658.5	322.5
659.0	309.5
659.5	345.0
660.0	330.5
660.0	337.5
661.5	268.5
662.5	251.0
662.3	262.7
662.0	275.5
662.5	301.0
662.0	316.5
663.7	293.7
664.5	284.5
664.5	349.0
665.5	243.5
666.5	257.0
666.3	308.5
666.0	324.5
667.0	334.5
667.0	341.5
72.0	364.0
72.0	389.0
73.7	432.3
74.0	381.5
75.0	401.0
75.0	426.0
76.5	375.0
77.7	394.3
77.0	420.0
77.3	450.7
77.0	458.0
78.5	362.0
78.0	413.5
78.5	438.0
79.7	387.3
79.5	407.0
80.5	431.0
81.0	356.0
81.7	380.3
81.0	445.0
82.5	400.0
82.3	424.7
83.0	367.0
83.5	417.5
85.7	360.3
85.0	373.5
85.3	411.7
85.0	453.5
86.0	393.0
87.5	386.0
87.5	433.5
87.0	440.0
87.0	462.0
88.5	353.5
89.5	368.0
89.0	406.0
89.0	427.0
90.5	380.0
90.5	419.0
91.5	399.0
91.0	449.5
92.5	361.5
92.5	412.0
93.5	374.0
93.0	391.5
93.5	436.5
94.0	443.0
95.3	385.7
95.5	430.5
96.5	355.0
96.0	405.0
96.7	423.7
96.0	454.0
97.0	368.0
97.5	416.5
98.0	379.5
99.5	362.0
99.3	398.7
99.0	448.0
101.0	392.5
100.0	410.0
100.7	459.3
101.0	374.0
101.3	434.3
102.0	385.5
102.0	441.5
103.0	353.0
103.0	419.5
103.5	453.0
105.0	405.0
105.0	426.0
106.3	360.7
106.0	447.0
107.7	381.3
107.0	413.0
107.0	458.0
109.0	374.5
108.0	389.5
108.0	397.5
109.7	354.7
109.0	435.5
109.5	442.0
111.3	367.7
112.0	453.5
112.5	461.0
113.5	360.0
113.0	405.0
113.0	426.5
113.3	446.7
114.5	379.0
115.0	392.5
115.0	414.0
116.0	438.0
117.0	372.5
118.7	365.3
118.5	400.0
118.0	421.0
119.0	443.0
119.5	450.0
119.5	457.0
119.0	463.5
120.5	386.0
120.5	408.0
121.0	357.5
121.5	378.0
123.0	370.5
124.0	415.5
124.0	438.0
125.5	363.0
125.0	445.5
126.7	382.7
126.5	391.5
126.0	452.5
126.0	460.0
127.0	355.0
127.7	375.3
130.0	368.0
130.7	441.7
130.5	410.0
130.3	435.7
131.5	398.0
131.5	448.5
132.3	361.7
132.5	386.0
132.5	456.0
133.3	379.3
133.0	405.0
133.5	420.0
133.7	426.7
133.0	463.5
134.5	373.0
134.0	392.5
135.0	355.0
137.0	367.0
137.0	444.5
137.5	452.0
138.3	414.7
138.5	459.5
139.0	382.5
139.5	389.0
139.5	401.5
139.5	408.0
139.0	432.5
140.0	361.0
140.0	375.5
140.3	395.3
140.0	423.5
142.0	440.5
143.0	353.5
143.3	368.3
143.3	447.3
144.5	455.0
145.0	385.5
145.0	417.5
145.0	430.0
146.3	361.7
146.0	381.0
146.0	392.0
146.0	398.5
146.5	405.0
146.5	411.5
147.0	374.0
147.0	424.0
147.3	437.7
149.5	451.0
150.5	356.0
150.3	444.7
150.5	459.0
151.0	369.0
151.7	379.7
151.5	386.5
152.5	394.0
152.7	420.3
152.3	427.7
152.0	432.5
153.5	362.0
153.0	401.5
153.0	407.5
154.7	374.3
154.5	414.0
154.7	437.7
156.5	444.0
156.9	452.3
157.5	355.0
157.7	368.3
157.5	382.0
158.0	390.0
158.7	397.3
158.0	425.0
158.0	461.5
159.0	404.5
159.5	417.5
159.0	432.0
161.0	362.5
162.0	374.0
162.0	410.5
162.5	439.5
163.5	446.0
163.3	456.3
164.0	357.0
164.5	380.0
164.0	387.0
164.5	421.0
164.0	426.5
165.0	368.0
165.0	463.0
166.5	395.5
166.0	403.0
166.7	432.7
167.5	451.0
168.0	362.0
168.0	417.0
169.5	355.0
169.0	374.0
169.5	390.0
169.5	411.0
169.0	438.5
170.5	383.0
170.5	425.5
170.5	445.0
171.0	458.5
172.0	368.0
172.0	400.0
172.5	406.0
173.5	434.0
174.3	359.7
174.5	394.5
175.5	388.0
175.3	416.7
175.7	439.7
175.5	452.0
176.0	375.0
176.0	422.5
177.0	382.0
177.0	411.5
177.0	429.0
178.5	368.0
179.5	399.0
179.0	405.5
179.0	444.5
180.0	355.0
180.5	435.0
180.0	459.0
181.0	362.0
181.5	393.0
181.0	450.0
182.5	386.0
182.5	422.5
183.5	374.0
183.0	380.0
183.0	416.0
183.5	429.0
184.0	409.5
184.3	440.3
185.0	367.5
185.5	455.0
186.0	357.5
186.3	403.7
186.7	447.3
187.5	362.5
188.5	391.0
188.0	397.5
188.5	421.0
188.5	435.0
188.5	461.0
189.5	378.0
189.0	384.0
189.0	414.0
189.0	427.0
190.0	371.5
191.0	442.5
192.0	354.0
192.0	366.0
192.0	408.0
193.0	360.0
193.0	448.5
193.0	456.0
194.0	395.0
194.5	401.5
194.0	418.5
195.5	375.0
195.0	382.0
195.5	425.0
195.5	432.0
196.5	389.0
196.0	413.0
196.5	439.0
196.5	462.5
197.0	370.0
198.0	357.0
198.0	363.5
198.0	446.0
199.7	395.3
199.0	407.0
199.5	419.0
200.0	379.0
200.0	453.0
201.8	429.4
202.0	373.5
202.0	384.0
202.5	459.0
203.5	361.0
203.0	367.5
203.5	402.0
203.0	413.5
203.0	423.5
203.0	436.0
203.7	442.7
204.0	355.5
204.5	390.0
204.5	449.0
205.5	396.5
206.0	378.0
206.0	408.0
208.0	371.5
208.5	432.0
209.0	353.0
209.0	359.5
209.0	366.0
209.0	384.0
209.3	419.7
209.0	425.5
210.0	393.0
210.7	399.7
210.0	413.0
210.0	438.5
210.0	444.5
210.5	450.5
210.0	457.0
211.5	406.0
212.0	377.0
213.3	388.7
214.5	357.0
214.5	370.0
214.5	429.5
215.0	363.5
216.0	435.3
216.7	383.3
216.0	395.0
216.0	412.0
216.0	418.0
216.0	441.5
216.0	447.5
216.5	461.0
217.0	377.0
217.0	401.5
217.3	424.7
219.5	390.0
219.5	453.0
220.0	353.5
220.3	372.7
220.0	407.5
220.5	431.0
221.0	359.5
221.3	366.3
221.5	397.0
221.5	414.5
222.0	380.0
222.0	421.0
222.0	438.5
222.0	446.0
223.5	386.0
224.0	403.5
224.0	457.5
225.5	355.5
225.7	392.7
225.0	426.5
226.0	370.0
226.0	410.0
226.5	432.5
226.5	451.0
227.0	361.0
227.0	376.5
227.5	444.5
228.5	382.0
228.0	399.0
228.0	416.0
228.0	438.5
229.0	422.0
229.0	461.5
230.0	366.5
230.3	388.3
230.0	405.5
231.5	356.0
231.3	428.7
231.5	456.0
232.0	372.5
232.0	394.5
232.0	412.0
233.5	378.0
233.0	435.0
233.0	442.0
233.0	449.5
234.0	362.0
234.0	401.0
234.0	417.5
235.0	384.0
235.5	424.0
235.0	463.0
236.0	368.5
236.5	390.5
236.0	407.0
237.5	430.0
238.0	358.0
238.0	374.0
238.5	413.5
238.7	442.7
239.0	396.0
239.0	436.0
239.5	448.5
239.0	459.5
240.0	364.5
240.0	380.5
240.5	402.5
240.5	419.5
240.0	454.0
241.0	386.5
242.3	353.7
242.3	370.7
242.5	409.0
242.0	426.0
243.5	392.0
243.5	444.0
244.0	360.0
244.0	377.0
244.0	432.0
245.5	382.5
245.0	398.0
245.5	415.0
245.7	438.3
245.0	458.0
246.5	367.0
246.5	403.0
246.5	451.5
247.0	421.0
247.3	462.7
248.5	357.0
248.5	373.5
248.0	387.5
248.0	410.0
248.5	428.0
249.5	445.0
250.7	363.3
250.5	380.0
250.0	393.0
250.3	433.7
251.5	399.0
252.5	370.0
252.5	405.5
252.0	418.0
252.0	424.0
252.5	440.0
252.0	451.5
252.0	458.5
253.7	387.3
253.5	412.5
254.0	354.5
254.0	360.5
254.0	376.0
256.0	428.5
256.5	366.0
256.5	382.0
256.5	394.0
256.0	436.0
256.0	446.5
257.5	402.0
257.7	421.3
258.0	372.0
258.0	409.0
258.5	451.0
259.0	357.0
259.0	415.0
259.0	441.5
259.0	456.5
259.0	462.0
260.3	362.3
260.0	377.5
260.0	388.0
260.0	433.0
261.5	424.0
262.3	367.7
262.0	398.5
263.0	393.5
263.0	404.5
263.7	419.7
263.5	428.5
263.0	438.5
263.3	445.3
264.0	356.5
264.0	382.0
264.0	410.5
264.5	453.0
265.0	374.0
265.5	415.5
265.0	459.5
266.0	362.5
266.0	388.0
266.5	434.0
268.5	367.5
268.5	393.5
268.0	399.5
268.0	424.5
269.7	353.7
269.5	378.0
269.5	407.0
269.0	439.0
269.5	449.0
270.3	358.7
270.5	372.0
270.5	384.0
270.0	412.0
270.5	419.0
270.0	429.5
270.5	456.0
271.0	443.5
271.5	462.0
272.0	363.0
273.0	390.0
273.5	434.0
274.0	396.5
274.0	403.0
275.5	355.5
275.0	367.5
275.5	374.0
275.0	379.5
275.0	415.5
275.0	424.5
276.3	409.7
276.7	420.3
276.5	446.0
276.0	452.0
277.5	362.0
277.0	386.0
277.0	439.0
277.0	459.0
279.0	392.5
279.5	400.0
279.0	430.0
280.0	370.5
280.0	376.0
281.5	358.5
281.0	381.5
281.5	406.0
281.0	417.0
281.5	449.5
282.7	364.7
282.0	424.0
282.0	435.0
282.0	455.5
283.0	387.0
283.3	460.3
284.5	392.0
284.5	412.0
284.0	445.0
285.3	370.3
285.5	376.5
285.0	397.0
285.0	440.0
286.5	403.0
286.5	419.0
286.0	429.5
287.0	357.0
287.5	382.5
287.0	452.5
288.0	362.0
288.7	424.3
289.3	388.7
289.0	408.0
289.3	435.3
290.0	368.0
290.0	373.5
290.0	394.0
290.5	459.0
291.0	378.5
291.0	414.0
291.5	442.0
291.0	448.0
292.3	358.7
292.5	385.0
292.0	399.0
293.5	404.5
293.0	420.0
293.0	431.0
294.0	365.0
294.5	426.0
295.7	371.3
295.5	394.5
295.0	410.0
295.7	455.3
296.0	377.0
296.5	382.5
296.0	437.0
296.5	445.5
297.5	357.0
297.5	389.0
297.0	416.0
297.0	459.5
298.5	362.5
298.0	399.5
298.5	430.0
299.0	422.5
300.0	368.0
300.5	394.0
300.0	405.5
300.5	440.5
301.0	379.5
301.5	411.0
301.0	452.0
302.5	360.5
302.0	374.0
302.3	385.3
302.5	417.0
303.5	401.0
303.0	435.0
303.0	446.0
303.3	461.7
304.0	355.5
304.5	390.5
304.0	428.0
305.0	365.0
305.5	422.5
306.5	370.0
306.0	380.5
306.5	396.0
306.5	407.0
306.3	456.7
307.0	440.5
307.5	451.0
308.5	360.0
308.5	375.5
308.5	386.0
308.0	412.5
308.5	417.5
308.0	432.0
309.5	401.0
309.0	463.5
310.0	427.0
310.0	445.5
311.0	355.0
311.0	365.0
311.5	381.0
311.0	391.0
311.0	437.0
312.0	371.0
312.0	421.5
312.5	455.0
313.8	408.8
313.7	460.3
314.5	376.0
314.7	385.3
314.5	396.0
314.7	402.7
314.0	415.0
314.0	432.0
314.5	450.0
315.0	359.5
315.0	442.0
316.5	366.0
316.0	426.0
317.5	420.0
317.7	457.3
318.0	354.0
318.0	371.0
318.0	381.0
318.0	390.0
318.0	437.0
319.7	361.7
319.5	399.0
319.5	405.0
319.5	414.0
319.5	431.0
319.3	446.7
319.5	452.5
320.0	376.0
320.7	463.7
321.5	425.0
322.0	367.5
322.0	385.0
322.0	442.0
323.0	357.0
323.0	409.0
323.5	436.0
323.5	457.0
324.0	373.0
324.0	379.5
324.7	395.3
324.0	419.5
325.0	390.0
325.5	430.0
325.7	451.3
326.0	363.0
326.3	403.7
326.7	414.3
327.3	440.3
327.0	463.0
328.0	369.5
328.5	383.5
328.5	409.0
328.5	425.0
328.0	446.0
329.3	357.7
329.0	376.0
329.0	398.5
329.5	420.0
329.0	435.5
329.5	457.0
330.7	391.3
331.5	364.5
331.0	430.0
332.7	404.3
332.0	451.5
333.0	371.5
333.5	380.0
333.7	410.7
333.0	442.0
334.3	354.7
334.0	386.0
334.0	397.0
334.0	417.0
334.0	435.0
335.5	360.5
335.0	423.0
335.0	457.0
336.5	392.0
336.0	429.0
336.0	447.0
337.0	366.5
337.0	402.0
338.0	372.5
338.5	378.0
338.5	414.0
338.0	439.0
338.0	452.5
339.0	383.0
339.5	397.5
339.0	408.0
339.5	433.0
339.0	460.5
340.0	356.5
340.5	388.0
340.0	419.5
340.5	426.0
340.8	443.4
342.0	362.0
342.5	368.5
342.5	404.0
342.5	449.0
343.5	353.0
343.5	375.0
343.0	393.0
343.0	413.0
343.5	437.5
343.3	455.3
344.0	380.0
344.5	422.5
344.0	431.5
345.0	385.0
345.0	399.0
345.5	408.5
345.0	460.5
346.0	418.0
347.7	356.7
347.3	366.7
347.0	389.5
347.0	427.0
347.0	446.0
348.0	362.0
348.0	372.0
348.5	377.5
348.0	395.0
348.5	403.5
348.5	413.5
349.3	382.7
349.5	422.0
349.5	433.0
349.0	440.0
350.0	457.0
351.5	399.0
351.0	408.0
352.0	386.5
352.5	364.0
352.7	417.3
352.5	427.5
353.5	359.0
353.0	370.0
353.5	381.0
353.0	393.0
353.0	445.0
354.0	375.0
354.5	403.5
354.0	412.5
354.7	438.3
355.0	354.0
355.5	422.0
355.0	460.5
356.7	398.3
356.3	432.3
357.0	389.5
357.0	408.0
357.5	417.0
357.3	455.7
358.0	364.0
358.5	372.0
358.0	384.0
358.5	427.0
358.7	446.7
359.3	357.7
359.5	378.5
359.5	394.0
359.5	413.0
359.0	442.0
360.0	452.0
360.0	403.0
360.0	420.0
361.0	437.0
361.0	462.5
362.0	389.0
362.7	398.3
362.7	407.3
362.7	431.7
363.5	361.5
363.0	368.0
363.5	374.0
363.5	384.0
364.0	416.5
364.0	426.0
364.3	447.7
364.3	457.7
365.3	356.3
365.0	379.0
365.0	394.0
365.0	402.5
365.7	411.3
365.0	441.5
366.5	421.5
366.7	452.7
367.0	389.0
367.0	436.0
367.0	463.5
368.0	365.5
368.0	371.0
368.7	375.7
368.3	398.3
368.5	406.5
368.5	430.0
369.5	359.5
369.0	384.5
369.0	426.0
370.5	353.5
370.0	417.0
370.5	440.0
370.0	446.0
371.0	394.0
371.5	402.0
371.7	455.7
372.0	380.0
372.0	411.5
372.5	451.0
372.0	461.0
373.0	368.5
373.0	374.0
373.0	389.0
373.0	422.0
373.0	434.0
374.0	363.0
375.0	357.0
375.0	398.5
375.0	406.5
375.5	417.0
375.0	428.0
375.0	443.0
376.0	384.0
377.0	378.5
377.5	393.5
377.0	438.5
377.5	448.0
378.5	373.0
378.0	403.0
378.0	412.0
378.7	432.7
378.0	459.5
379.5	361.0
379.0	367.0
379.0	422.5
380.5	388.5
380.5	407.5
380.5	443.0
380.0	454.0
381.0	355.0
381.5	383.0
381.0	398.5
381.0	417.5
381.3	427.3
382.5	377.0
383.0	370.5
383.0	412.0
383.0	437.5
383.5	449.0
383.7	458.7
384.0	364.5
384.0	393.5
384.7	403.7
384.5	432.5
385.5	359.0
385.5	422.0
386.5	387.5
386.5	416.0
386.0	443.0
387.0	353.0
387.5	374.5
387.0	381.0
387.5	398.5
387.0	453.5
387.0	463.5
388.5	368.0
388.0	409.5
388.0	427.5
389.7	362.7
389.0	436.0
389.5	448.0
390.0	393.0
390.5	404.0
390.3	419.3
390.0	459.5
391.5	356.5
391.5	383.5
391.5	442.0
392.5	378.0
392.7	414.3
392.0	424.0
393.0	372.0
393.0	387.5
393.0	430.5
394.0	366.0
394.5	398.0
394.5	409.0
394.0	447.0
394.0	457.0
395.0	436.5
396.0	360.5
396.5	392.0
396.5	404.0
396.5	420.0
397.0	355.0
397.5	376.0
397.0	382.0
397.5	426.5
397.5	442.0
397.0	452.0
398.5	364.5
398.5	369.5
398.5	461.5
399.0	414.0
399.0	432.0
400.0	386.0
400.0	396.5
400.5	401.0
400.5	447.5
401.0	408.5
401.0	437.5
402.5	354.0
402.7	360.3
402.5	380.0
402.0	391.0
402.0	423.5
403.0	373.0
403.0	418.5
404.0	366.5
404.0	403.5
404.7	428.3
404.0	442.5
404.0	452.5
405.0	397.5
405.0	413.5
405.0	433.0
405.0	463.0
406.0	387.0
407.0	377.0
407.5	382.0
407.7	408.3
407.5	423.5
407.0	447.5
408.0	356.5
408.5	370.0
408.3	392.3
408.0	438.0
408.0	457.5
409.0	363.0
409.5	403.0
409.0	418.0
410.5	433.0
410.5	443.0
410.0	452.0
410.6	463.2
411.0	413.0
411.5	428.0
412.0	375.0
412.0	386.5
412.0	397.0
413.5	359.5
413.5	380.5
413.5	423.0
414.3	352.7
414.5	370.0
414.0	408.0
414.0	446.5
414.0	457.0
415.0	364.5
415.3	391.3
415.5	418.0
415.3	433.3
415.5	439.0
416.0	402.0
416.0	452.0
417.5	396.5
417.5	413.0
418.0	374.5
418.0	428.0
418.5	461.5
419.3	355.7
419.0	381.0
419.7	446.3
420.0	360.5
420.5	368.0
420.0	387.0
420.0	406.5
420.0	423.0
421.7	399.3
421.5	434.5
421.0	455.5
422.7	393.3
422.0	418.0
422.0	441.0
423.5	412.5
423.7	428.3
424.0	354.0
424.0	372.0
424.0	378.0
424.0	450.5
425.5	361.5
425.5	384.5
425.7	422.7
425.0	461.0
426.5	402.0
426.7	406.7
426.5	438.0
427.5	390.0
427.5	432.0
427.0	445.0
427.5	456.0
428.0	367.5
428.7	374.7
428.0	396.5
428.3	417.7
429.0	356.0
429.0	412.0
429.5	426.5
430.0	381.0
430.0	450.0
431.5	361.0
431.0	462.0
432.7	387.3
432.5	401.0
432.7	430.3
432.0	437.0
433.0	371.0
433.0	407.0
433.5	415.0
434.0	421.5
433.0	444.0
433.5	457.0
434.3	376.7
434.0	393.5
435.0	355.0
435.5	366.0
435.7	450.7
437.0	383.0
437.0	410.0
437.0	426.5
437.7	432.7
438.5	360.0
438.0	404.0
438.0	440.0
438.5	446.0
439.0	371.5
439.0	390.5
439.5	397.0
439.0	417.0
439.0	455.5
440.0	378.0
441.0	354.5
441.0	422.0
441.0	461.0
442.0	365.5
442.5	385.0
442.5	408.5
442.5	435.0
442.5	451.0
443.0	428.5
443.5	444.0
444.5	359.5
444.0	402.5
444.5	456.5
445.0	371.5
445.0	378.5
445.0	416.0
446.0	395.5
446.5	422.5
446.5	439.0
447.0	389.0
448.5	364.0
448.0	411.0
448.5	427.0
448.0	433.0
448.5	449.0
448.3	454.7
448.0	461.0
449.5	376.0
449.0	383.0
449.5	401.5
450.5	357.5
450.5	418.0
450.0	443.0
451.0	369.0
452.5	391.0
452.5	407.0
452.5	437.0
453.5	397.0
453.0	423.5
453.5	453.0
454.0	353.0
454.5	363.0
454.5	373.5
454.5	379.5
454.0	413.5
454.3	430.7
454.5	459.0
455.0	386.0
455.0	448.0
456.0	403.0
456.5	419.5
457.0	442.0
458.0	358.0
458.0	369.0
458.0	409.0
458.0	426.0
458.7	463.3
459.5	375.0
459.7	381.3
459.0	392.0
459.3	436.3
459.0	455.0
460.0	398.0
460.5	415.5
461.3	363.3
461.0	386.0
461.5	431.0
461.0	448.0
462.0	404.5
463.5	370.0
463.5	411.0
463.5	421.0
463.5	441.0
463.5	460.5
464.0	426.5
465.0	377.0
465.5	383.0
465.5	389.0
465.5	395.0
465.0	453.0
466.0	358.5
466.5	436.0
467.0	364.0
467.0	400.5
467.5	406.5
467.0	416.0
467.3	446.3
468.5	457.5
469.3	353.7
469.5	369.0
469.0	411.5
469.0	430.5
470.0	374.0
470.7	379.7
470.0	425.5
471.0	359.0
471.0	385.5
471.0	392.0
471.0	441.0
471.0	451.5
472.5	398.0
472.0	420.0
472.0	461.0
473.3	365.3
473.0	403.5
473.5	415.0
473.0	435.5
474.0	409.0
475.0	445.5
475.7	355.3
475.5	371.0
475.0	430.0
475.0	456.0
476.0	361.0
476.5	382.0
476.5	424.5
476.7	450.7
477.0	375.5
477.0	388.0
477.7	439.3
478.0	394.5
478.5	401.0
478.0	418.5
478.5	461.0
479.5	367.0
479.5	407.0
479.0	413.0
480.0	434.0
481.7	361.3
481.0	455.0
482.0	379.0
482.7	385.3
482.0	428.5
482.5	443.5
482.3	449.7
483.0	355.5
483.0	391.5
483.5	398.0
483.0	422.5
484.0	371.0
484.5	416.5
484.5	438.0
485.3	404.3
485.0	410.0
485.0	460.0
486.0	432.5
487.7	366.3
487.0	454.0
488.0	360.0
488.0	376.0
488.0	382.5
488.5	389.0
488.0	426.5
488.5	448.0
489.0	395.0
489.0	420.0
489.0	442.5
490.0	353.5
490.0	413.5
491.0	401.0
491.0	407.0
491.0	436.5
491.0	459.0
492.0	371.0
492.5	453.0
493.5	380.0
493.0	431.0
494.0	358.5
494.0	387.0
494.5	417.5
494.0	425.0
494.0	447.0
494.7	463.7
496.0	365.0
495.0	395.5
495.0	441.0
496.0	410.5
497.3	375.7
497.0	403.5
497.0	458.0
498.5	436.0
498.5	451.5
499.5	358.0
499.0	370.5
499.7	384.3
499.0	391.0
499.7	415.3
499.0	422.0
499.0	429.5
500.0	445.0
501.5	399.0
502.5	378.0
502.8	406.3
503.3	352.3
503.5	361.5
503.5	367.0
503.3	457.7
504.0	390.5
504.7	420.3
504.0	427.0
504.0	433.0
504.5	440.0
505.0	373.0
505.5	414.0
505.0	452.0
506.0	384.0
506.5	446.0
507.0	396.0
508.7	402.7
508.0	409.0
508.0	463.0
509.0	358.0
509.5	377.5
509.0	457.0
510.0	364.0
510.0	370.5
510.0	390.5
510.0	419.0
510.5	424.5
510.3	430.3
510.3	436.7
511.0	451.5
512.5	385.0
512.0	414.0
512.0	445.0
513.0	397.5
513.7	408.3
514.3	462.7
515.7	359.3
515.7	373.7
515.5	379.0
515.5	403.0
515.5	434.5
515.5	456.0
516.5	353.0
516.0	366.0
516.5	392.0
516.0	428.0
516.5	449.0
517.0	421.0
517.3	442.7
518.5	385.0
519.0	398.0
520.5	409.0
520.0	415.0
520.5	438.0
520.5	455.0
521.5	362.5
521.5	431.5
521.7	461.7
522.5	368.0
522.0	379.0
522.5	389.0
522.0	425.5
522.3	448.7
523.0	356.5
523.0	374.0
523.0	403.5
524.0	394.5
524.5	420.0
524.0	443.0
526.0	384.0
526.5	399.5
526.3	436.7
526.3	455.3
527.0	409.0
527.3	414.7
527.7	430.3
528.5	366.5
528.7	372.3
528.7	424.7
529.0	361.5
529.0	391.0
529.0	448.0
530.5	379.0
530.5	404.0
531.0	356.0
531.7	397.3
531.0	441.5
531.0	459.5
532.0	419.5
532.5	435.0
533.0	386.0
533.0	412.5
533.0	453.5
534.5	370.0
534.0	427.5
535.7	364.7
535.0	392.5
535.0	446.5
536.5	375.0
536.5	405.0
537.5	354.0
537.5	417.0
537.3	440.7
537.5	458.5
538.5	381.0
538.5	398.0
538.5	433.0
539.0	360.0
539.0	425.0
539.5	452.0
540.7	368.3
540.0	388.5
540.0	411.0
541.3	427.7
542.0	404.5
542.0	446.0
543.0	355.0
543.5	375.5
543.3	382.7
543.0	421.0
543.5	457.5
544.5	393.5
544.5	399.5
544.0	439.5
545.0	362.0
545.0	415.0
545.5	433.0
546.5	451.0
547.5	368.0
547.0	388.0
547.5	410.0
547.5	427.0
548.0	404.5
549.0	356.0
549.0	381.5
549.5	421.0
549.0	445.0
550.5	375.0
550.0	398.5
550.7	438.3
550.5	457.0
552.5	363.0
552.0	393.0
552.5	432.0
553.7	369.7
553.0	414.0
553.0	450.5
554.0	387.0
554.0	462.5
555.0	357.0
555.0	407.5
555.0	426.0
555.5	444.0
556.0	381.0
556.5	399.5
556.0	420.5
557.3	437.3
557.0	456.0
558.0	374.5
558.0	393.0
559.0	366.5
559.3	417.3
560.3	411.7
560.0	431.0
560.0	449.0
560.5	462.0
561.5	360.0
561.0	387.0
561.5	424.0
562.7	380.3
562.3	405.7
562.5	442.0
563.0	399.0
563.5	455.0
565.5	374.0
565.0	392.5
565.5	419.5
565.5	428.5
565.0	435.5
567.0	366.5
567.0	387.0
567.0	411.0
567.0	447.5
567.0	461.0
569.0	359.5
569.5	381.0
569.0	404.0
570.7	440.7
570.5	454.0
571.0	376.5
571.0	391.5
571.0	398.0
571.5	418.0
571.0	425.5
571.3	432.3
573.5	371.0
573.5	410.0
574.5	357.0
574.0	364.0
574.0	448.0
574.5	461.0
575.0	387.0
575.5	436.0
576.5	380.0
576.5	395.0
576.0	402.5
576.5	423.0
577.5	442.0
577.0	454.5
578.5	368.0
578.0	417.0
578.5	429.0
580.0	361.0
580.5	374.0
580.0	409.5
580.5	461.5
581.5	353.0
581.0	388.0
581.5	398.5
581.0	448.5
582.0	435.0
583.0	381.5
583.0	424.0
584.5	366.5
584.5	405.0
584.7	442.3
584.0	455.5
585.0	417.5
587.5	359.5
587.5	393.5
587.3	411.3
587.0	430.0
587.0	462.5
588.0	353.0
588.5	374.0
588.3	386.7
588.5	400.0
588.0	437.0
588.0	449.5
589.7	423.3
590.0	380.5
591.0	366.5
591.0	417.0
591.5	456.5
592.0	406.0
592.0	444.0
593.3	355.7
594.0	391.0
594.0	398.0
594.0	435.0
595.5	377.5
595.3	384.3
595.5	414.0
595.5	463.0
596.0	362.0
596.5	369.5
596.5	421.0
596.5	428.0
597.0	452.5
598.0	441.5
599.5	402.5
599.0	409.0
600.3	395.7
601.0	357.5
601.5	374.0
601.0	388.5
601.0	434.5
601.0	447.5
601.3	459.7
602.3	381.3
602.5	416.0
603.0	422.5
604.5	363.0
604.5	429.0
604.5	454.0
605.0	408.0
605.0	441.5
606.0	400.5
607.0	369.0
607.0	394.0
607.5	448.0
608.0	375.5
608.0	387.5
608.0	434.0
609.3	357.3
609.0	419.0
610.5	382.0
610.0	412.0
610.5	425.0
610.3	461.7
611.5	405.5
612.5	363.5
612.5	398.5
612.0	439.0
612.5	452.0
613.0	371.0
614.0	391.5
614.0	445.0
615.5	385.0
615.5	415.5
616.7	355.3
616.5	378.0
617.0	422.0
617.0	435.0
617.5	461.0
618.0	366.5
618.0	403.0
619.5	373.5
619.5	409.0
619.5	455.0
620.0	397.0
620.3	428.7
620.0	442.0
620.5	448.5
622.0	361.5
621.5	390.0
622.3	415.3
623.3	382.7
624.5	356.0
624.0	369.5
624.0	422.0
625.0	403.5
625.0	438.0
625.3	459.3
626.0	377.0
627.0	395.5
627.0	427.5
627.0	444.5
627.3	451.3
628.0	410.0
628.5	417.0
629.0	388.5
629.0	433.5
630.5	361.0
630.0	367.0
631.0	382.0
632.7	355.3
632.5	373.5
632.5	399.5
632.0	422.5
632.0	440.5
633.5	406.0
633.5	412.0
635.0	393.5
634.0	429.0
634.0	447.5
634.0	455.0
635.5	417.0
635.5	462.0
636.0	366.5
636.7	379.3
636.5	386.5
638.3	360.7
638.5	436.0
639.0	422.5
639.0	443.5
640.0	354.5
640.3	373.7
640.5	400.0
640.0	410.5
640.7	450.3
640.0	458.0
641.8	392.0
641.0	429.0
643.0	367.0
643.3	417.7
645.0	384.5
645.5	406.0
646.0	359.0
646.0	433.0
646.5	447.0
647.7	412.3
647.0	424.5
647.0	440.5
647.7	460.3
648.0	374.0
648.3	391.7
650.5	365.5
650.3	401.7
650.7	454.3
651.7	417.7
652.0	357.5
652.0	429.5
653.7	388.3
653.3	409.3
653.0	436.0
653.0	446.5
654.0	372.5
654.5	380.0
655.0	396.0
655.0	423.5
655.8	460.8
656.5	353.5
656.5	442.0
657.5	360.0
657.3	452.7
658.5	367.0
658.3	404.0
659.0	417.5
659.0	430.5
660.0	386.5
660.5	392.5
660.5	437.0
660.3	447.7
661.0	374.5
662.5	399.0
662.5	457.5
663.3	362.7
663.0	425.0
664.5	356.0
664.0	380.5
664.3	412.7
664.5	442.0
666.6	388.8
666.5	404.5
666.4	434.6
666.0	450.0
667.0	369.5
667.0	419.5
72.0	548.0
73.0	465.0
73.5	563.0
74.5	485.5
74.5	572.5
75.5	506.5
75.5	527.0
75.5	556.0
76.3	478.7
77.5	520.0
77.0	543.5
78.5	471.0
78.5	500.0
78.5	513.0
79.5	550.0
80.5	560.5
80.5	567.5
82.0	487.5
82.5	574.5
83.0	476.0
83.0	506.5
83.5	525.0
84.3	518.7
84.5	532.5
84.5	555.0
85.7	469.3
85.3	499.7
85.3	540.7
85.5	547.5
86.3	491.7
86.0	512.5
89.3	483.3
89.0	563.0
90.5	475.0
90.0	503.5
90.3	550.7
90.0	570.0
91.0	508.5
91.0	529.5
91.5	536.5
92.0	468.0
92.5	497.0
92.5	515.5
92.0	522.0
92.5	544.0
92.0	557.0
94.0	489.5
96.0	478.5
97.5	472.0
97.0	504.0
97.0	569.5
98.5	484.0
98.5	511.0
98.5	526.0
98.5	533.5
98.0	562.5
99.5	518.5
100.0	540.0
99.5	555.5
100.0	548.0
101.0	490.0
101.5	498.5
104.0	478.0
103.7	506.7
104.3	470.3
105.5	464.5
105.5	529.5
105.5	560.0
106.3	485.7
106.5	494.0
106.0	514.5
106.5	552.0
107.5	522.0
108.7	536.3
108.0	544.5
109.5	475.0
111.0	509.5
112.0	468.5
112.3	497.3
112.5	529.5
112.0	571.0
113.7	491.3
113.0	550.0
113.0	557.0
113.5	563.5
114.5	478.0
114.0	484.5
114.0	516.0
115.5	503.5
116.5	523.0
116.5	536.5
117.0	545.5
118.5	510.0
119.3	471.3
119.3	497.7
119.5	553.0
120.0	530.0
121.3	484.3
121.0	561.0
122.3	477.3
122.7	516.7
122.0	541.5
124.0	523.5
124.5	535.0
126.0	549.0
127.0	467.5
127.5	489.0
127.0	497.5
127.0	557.0
129.0	481.8
128.5	528.0
128.7	565.7
129.0	475.0
129.0	541.5
130.0	520.5
131.5	513.0
132.5	505.0
132.5	554.5
133.7	492.7
133.0	534.0
133.5	547.5
134.5	485.5
135.0	498.5
135.5	560.5
136.5	472.0
136.5	479.0
136.0	541.0
136.3	568.7
137.4	519.8
137.7	528.3
139.5	510.0
140.7	502.7
140.5	555.0
141.5	486.0
141.5	495.0
141.5	535.5
141.7	546.3
143.0	562.8
143.0	523.0
144.0	479.5
144.5	516.0
145.5	464.0
145.5	472.5
146.5	492.0
146.5	508.0
146.5	529.0
146.5	542.5
147.0	569.5
148.0	499.5
149.0	485.5
149.0	535.5
149.0	557.0
150.0	521.5
150.5	549.5
152.3	466.3
152.5	473.0
152.5	479.5
153.2	514.4
153.0	493.5
153.3	505.7
153.3	564.3
154.5	527.0
155.5	534.0
155.0	541.0
155.5	572.0
157.0	487.5
157.5	500.0
157.0	555.5
158.0	521.5
159.5	468.0
159.5	508.5
159.3	547.3
160.0	475.0
160.5	494.0
161.3	516.3
161.3	539.7
161.5	565.5
162.0	482.0
162.5	530.5
163.0	558.5
164.7	501.7
165.0	573.0
165.5	470.5
165.0	489.0
165.0	551.0
166.5	544.0
167.0	511.0
167.0	523.5
168.0	477.0
168.5	495.5
169.5	484.0
169.5	507.0
169.0	517.0
169.3	537.7
169.3	567.3
170.0	530.0
170.0	562.0
171.0	466.5
172.0	555.5
173.5	472.5
173.0	491.0
173.0	501.0
173.5	520.0
173.0	548.0
174.5	513.0
174.5	526.5
175.5	479.0
176.0	569.5
177.0	464.0
177.0	486.0
177.5	496.0
177.5	507.0
177.7	533.7
177.5	541.5
179.5	471.0
179.3	560.7
180.0	524.5
180.0	553.5
181.0	518.0
182.5	477.0
182.0	490.5
182.0	501.5
182.3	512.7
183.2	574.4
183.3	483.7
183.0	548.0
183.0	566.5
184.0	466.0
184.5	529.0
185.7	535.7
186.5	496.0
186.5	542.0
187.0	473.0
187.0	508.5
187.3	522.3
187.3	553.3
190.0	515.3
189.5	560.5
189.0	568.5
190.5	481.5
190.5	489.5
190.0	502.5
191.5	468.0
191.5	529.5
191.5	546.5
193.2	553.4
193.0	538.0
194.0	475.0
194.0	523.0
194.7	563.3
195.0	508.5
196.3	499.7
196.0	569.5
197.0	481.0
197.5	487.0
197.5	517.0
198.0	469.5
198.0	493.0
198.6	549.2
201.0	539.8
201.0	475.5
201.0	525.5
201.5	559.0
202.0	504.5
202.5	567.0
203.0	465.0
203.5	483.5
203.7	518.3
204.5	491.0
204.0	498.0
205.3	470.3
205.0	511.0
206.0	545.5
206.0	553.5
207.5	532.5
208.0	476.0
208.3	524.7
208.7	574.3
210.5	464.0
210.0	482.0
210.3	502.7
210.0	516.5
210.7	540.3
210.8	560.6
210.5	568.0
211.5	488.0
211.0	495.0
212.0	470.0
212.3	548.3
214.0	510.0
214.5	522.0
215.0	475.5
215.0	528.0
215.5	534.5
215.3	554.3
217.0	482.5
217.5	567.0
218.0	490.5
218.3	497.3
218.5	516.0
218.5	541.0
219.0	469.5
219.5	548.0
221.0	503.5
221.5	522.0
221.7	529.7
221.5	561.0
222.5	476.5
222.5	510.0
222.5	555.0
223.3	485.3
223.5	536.0
224.0	465.0
226.0	491.5
225.7	498.3
225.3	569.3
226.0	516.5
226.5	544.0
227.7	472.3
227.5	505.0
228.0	479.0
228.0	524.0
228.0	551.5
229.5	511.0
229.5	532.0
229.5	561.0
231.7	538.7
232.0	468.0
232.0	485.5
232.0	568.5
233.7	493.3
233.0	500.0
233.0	519.5
234.5	478.0
234.5	526.0
234.0	545.5
235.0	513.0
235.0	554.5
236.7	472.3
236.0	506.5
236.5	532.0
236.5	563.0
238.5	571.0
239.7	486.7
239.0	538.0
240.0	500.0
241.0	493.5
241.7	510.7
241.0	517.5
241.0	525.0
241.5	465.0
241.7	478.7
241.5	556.0
242.5	543.5
242.0	550.0
243.0	472.0
244.0	533.0
244.3	566.3
245.5	574.0
246.0	484.0
246.5	505.5
246.0	559.5
247.0	491.0
247.0	498.0
248.0	477.5
248.0	513.5
248.0	520.5
248.3	527.7
248.5	539.0
248.3	552.7
249.0	471.0
249.5	546.0
250.5	565.0
253.3	466.7
253.5	489.5
253.5	503.0
253.5	509.5
253.0	533.5
253.0	557.0
254.0	483.5
254.0	497.0
254.5	517.0
254.0	525.0
255.0	474.5
255.0	549.5
255.5	569.5
256.5	541.5
257.5	561.0
259.5	469.0
259.0	512.0
260.0	481.0
260.0	487.5
260.0	494.5
260.5	501.0
260.0	522.5
260.5	533.5
261.0	475.0
261.0	546.5
261.7	573.7
263.7	552.6
262.5	566.5
264.0	507.5
264.3	559.3
265.5	465.5
265.7	519.3
265.5	528.0
265.5	541.0
266.0	472.0
266.7	478.3
266.5	484.5
267.5	490.5
267.5	496.0
268.0	502.5
268.0	513.5
268.0	535.0
269.0	547.0
269.0	562.5
269.5	569.5
271.0	508.0
272.0	468.5
272.0	475.0
272.5	481.0
272.5	524.0
272.0	555.0
273.5	518.0
273.5	538.0
274.5	486.5
275.0	492.5
275.5	499.0
275.0	512.0
275.5	531.0
275.0	563.5
276.0	544.0
278.0	465.0
278.0	504.5
278.0	557.0
278.0	570.0
279.0	516.5
279.5	524.0
279.5	549.5
280.0	482.0
280.5	510.0
280.0	538.0
281.5	489.0
282.0	496.5
282.5	531.0
282.3	563.3
283.0	468.5
283.0	475.5
284.5	544.0
284.5	555.0
285.5	505.0
285.0	517.5
286.0	511.0
286.0	524.5
286.5	537.5
287.0	465.0
287.0	481.0
287.7	491.7
287.5	570.0
288.0	487.0
288.0	498.0
288.5	550.0
289.0	471.0
289.0	531.0
290.5	563.0
291.0	516.5
292.7	465.7
292.0	476.5
292.5	510.0
292.5	525.0
292.0	556.0
293.0	482.5
293.0	494.0
293.3	502.3
293.5	538.0
293.7	545.3
294.0	488.5
295.3	569.3
296.5	471.5
296.5	519.5
296.0	531.0
297.0	552.0
298.0	465.5
298.0	478.0
298.3	559.3
299.0	497.5
299.5	504.5
299.7	514.3
299.5	542.0
300.0	484.0
300.3	490.3
300.5	525.0
300.5	536.0
301.0	565.0
302.7	510.3
303.5	468.0
303.0	531.0
303.5	547.0
303.5	554.0
303.0	571.5
304.0	474.0
305.0	479.0
305.0	494.5
305.0	520.0
306.3	485.3
306.5	500.0
306.3	505.7
306.0	539.5
306.0	560.0
307.7	515.3
307.5	526.0
309.5	491.0
309.0	530.5
309.5	568.0
310.3	469.3
310.0	474.5
310.7	510.3
310.5	550.0
311.0	481.0
311.0	543.0
311.3	555.7
312.0	497.0
312.5	504.0
312.0	522.5
313.5	486.0
313.5	536.5
313.5	562.0
314.7	516.7
315.0	466.0
315.0	529.0
316.0	475.5
316.7	545.7
317.0	500.0
317.0	509.5
317.3	551.3
318.5	470.0
318.0	481.0
318.5	570.0
319.5	494.0
319.5	540.0
320.5	486.5
320.0	504.0
320.0	520.0
320.5	526.5
320.0	557.0
322.3	475.7
322.5	515.0
322.0	534.0
322.5	563.0
323.0	509.0
323.3	545.3
324.5	468.5
324.5	482.5
325.0	497.5
325.0	490.5
325.5	552.0
325.5	568.0
326.0	523.5
326.5	530.0
327.5	473.5
327.0	504.5
327.3	539.7
327.0	558.0
327.5	573.0
328.5	511.0
329.0	479.0
329.5	517.5
330.0	486.5
330.5	500.0
330.5	546.5
330.5	564.0
331.0	468.5
332.0	493.5
332.0	523.5
333.7	463.3
333.5	475.0
333.0	506.5
333.5	530.0
333.5	536.0
333.0	552.0
334.7	481.7
334.0	558.5
335.0	572.5
335.0	513.0
335.5	542.0
336.5	488.0
336.5	500.5
337.0	469.0
337.5	519.0
337.5	526.0
337.3	562.3
338.0	549.0
339.0	477.5
339.5	495.0
339.5	506.5
339.5	555.5
341.0	483.0
341.0	532.5
341.5	538.5
341.0	567.0
342.5	466.0
342.0	472.5
342.5	501.0
342.3	512.3
342.3	544.7
343.0	489.5
343.0	524.5
343.5	573.0
345.5	477.5
345.3	518.3
345.7	553.3
345.0	560.0
346.0	485.0
346.5	497.0
347.0	471.0
347.0	505.0
347.5	535.0
347.5	567.0
348.7	491.7
348.0	529.0
348.0	541.5
348.0	547.5
349.5	464.5
349.5	512.0
349.5	523.0
350.0	481.5
351.5	563.0
352.5	470.0
352.0	476.5
352.0	487.0
352.5	507.0
352.7	571.7
353.7	501.3
353.0	518.0
353.5	551.0
354.0	494.5
354.0	532.0
354.3	538.3
354.0	544.5
354.3	557.7
355.5	482.5
355.5	513.0
356.0	466.0
356.0	525.0
357.0	473.5
358.0	488.0
358.5	507.5
358.0	565.0
359.0	478.0
359.0	498.0
359.0	519.5
359.5	547.5
360.3	468.3
360.5	530.0
360.5	536.0
360.0	554.0
361.0	542.0
361.5	571.0
362.0	483.0
362.3	492.3
362.0	502.5
362.0	513.0
362.5	559.0
363.0	473.5
363.0	524.5
365.0	508.0
365.0	565.5
366.0	468.5
366.0	478.0
366.0	488.0
366.5	497.5
366.0	519.0
366.0	546.5
367.0	531.0
367.0	539.0
367.0	554.0
368.5	513.0
369.5	473.0
369.0	483.5
369.0	503.0
369.7	524.7
369.0	560.0
369.5	572.0
371.0	491.0
371.5	508.0
371.7	542.7
372.5	468.0
372.5	479.0
372.5	519.0
372.0	536.0
372.0	549.0
372.5	566.0
373.7	496.7
373.5	555.0
374.0	486.0
374.0	530.0
375.5	474.5
375.0	513.5
376.0	502.0
376.5	524.0
376.5	561.0
377.0	464.5
377.5	491.0
377.5	508.0
378.0	481.0
378.5	540.0
378.5	546.0
378.0	552.0
378.7	567.7
379.5	470.5
379.0	518.0
379.0	534.0
380.0	497.0
381.0	476.5
381.0	485.5
381.0	527.0
381.5	557.0
382.0	465.0
382.0	503.5
382.0	512.0
383.3	562.3
383.5	571.0
384.0	491.5
384.5	517.0
384.7	522.3
384.0	532.0
385.6	552.0
385.5	471.5
385.0	538.0
385.5	544.5
386.3	479.3
386.5	499.0
387.5	485.5
387.5	566.0
388.0	506.0
388.0	528.0
389.7	490.7
389.0	513.0
390.0	469.0
390.7	474.7
390.0	519.0
390.0	534.5
390.5	548.5
390.0	560.0
391.5	481.0
391.0	540.5
391.5	570.0
392.0	496.0
392.5	502.0
392.0	524.5
393.7	464.3
393.5	486.5
393.5	508.5
393.5	554.0
395.0	515.0
395.0	530.5
395.0	544.5
395.0	564.5
396.0	470.5
396.5	492.0
396.0	536.0
397.0	476.0
397.5	482.0
397.5	499.0
397.0	521.0
397.0	549.0
398.0	559.0
399.0	510.5
399.7	570.3
400.0	486.5
400.0	505.0
400.0	526.5
400.0	541.0
401.0	467.0
401.0	516.5
401.0	553.0
402.3	473.3
402.5	480.0
402.0	495.0
402.0	533.0
402.7	546.3
403.7	490.7
403.0	564.0
404.5	511.0
404.0	521.5
405.5	501.5
406.5	469.0
406.0	529.0
406.5	542.0
407.3	484.3
407.0	496.0
408.0	570.3
408.0	477.5
408.3	507.7
408.0	516.0
408.0	536.0
409.0	548.5
409.5	558.0
410.0	491.0
410.0	524.0
410.0	564.5
412.0	469.0
412.5	497.5
412.5	542.0
413.0	475.0
413.5	505.0
413.0	512.0
413.0	530.5
413.5	553.0
414.5	480.0
414.0	486.0
414.0	518.5
415.5	465.5
415.0	536.5
416.0	559.5
416.7	565.7
416.5	573.0
417.0	471.0
417.0	493.0
417.7	500.3
417.5	526.0
417.5	547.5
419.0	477.0
419.0	510.0
419.5	516.0
419.7	540.7
420.0	487.5
420.5	522.0
420.5	533.0
420.0	555.0
421.0	466.5
421.5	482.0
421.5	569.0
422.5	472.0
422.5	497.5
423.7	491.7
423.0	505.0
423.7	550.3
423.0	562.0
425.0	477.5
425.0	511.5
425.7	528.3
425.0	544.0
426.0	521.0
426.0	537.0
427.3	466.3
427.0	556.5
427.5	568.0
428.5	472.0
428.0	488.0
428.5	495.0
428.5	501.0
429.0	482.0
429.0	507.5
429.5	516.0
430.0	550.0
431.3	476.7
431.5	525.5
431.0	540.0
431.0	563.0
432.3	532.3
433.5	468.0
433.5	492.0
434.0	486.0
434.0	498.0
434.0	504.5
434.0	512.0
434.3	545.7
434.0	557.0
434.5	570.0
435.5	480.0
435.3	519.3
436.5	473.0
436.7	539.3
437.0	526.0
438.0	552.5
438.0	562.5
439.5	491.0
439.0	514.5
439.0	534.0
440.0	468.0
440.0	483.5
440.7	500.7
440.0	507.0
440.5	546.5
441.0	477.0
442.0	525.0
442.7	573.3
443.3	471.7
443.0	518.5
443.0	558.5
443.5	566.0
444.0	488.0
444.0	531.0
444.0	538.0
445.0	466.0
445.0	494.0
445.0	512.0
445.0	551.5
446.0	482.0
446.3	505.7
446.7	523.7
447.5	476.0
447.0	499.5
447.0	544.5
448.5	561.5
449.7	574.3
450.0	470.5
450.5	489.5
450.0	515.5
450.5	533.5
450.0	539.0
450.5	549.0
451.5	527.5
451.5	555.0
451.5	567.5
452.5	465.0
452.0	480.0
452.5	496.0
452.5	509.0
452.0	521.0
453.3	502.3
453.5	543.0
454.5	475.0
455.0	485.0
456.0	537.0
456.0	561.0
456.0	573.0
457.0	469.0
457.0	492.0
457.0	515.5
457.0	524.5
457.0	549.5
458.0	480.0
458.5	506.5
458.0	531.0
459.5	498.0
460.0	543.0
460.5	555.0
460.0	566.0
461.0	474.0
461.0	486.5
462.5	519.5
462.5	526.5
463.5	468.5
463.0	513.0
463.5	537.0
463.0	572.0
464.0	480.5
464.5	493.0
464.3	506.7
464.3	548.3
464.7	560.7
465.0	500.0
467.5	475.0
467.0	486.0
467.0	531.5
467.0	542.5
467.5	567.0
468.5	464.5
468.5	517.0
468.0	524.0
469.0	510.5
469.0	554.0
470.5	504.0
470.0	574.5
471.0	470.5
471.5	480.5
471.0	491.0
471.5	497.0
471.0	538.0
471.0	548.5
473.0	520.5
473.0	527.5
473.7	558.7
474.5	533.5
474.0	544.0
475.0	466.0
475.0	475.5
475.0	486.0
475.0	507.5
475.3	514.7
475.7	570.7
477.5	491.0
477.0	501.5
477.3	551.3
478.7	471.3
478.5	481.0
478.7	521.8
478.0	539.0
478.0	564.5
479.5	529.0
480.0	496.0
480.0	510.5
480.3	558.7
482.0	466.0
482.5	476.0
482.5	487.0
482.0	505.0
482.3	515.7
482.0	534.5
482.0	545.5
482.7	572.3
484.5	499.0
484.5	524.0
484.0	553.0
484.3	565.3
485.5	471.0
485.5	493.0
486.0	481.5
486.0	509.5
486.5	519.5
486.0	530.0
486.7	538.7
486.7	558.7
488.5	465.0
489.0	503.5
489.0	514.0
489.0	549.5
489.3	570.3
490.0	476.0
490.0	487.0
490.7	543.7
491.0	497.5
491.0	525.5
491.0	532.5
491.0	563.5
492.0	469.5
493.5	482.0
493.5	492.0
493.0	508.5
493.0	519.5
493.5	555.0
494.0	537.5
495.5	567.0
495.5	573.0
496.0	473.0
496.0	503.0
496.5	513.5
497.0	477.5
497.0	487.0
497.0	524.5
497.0	543.5
497.0	549.5
498.0	497.0
498.0	531.0
498.0	560.5
500.0	508.0
500.0	519.0
500.5	571.0
501.5	491.0
501.0	538.5
501.0	554.5
502.7	473.7
503.0	480.0
503.5	486.0
503.0	502.0
503.7	513.7
503.0	565.0
504.3	522.3
504.0	533.0
504.5	544.0
505.5	468.5
505.5	496.0
505.5	550.0
506.7	508.3
506.5	571.0
507.0	527.5
507.0	560.0
509.0	475.0
509.0	482.5
509.0	489.5
509.5	502.0
509.0	539.0
510.5	515.0
510.5	533.0
510.5	554.0
511.0	522.0
511.5	547.0
511.0	565.0
512.0	468.5
512.0	495.5
513.5	478.5
513.3	507.3
514.5	559.0
514.0	570.5
515.5	484.0
515.0	528.5
516.0	473.0
516.5	490.0
516.0	501.0
516.0	518.5
516.0	536.0
516.0	542.0
518.5	468.0
518.0	512.5
518.5	553.0
518.0	564.5
519.0	495.5
519.5	524.0
520.0	479.0
520.5	506.0
520.5	571.5
521.5	547.0
522.3	530.7
522.5	539.5
522.5	559.0
523.0	473.0
523.0	485.0
523.3	499.3
523.5	518.0
524.7	492.3
525.0	467.5
525.3	511.7
525.5	565.0
526.0	552.0
526.5	572.5
527.0	479.0
527.5	504.5
527.5	524.0
527.3	535.3
528.3	543.7
529.5	473.0
529.0	487.5
530.5	467.0
530.0	498.0
530.3	517.7
530.0	558.5
531.5	510.5
531.0	566.5
532.0	529.0
533.5	536.0
533.5	573.0
534.5	478.0
534.5	485.0
534.0	492.0
534.5	504.0
534.3	549.3
535.0	464.0
535.0	522.5
536.5	471.0
536.5	514.0
536.0	542.5
537.5	498.0
537.5	567.0
538.7	532.3
538.3	559.3
540.0	490.5
540.0	574.0
541.0	483.5
541.0	504.5
541.0	519.0
541.5	526.0
541.3	546.3
541.5	553.5
542.0	477.0
542.0	538.0
543.0	511.5
543.7	564.3
544.0	470.5
544.5	497.0
545.5	532.0
545.7	570.3
546.0	489.0
546.0	543.5
547.7	463.7
547.5	505.5
547.7	550.7
547.5	559.0
548.0	476.0
548.5	482.5
548.0	516.0
548.5	524.5
549.5	537.5
551.0	469.5
551.3	496.3
551.5	567.0
552.5	487.5
552.5	530.5
552.7	545.7
553.0	511.5
554.5	476.5
554.0	519.0
554.0	554.5
555.0	502.5
556.7	490.3
556.0	536.0
556.0	561.5
557.5	470.0
557.7	524.7
558.0	482.5
558.4	569.8
559.0	497.0
559.0	509.0
559.0	542.0
559.0	549.5
560.0	515.0
560.0	530.5
561.0	475.5
561.0	556.5
563.5	487.0
563.5	493.0
563.0	503.5
563.5	537.0
563.7	563.3
564.3	468.7
564.0	520.0
565.5	480.0
565.0	512.0
565.5	526.0
565.5	545.0
566.7	568.7
568.3	532.7
568.0	558.0
569.3	473.3
569.0	484.0
569.0	498.5
570.3	466.3
570.0	490.5
570.5	507.0
570.7	515.7
571.7	539.7
571.5	563.0
572.0	522.0
572.5	546.0
572.7	552.7
573.3	479.7
573.0	528.5
575.5	487.0
575.7	493.7
575.5	501.0
575.5	571.5
576.5	468.0
576.0	512.5
576.3	558.3
577.5	474.5
577.7	507.7
578.5	519.0
578.5	526.5
578.0	542.0
578.0	565.0
579.5	535.0
579.7	550.3
580.0	481.5
581.5	491.5
581.0	498.0
582.7	504.7
583.0	468.5
583.3	512.0
583.5	560.0
584.5	475.0
584.0	487.0
584.0	524.0
584.3	544.3
585.0	531.0
585.7	566.7
586.7	481.3
587.5	493.5
587.3	518.7
587.5	538.0
587.5	552.0
588.5	499.5
588.0	573.5
589.0	468.5
589.3	506.7
591.5	475.0
591.5	488.0
591.0	526.5
592.7	514.3
592.0	545.5
593.0	481.0
593.5	533.0
594.5	501.5
594.0	539.0
594.5	569.0
595.7	469.7
596.0	495.5
595.5	521.0
595.5	556.0
596.3	507.7
597.5	549.0
598.3	476.3
598.5	483.0
598.5	489.5
598.5	528.5
600.0	515.5
600.5	542.0
601.5	535.0
601.7	553.3
602.0	470.5
602.0	500.5
602.5	559.5
602.7	567.3
604.0	494.0
603.0	508.5
603.5	522.5
604.0	487.0
605.0	479.0
605.5	546.5
607.0	466.5
607.0	516.5
608.0	504.5
608.3	538.7
608.5	554.5
609.3	473.3
609.0	484.5
609.0	530.0
609.3	563.3
610.5	491.5
610.7	510.7
610.5	522.0
610.3	572.7
611.0	498.0
612.0	479.5
613.7	543.7
614.0	467.0
614.5	504.5
615.3	517.7
616.0	485.5
616.0	550.5
616.0	558.5
616.3	567.3
617.0	493.0
617.0	511.0
617.0	526.0
617.0	538.0
618.0	472.0
619.0	479.0
619.0	499.5
620.5	531.5
620.0	574.0
622.5	467.0
622.8	488.0
622.0	506.5
622.0	546.5
622.5	553.0
623.0	515.0
623.5	523.5
623.3	560.3
624.5	475.0
624.3	495.3
624.3	567.3
625.3	538.7
626.5	502.0
627.3	482.7
627.5	531.5
628.5	509.5
629.0	470.5
629.0	490.5
629.7	517.7
629.0	544.0
629.0	548.5
629.3	573.3
630.0	465.0
631.5	497.0
631.0	555.0
631.0	563.5
632.3	476.3
632.3	524.3
633.0	536.5
634.0	504.5
634.0	531.0
635.0	486.5
635.0	512.0
635.5	546.5
636.0	469.5
637.0	481.0
637.0	518.5
637.3	560.7
638.5	498.5
638.5	525.5
638.5	568.5
639.0	553.0
640.5	492.0
641.7	476.3
641.5	510.0
641.3	535.0
642.7	464.7
642.0	484.5
642.5	503.0
642.5	542.0
644.5	471.0
644.5	520.0
645.3	496.7
645.0	549.0
645.0	558.5
646.5	528.0
646.5	566.0
646.5	573.5
647.0	489.0
648.0	481.0
648.3	504.3
648.4	537.2
649.5	475.0
649.7	513.7
649.5	554.5
650.5	466.5
650.7	544.3
652.3	498.3
652.5	520.5
652.5	532.0
653.5	485.0
653.0	560.5
653.0	569.5
654.0	526.5
655.7	507.3
655.5	552.0
656.0	477.0
656.5	491.5
656.3	539.3
658.5	469.0
658.7	545.7
659.0	515.0
659.5	561.5
659.5	573.0
660.0	483.5
660.0	497.5
660.0	523.0
660.0	532.0
663.0	476.5
663.0	491.0
664.0	540.0
664.5	557.0
664.7	568.3
665.5	464.0
665.0	505.5
665.0	549.5
665.7	564.7
666.0	521.5
666.3	573.3
667.0	496.5
667.0	513.0
667.0	532.0
103.5	576.0
221.5	583.0
246.7	590.3
267.0	578.5
270.7	598.7
272.5	584.0
273.5	576.0
279.0	581.5
280.0	588.5
280.5	620.0
283.0	575.5
285.5	592.0
286.0	582.5
290.7	575.7
291.7	596.3
292.0	587.5
297.5	575.5
305.5	578.0
312.3	575.7
320.0	593.0
322.0	577.0
322.5	587.0
327.0	583.0
328.7	591.3
329.5	610.5
331.5	578.5
332.5	603.0
332.0	618.5
335.0	585.5
339.0	579.0
344.0	583.5
346.3	601.7
347.0	577.0
371.3	577.3
377.0	574.5
410.5	583.0
410.0	590.0
423.3	575.3
424.0	582.5
430.0	577.0
434.0	583.5
437.0	577.0
476.5	585.0
477.5	577.5
501.3	576.3
551.5	576.0
128.0	148.3
127.3	158.4
125.9	165.7
123.4	153.8
118.5	147.2
114.7	154.2
110.5	148.9
101.4	150.0
94.0	150.7
85.7	151.4
80.8	145.5
87.8	143.7
92.6	136.4
96.8	143.0
102.4	136.0
95.8	130.1
105.6	142.7
114.3	141.6
110.1	135.3
103.8	129.0
110.1	127.3
117.1	127.6
118.5	135.3
123.4	140.9
129.0	134.6
124.8	128.7
121.7	120.6
113.3	120.3
105.6	120.3
104.9	111.5
112.2	112.2
118.9	113.3
123.8	109.1
126.2	115.0
129.4	121.7
134.3	129.0
137.4	123.1
135.0	116.1
131.5	109.4
124.1	195.1
115.7	197.6
109.4	191.6
100.0	187.1
95.1	192.7
93.0	181.1
98.6	176.2
104.9	173.1
105.2	165.0
84.6	163.6
95.1	166.8
90.5	173.8
83.2	181.5
79.7	188.8
105.2	203.9
114.7	204.6
189.9	159.8
93.3	237.8
81.1	238.1
97.5	242.3
95.4	249.3
102.1	247.2
106.6	240.9
102.1	255.6
98.6	261.2
89.8	261.2
84.3	256.3
83.6	246.9
104.2	301.1
126.9	239.9
107.3	156.6
98.6	122.7
97.5	115.7
91.2	120.6
89.2	128.0
84.3	134.6
80.1	126.6
78.3	138.5
87.4	114.3
82.5	120.6
92.6	108.7
99.3	105.2
109.4	105.9
118.2	105.2
128.3	104.2
142.7	116.1
145.8	124.1
151.4	118.2
146.9	111.5
139.2	110.1
136.0	104.5
132.9	98.6
122.7	99.6
145.5	104.2
141.6	98.6
113.3	98.9
104.2	97.9
95.1	98.6
154.5	124.8
159.4	117.5
161.5	111.9
153.1	104.9
154.5	111.9
166.8	117.5
164.0	124.1
172.0	127.3
173.4	121.0
173.4	114.0
180.4	118.5
180.1	127.3
187.1	123.1
194.4	126.9
193.4	119.2
187.4	115.0
182.2	110.1
167.5	110.1
160.8	105.6
171.0	104.9
179.0	105.6
201.8	128.0
199.3	120.3
80.1	196.9
73.4	192.7
71.0	199.7
74.8	218.9
208.3	129.0
216.4	130.4
215.3	123.1
208.3	121.3
204.8	113.3
196.5	112.6
189.5	108.7
201.3	105.6
213.2	115.7
219.5	111.5
210.8	109.1
193.3	102.8
185.3	102.4
165.0	100.7
156.2	99.6
226.9	114.3
220.9	119.2
223.0	128.3
228.6	123.4
232.5	117.8
236.3	124.1
240.5	117.1
245.8	123.1
248.6	116.1
253.1	122.7
251.0	129.0
255.6	141.6
259.4	126.9
258.3	118.5
243.7	109.8
233.9	110.8
225.8	105.9
216.7	104.9
208.0	102.1
222.7	100.3
235.3	104.2
256.3	110.5
251.0	105.2
266.7	116.1
266.7	123.8
273.7	129.4
273.0	121.3
280.0	124.8
280.0	117.8
275.1	113.3
287.0	115.0
282.8	109.8
265.3	109.1
263.2	103.5
271.6	105.2
286.7	121.0
312.9	127.3
307.0	130.4
300.7	125.5
287.4	129.4
294.0	123.4
294.0	115.7
300.0	118.2
306.6	122.7
307.0	115.0
300.7	110.5
291.9	110.1
289.8	105.2
280.0	104.5
297.9	104.2
315.4	119.2
321.3	114.3
325.5	119.6
319.5	124.5
328.6	125.9
333.2	119.6
337.0	126.2
329.0	113.6
314.0	110.8
307.0	106.6
339.5	115.0
333.2	109.4
347.9	113.3
342.3	121.3
348.2	125.5
352.1	119.6
354.9	128.0
361.2	123.4
358.4	116.1
354.5	110.5
364.0	110.1
366.1	116.8
367.1	128.7
374.5	129.0
370.3	122.0
378.6	123.1
374.1	116.4
386.7	123.4
382.8	116.8
386.7	111.9
391.9	118.2
395.1	124.8
403.8	126.9
400.3	120.3
396.8	112.9
404.2	115.0
409.4	121.0
371.1	109.4
341.0	108.7
323.9	108.0
409.5	111.2
415.5	116.4
411.6	128.7
417.6	124.1
430.2	125.2
424.2	120.6
422.8	114.3
429.5	112.9
432.6	119.2
437.5	125.5
441.7	119.6
445.2	125.9
448.4	120.6
454.0	125.9
462.0	127.6
459.2	121.0
454.7	116.1
463.1	116.1
467.2	120.3
470.7	127.3
438.6	113.3
447.7	112.9
453.3	109.8
465.2	110.5
471.4	115.0
473.5	109.4
460.2	307.9
475.2	122.5
479.8	116.6
480.8	108.9
488.5	109.9
486.7	116.6
483.2	124.6
490.2	129.5
491.6	122.2
497.2	127.1
503.9	130.2
503.2	121.8
496.9	116.9
496.9	110.3
495.5	105.7
503.5	114.8
508.8	116.9
509.8	123.6
516.8	126.0
517.2	118.0
517.2	111.3
509.1	110.3
503.5	106.4
513.7	105.0
485.0	104.3
477.7	103.3
471.7	104.7
347.6	104.7
340.2	103.6
355.6	104.0
363.3	104.3
378.7	111.0
375.5	105.7
385.0	105.4
393.7	106.4
402.1	107.5
408.8	103.6
398.6	102.2
415.8	108.5
417.5	104.3
423.4	108.2
428.3	103.6
434.6	106.1
443.4	106.1
449.7	104.0
459.8	108.5
463.0	103.6
523.5	111.3
520.3	104.7
527.7	103.6
532.2	109.2
527.0	120.1
523.8	126.4
532.2	127.8
540.6	126.7
535.7	121.1
531.5	115.9
538.2	112.7
543.4	119.0
546.7	113.4
541.8	107.1
549.4	105.0
554.7	112.4
551.5	119.0
547.7	126.4
556.8	124.6
560.3	118.3
569.4	118.7
565.5	124.6
564.8	111.0
558.5	107.5
570.4	104.7
572.2	112.0
577.8	119.4
572.9	126.4
585.5	123.6
584.8	117.3
580.9	111.0
577.8	105.4
586.2	105.0
589.0	111.0
596.0	111.0
592.1	115.9
591.1	122.9
596.0	127.4
605.1	120.4
597.7	119.0
608.5	127.8
614.1	123.6
604.0	112.7
602.6	105.7
594.9	105.7
599.1	100.8
610.6	116.2
610.6	108.5
621.1	119.0
622.2	126.7
616.9	115.2
617.3	108.9
614.5	103.6
623.6	109.9
626.7	118.0
632.0	124.6
636.2	117.3
640.4	126.4
645.6	119.0
631.6	111.3
622.5	103.3
630.6	103.3
641.8	111.0
637.9	104.7
650.2	126.0
596.3	244.9
525.7	340.0
530.6	337.9
542.1	337.2
547.0	336.2
452.2	218.3
445.9	217.6
438.6	201.9
436.8	195.6
425.0	259.9
428.8	265.2
612.0	334.4
613.4	430.5
646.0	397.3
436.8	464.6
353.6	450.6
347.7	451.6
566.6	551.3
590.0	559.0
595.6	563.2
624.1	579.6
630.0	586.6
631.4	579.9
638.1	583.8
638.4	576.1
646.8	580.6
644.4	586.9
654.9	577.5
653.1	585.9
655.9	593.2
662.2	586.6
662.2	580.6
672.4	580.6
671.7	590.1
664.0	593.9
658.0	600.9
636.0	592.2
643.3	595.0
626.9	593.6
626.2	601.6
627.6	609.3
634.9	606.5
635.3	598.8
640.9	603.0
649.6	595.0
649.6	604.1
659.1	609.6
653.1	615.9
645.8	612.1
638.4	615.9
629.7	617.3
617.8	589.7
618.9	598.1
610.1	582.4
616.8	580.3
602.8	577.5
594.7	577.1
588.8	581.3
595.4	584.8
602.8	586.9
595.8	592.2
597.5	598.5
609.8	590.4
603.5	594.6
606.6	602.3
611.9	597.8
615.0	604.7
567.1	575.4
575.1	577.8
581.1	575.4
582.1	583.4
576.5	587.6
569.9	583.1
569.5	589.7
562.6	588.3
562.2	581.7
559.4	576.4
555.2	583.1
550.3	586.9
545.8	579.2
542.3	586.2
536.7	580.3
533.9	584.8
529.7	590.1
525.1	584.8
529.7	578.9
521.3	578.5
518.8	584.8
522.3	590.8
523.7	597.4
532.1	597.1
537.4	591.1
545.4	591.5
541.6	596.4
537.7	602.3
540.9	608.2
544.7	602.3
553.1	604.4
550.7	596.0
556.3	589.7
557.0	598.1
562.6	594.6
568.5	598.8
561.9	603.0
560.5	610.0
576.9	595.3
588.8	588.7
582.8	592.5
588.8	596.7
592.3	604.1
600.0	606.8
605.6	612.8
605.9	620.5
612.2	610.0
613.6	618.4
620.3	612.8
623.1	620.5
619.6	628.2
630.0	625.0
611.2	627.1
601.4	627.1
593.7	629.6
587.4	622.9
597.2	620.5
595.8	613.5
587.4	616.3
586.0	608.2
582.8	602.7
574.8	603.4
577.2	610.7
579.7	617.7
568.8	607.2
569.9	614.5
562.6	617.0
580.4	625.7
572.7	620.8
565.7	625.0
573.7	628.9
586.0	630.6
532.1	610.3
529.3	603.0
524.1	605.8
524.1	612.4
524.1	618.0
523.7	626.8
524.8	633.1
532.5	626.4
531.1	617.3
538.8	614.9
538.4	622.2
543.0	628.2
534.6	633.1
546.5	620.1
546.5	613.5
548.2	608.2
551.0	623.6
558.7	625.7
550.3	630.3
563.3	630.6
555.9	617.0
553.8	611.4
510.5	576.8
514.7	591.5
512.6	583.4
506.6	589.7
505.2	583.1
499.3	587.3
496.5	582.0
490.5	577.8
483.5	580.6
483.9	587.6
490.9	584.1
494.0	590.1
487.4	592.9
480.7	592.2
476.2	599.2
484.2	598.8
493.3	596.0
500.7	593.6
508.7	598.1
517.1	597.1
517.8	603.4
518.2	608.9
516.4	614.9
517.1	621.9
510.5	615.6
511.2	607.2
517.1	629.9
510.8	624.0
506.3	629.6
498.6	627.1
493.0	629.9
494.0	621.5
487.4	624.7
490.2	616.6
490.2	610.0
490.9	601.6
498.2	600.6
503.5	604.4
496.5	607.9
496.8	613.8
503.5	612.1
503.1	620.1
483.9	605.4
482.5	612.4
481.5	618.7
479.4	625.7
484.6	630.6
476.3	607.2
470.3	611.0
469.6	603.0
463.0	606.1
463.3	613.8
464.7	621.5
464.0	628.5
476.6	614.2
470.0	618.0
474.5	620.8
471.0	626.1
475.9	631.7
458.4	624.3
457.0	616.6
452.1	621.2
445.1	621.9
447.2	628.9
454.9	628.2
449.0	613.8
455.6	610.3
449.3	607.5
449.0	600.6
449.7	592.9
447.6	587.6
447.6	580.3
454.6	579.6
455.6	586.9
455.3	593.6
456.3	601.3
463.0	597.1
462.6	590.8
462.6	583.8
462.3	577.8
469.3	580.6
468.9	587.6
473.1	592.2
468.6	595.3
441.3	583.1
441.3	592.2
443.8	596.7
441.7	604.1
442.4	611.0
436.1	615.2
438.5	621.9
432.2	621.2
427.0	626.4
435.4	628.2
418.6	627.1
420.0	633.4
431.9	632.7
416.5	619.1
422.1	616.3
424.2	621.2
428.4	614.5
424.2	609.6
429.4	603.7
435.4	609.3
435.0	599.2
435.0	590.4
429.4	587.3
429.8	595.3
423.5	590.8
416.5	587.3
417.2	580.3
409.8	576.1
403.9	577.8
398.0	579.2
394.1	575.0
390.6	581.7
387.1	576.4
382.6	580.3
380.5	585.9
386.4	587.3
389.9	593.2
395.5	586.2
396.9	593.6
403.9	585.2
403.6	593.6
409.8	597.8
416.8	593.9
424.2	599.2
415.4	602.0
420.7	604.7
415.4	611.4
408.1	604.4
408.5	610.7
409.8	617.0
410.5	624.3
402.5	618.0
402.2	609.6
401.5	600.6
392.0	599.9
396.6	605.4
389.6	605.8
384.7	600.9
382.6	594.3
376.6	591.1
374.2	583.1
368.2	583.8
364.4	576.4
356.3	575.7
352.5	581.0
349.0	588.3
356.0	587.3
359.5	582.0
362.6	589.0
370.0	589.7
365.1	595.0
373.5	595.7
368.6	600.9
378.0	601.6
373.8	607.5
365.8	607.5
382.9	607.5
379.4	612.1
377.3	618.4
380.5	625.0
373.1	627.1
365.1	631.0
373.5	632.7
382.2	632.0
389.2	623.6
384.7	618.4
387.8	613.5
396.6	612.8
394.8	618.4
398.3	625.4
392.4	629.9
405.0	626.4
412.3	631.7
401.8	631.0
403.9	556.5
315.8	490.7
294.5	451.6
198.6	533.1
341.3	589.7
341.3	596.0
333.7	595.0
325.6	597.4
326.0	604.1
318.3	602.7
314.1	598.1
310.9	593.2
316.9	587.6
317.2	581.7
309.9	583.4
305.3	588.3
299.7	583.4
292.4	581.3
298.0	590.8
303.2	595.0
308.1	599.9
322.1	610.0
315.1	610.0
317.9	614.9
317.6	620.8
324.2	617.0
326.7	624.3
335.8	624.0
339.6	617.0
336.8	610.3
339.6	603.4
343.4	610.3
349.0	615.2
345.2	621.2
342.0	627.5
337.5	632.7
329.1	630.3
320.7	629.9
313.0	626.4
309.9	631.7
346.6	632.4
349.7	627.1
355.0	632.7
355.3	620.5
370.0	620.5
370.4	614.2
362.0	615.2
355.0	613.1
350.1	607.9
357.8	605.8
361.3	599.5
357.8	595.0
350.1	595.0
352.9	600.9
358.5	626.1
364.8	623.6
304.8	623.6
300.6	627.8
291.9	624.7
295.0	632.4
283.5	625.0
289.4	618.7
283.5	614.9
288.4	610.3
294.3	612.4
303.1	612.4
298.9	618.7
309.0	619.1
309.7	612.8
294.3	605.8
298.9	598.8
301.3	605.4
310.4	606.1
271.9	592.5
278.2	597.1
286.3	601.3
282.4	606.8
276.5	603.7
274.7	613.1
269.1	607.9
263.9	602.3
261.8	608.2
266.3	614.5
271.6	619.1
275.8	626.1
277.9	632.7
287.3	630.3
270.2	631.0
268.1	624.3
261.1	625.4
253.4	625.4
252.7	633.8
260.7	632.4
245.7	627.1
243.6	620.5
235.2	622.6
238.0	629.9
227.5	626.4
224.4	620.8
225.8	612.8
232.1	617.0
234.5	608.2
240.5	613.5
248.5	616.3
254.8	618.4
262.1	619.4
257.6	614.2
249.9	610.0
255.9	606.1
257.3	598.1
263.5	595.0
264.9	588.3
257.6	591.8
251.7	584.8
251.0	577.8
258.7	582.7
246.4	581.0
242.9	585.9
236.3	585.5
238.0	578.9
219.1	575.0
229.3	580.3
230.7	574.3
120.5	491.1
99.5	465.9
93.9	461.4
90.4	456.5
80.0	463.8
77.2	535.5
103.4	568.0
242.9	605.4
248.9	599.5
240.5	594.6
234.9	599.2
227.9	603.0
230.0	593.9
228.6	587.6
221.2	590.8
213.5	589.0
214.6	581.3
209.3	585.5
204.8	580.6
200.6	575.4
191.9	575.0
187.7	581.3
196.4	582.7
200.3	587.6
191.5	590.4
199.2	595.3
193.3	598.8
206.9	592.2
215.3	596.7
223.3	598.5
220.2	606.1
210.4	604.1
201.6	602.0
195.7	607.2
203.4	610.0
212.5	610.3
218.8	615.9
217.4	622.6
210.4	622.9
208.6	616.6
201.6	618.7
196.1	615.9
191.5	622.6
186.6	617.0
189.1	609.6
188.4	602.3
185.9	596.4
177.2	595.7
171.9	589.4
169.5	580.6
172.3	575.0
179.3	581.0
181.7	588.7
163.5	602.0
162.8	593.2
169.1	596.4
172.6	604.1
180.0	602.3
181.4	610.3
172.3	611.0
177.9	618.0
170.9	618.0
199.9	624.7
204.1	630.6
211.4	628.5
221.2	629.6
194.3	629.6
183.1	622.9
185.2	630.6
175.4	624.7
176.5	632.4
167.4	626.4
160.4	619.1
153.4	612.1
163.9	611.7
155.8	605.8
148.5	598.1
147.1	606.1
144.3	612.8
137.3	618.4
160.0	579.6
157.2	587.6
156.2	597.1
148.5	590.4
151.3	582.7
147.4	576.8
138.7	576.4
128.6	575.4
120.5	568.0
120.5	574.3
111.8	577.5
119.8	581.3
121.6	588.0
127.2	583.1
134.9	582.7
133.1	588.3
126.5	592.9
140.8	591.8
143.2	582.7
133.8	596.0
141.2	600.9
137.3	609.3
131.7	604.7
125.1	600.2
124.4	607.5
129.6	613.8
124.4	619.8
130.7	622.9
139.1	626.8
145.3	620.1
153.0	620.5
148.5	625.7
153.0	629.6
160.0	627.5
131.0	631.0
123.3	627.1
114.6	627.8
114.6	632.7
106.5	619.8
101.6	614.5
96.7	620.5
95.0	613.8
88.3	620.5
96.4	627.5
106.5	627.8
114.2	620.1
119.5	614.9
110.0	614.9
114.2	608.6
118.4	602.7
109.7	604.7
104.4	608.2
97.1	606.8
90.4	606.5
93.2	600.2
85.2	612.8
100.2	600.6
97.4	592.2
88.7	591.8
85.2	598.1
82.7	606.1
80.7	594.3
80.3	586.2
77.9	579.9
86.2	583.4
91.5	577.1
95.3	583.4
104.4	583.8
104.8	592.2
112.1	584.1
110.7	596.7
118.1	593.9
164.9	586.2
78.6	493.4
116.0	431.5
127.9	420.0
125.1	431.2
135.9	437.8
77.2	368.9
121.9	395.2
125.4	402.1
140.1	467.5
120.2	427.7
125.8	424.5
110.4	419.6
104.1	367.9
113.2	385.4
107.9	502.2
124.0	503.6
126.5	510.2
408.4	346.0
391.6	452.4
399.3	456.2
403.2	458.3
278.3	470.9
277.6	476.5
499.0	467.5
500.8	462.3
541.0	465.2
