     x      y
108.5	122.5
108.5	128.5
124.0	113.0
124.5	121.0
140.5	111.5
163.5	106.5
240.5	113.5
243.5	121.5
244.7	128.7
245.8	100.4
251.5	122.5
252.0	129.5
257.3	118.3
259.0	126.0
262.5	103.5
265.5	122.5
267.0	129.0
270.5	116.5
273.0	124.0
275.5	111.0
280.0	126.5
287.0	124.0
289.5	106.0
290.5	117.0
294.5	124.0
295.5	102.0
299.0	130.5
301.5	99.5
302.0	106.0
303.0	124.5
308.0	101.5
307.5	119.0
311.0	107.0
311.0	127.0
316.5	121.0
318.5	107.5
319.0	127.5
324.0	102.0
325.3	121.3
326.5	109.0
328.5	128.0
332.3	102.3
333.3	122.3
336.0	129.0
340.3	103.0
340.5	123.5
343.0	110.0
344.5	130.0
349.5	104.0
349.0	124.0
351.3	111.3
357.0	126.0
362.5	102.5
362.5	122.0
369.7	102.3
369.5	124.0
373.0	111.0
373.5	130.0
375.0	118.0
377.5	124.5
378.0	105.0
380.3	111.3
382.5	119.0
385.5	126.0
386.7	105.7
391.5	120.5
393.5	127.0
396.5	114.5
399.5	102.0
399.3	121.3
402.0	108.5
402.0	128.5
407.0	123.5
410.2	111.7
413.0	118.0
421.5	120.0
423.7	130.3
429.5	125.0
430.3	118.3
436.5	120.5
437.7	105.3
437.5	128.0
445.0	125.0
458.5	120.0
458.5	127.0
465.5	117.0
465.5	125.0
472.3	129.3
473.0	113.5
473.0	121.5
478.5	118.0
479.0	110.0
480.0	125.0
486.0	128.5
486.0	112.0
505.5	129.0
527.7	128.7
534.5	123.0
535.0	100.5
535.5	130.0
542.5	101.5
550.7	102.7
550.0	129.5
558.3	116.7
559.0	103.0
562.0	124.0
563.3	110.7
566.3	103.7
566.0	116.5
573.7	103.3
578.3	99.7
578.5	128.5
579.5	121.0
580.5	105.5
581.0	113.5
586.3	102.3
586.5	110.0
586.3	124.3
594.5	103.0
594.5	111.5
595.0	125.0
596.0	118.5
599.8	100.4
601.5	106.0
602.5	114.0
602.7	121.7
602.5	129.0
607.3	102.6
609.7	125.7
616.5	129.0
627.0	124.5
636.7	125.7
639.6	119.8
85.5	153.5
85.0	202.5
85.0	225.5
85.6	236.2
86.5	181.0
88.3	175.3
89.3	196.7
90.0	230.0
91.5	210.5
92.5	158.0
92.5	203.5
93.5	235.5
94.5	192.0
95.5	141.0
95.6	171.2
95.0	179.0
96.3	198.3
96.0	215.0
98.0	229.5
99.3	152.3
99.5	163.0
100.5	145.0
100.0	184.0
100.5	221.0
100.5	237.0
101.0	192.5
102.7	136.3
102.5	169.0
103.5	178.5
103.5	213.5
104.5	226.0
105.0	158.0
106.0	200.5
106.0	232.5
107.3	186.3
108.5	143.5
108.0	151.5
108.3	164.7
108.0	207.5
108.0	220.5
108.5	239.0
110.5	137.0
110.5	180.0
110.3	194.3
111.7	227.7
112.0	173.0
112.0	214.0
113.0	201.5
114.0	234.0
115.3	148.7
115.7	159.3
115.5	221.5
116.5	188.0
116.5	208.5
117.5	167.5
117.7	195.7
117.5	241.0
118.0	133.5
119.0	142.0
119.3	228.7
120.0	175.0
120.3	215.7
121.5	202.5
122.5	153.5
122.0	182.5
122.0	235.5
123.5	162.0
123.7	222.7
124.5	169.0
124.0	189.5
125.5	210.0
127.0	197.0
126.7	229.3
127.7	138.7
128.5	146.5
128.5	177.0
129.5	184.0
129.0	217.5
130.0	236.5
130.5	203.0
131.0	155.5
131.5	163.0
132.4	190.9
132.0	223.5
134.5	170.5
134.0	211.5
135.5	141.5
135.3	230.7
136.0	132.5
136.5	149.0
136.7	179.7
136.3	198.3
136.7	217.7
138.3	157.7
138.5	186.0
138.5	206.0
138.5	237.5
139.5	224.5
140.7	165.3
141.5	213.0
142.0	193.0
143.5	137.0
143.0	173.0
143.3	231.3
144.5	145.0
145.0	152.3
145.0	180.0
145.0	200.5
144.0	219.5
147.0	208.0
146.0	238.0
147.5	188.0
148.0	214.0
149.0	226.0
149.5	160.0
149.0	167.5
149.5	232.5
150.5	195.5
151.0	131.5
151.0	139.5
151.0	175.0
151.5	220.0
152.0	147.0
153.0	182.5
153.5	203.0
154.0	155.0
155.0	209.5
154.0	236.5
156.5	162.0
157.0	169.5
158.7	134.7
158.7	190.3
158.0	198.5
158.0	215.5
158.0	223.5
158.5	230.5
159.8	142.6
159.5	177.0
160.5	151.5
160.0	184.0
160.5	237.0
161.0	206.0
162.5	158.5
163.5	212.0
164.5	219.5
164.7	226.7
165.3	165.3
165.5	172.5
165.5	194.5
165.7	201.3
165.5	234.0
165.7	241.7
166.5	138.0
166.5	180.0
166.5	187.0
168.3	145.7
169.5	154.0
171.5	207.5
171.0	214.5
171.3	222.3
172.7	160.3
172.5	168.0
172.5	198.5
172.0	229.5
172.5	237.0
173.0	133.0
173.0	190.5
174.0	141.5
174.7	176.3
174.5	183.0
175.7	151.7
178.0	210.0
178.0	218.0
178.5	225.0
179.5	165.0
179.3	202.7
179.0	232.0
179.0	239.5
180.3	157.7
180.5	173.0
180.7	195.7
181.7	137.3
181.5	144.0
181.3	180.3
181.3	187.7
183.5	151.0
184.5	214.0
185.0	221.0
185.0	228.0
187.0	199.5
186.0	206.0
186.5	236.0
188.0	162.3
188.5	132.0
188.5	170.0
188.3	177.3
188.0	183.5
188.0	192.0
189.0	139.5
189.5	147.5
189.5	155.0
192.0	224.0
192.5	210.0
192.5	217.5
192.5	231.5
192.7	238.7
193.5	203.0
194.5	189.0
194.0	195.5
195.7	151.3
195.3	158.7
195.5	166.5
195.5	174.0
195.3	181.3
196.0	135.5
197.0	144.0
199.5	235.0
200.5	192.0
200.5	221.0
200.0	228.0
203.0	185.4
201.0	200.0
201.0	206.5
201.0	213.5
202.5	171.0
202.5	178.0
203.3	131.7
203.5	139.5
203.5	148.0
203.0	155.0
203.3	163.7
206.0	232.0
206.0	238.5
207.0	204.0
207.0	211.0
207.5	218.0
207.5	225.0
208.5	175.0
208.7	189.3
208.5	196.5
209.5	167.0
209.0	181.5
210.5	144.5
210.0	152.0
210.0	159.0
211.5	136.0
212.0	235.0
212.5	241.0
213.5	208.0
214.5	200.5
214.7	222.3
214.7	229.3
215.3	178.3
215.0	186.0
215.0	193.5
215.0	216.0
216.3	148.3
216.5	156.0
216.0	163.0
216.5	170.5
217.5	140.5
219.0	133.5
218.0	236.0
220.5	211.5
221.5	166.0
221.7	182.3
221.5	190.0
221.7	197.3
221.5	204.5
221.5	219.0
221.5	227.0
222.5	153.0
222.5	175.0
224.0	233.5
223.5	241.0
224.0	145.5
224.5	160.0
226.5	138.0
227.0	131.0
228.5	179.5
228.7	194.3
228.0	201.5
228.5	208.5
228.5	223.0
228.0	229.0
229.3	172.0
229.0	187.0
229.5	216.0
230.0	151.0
230.0	241.0
231.5	143.5
231.5	164.5
233.5	135.5
233.5	156.0
233.0	234.0
234.7	212.3
234.5	227.0
235.5	177.0
235.0	191.5
235.3	198.3
235.5	205.0
235.0	219.5
236.0	185.0
237.5	149.5
237.5	170.0
237.0	239.5
239.5	162.0
239.5	208.5
239.5	232.0
240.0	133.5
240.7	141.3
241.0	181.0
241.3	194.7
241.5	202.0
242.0	155.5
242.0	214.5
242.5	226.0
243.0	174.5
243.0	187.0
244.0	237.5
245.0	148.0
245.3	167.7
246.3	135.7
246.0	209.0
246.0	220.5
248.0	161.5
247.5	180.0
247.5	191.0
247.0	231.0
248.5	197.5
249.5	142.5
249.3	203.7
250.3	155.7
250.0	214.0
250.5	225.0
251.0	174.0
251.5	186.0
251.0	237.0
253.5	136.0
253.5	148.0
253.3	167.7
253.5	208.0
253.5	219.0
254.5	231.0
255.7	160.7
255.0	179.5
255.5	192.0
256.0	202.0
257.5	142.5
257.0	213.5
258.0	153.0
258.5	173.0
258.0	224.5
258.0	237.0
259.5	185.0
260.3	133.7
261.0	166.5
260.5	197.0
260.5	208.0
261.5	148.0
261.0	219.0
262.5	230.0
263.0	179.0
263.0	241.0
264.8	191.8
264.5	201.5
265.0	141.0
265.0	160.5
265.0	213.0
265.5	224.0
266.0	172.5
266.0	235.5
267.5	153.0
267.3	184.3
268.7	196.3
268.0	208.0
269.0	135.5
269.0	218.0
270.5	146.5
270.5	166.0
270.5	230.5
271.0	178.0
271.5	190.0
272.5	159.0
272.3	201.3
274.0	139.5
274.0	172.0
273.0	212.5
273.0	223.0
273.0	237.0
275.5	132.5
275.5	152.0
275.0	183.5
275.7	206.7
276.5	195.0
276.7	227.3
277.0	217.5
277.3	232.7
278.5	165.0
278.5	177.5
279.5	146.0
279.0	189.0
279.0	201.0
279.5	237.5
280.5	223.0
281.5	158.5
281.5	212.0
283.0	139.0
282.0	171.0
282.5	183.0
283.5	195.5
283.0	206.0
284.0	151.5
284.0	230.5
285.0	132.0
285.5	218.0
286.3	164.3
286.5	177.5
286.0	189.0
286.0	237.0
287.5	145.0
287.0	201.0
287.0	225.0
288.5	156.5
289.5	171.0
289.5	207.0
290.0	213.5
290.0	184.0
290.5	230.0
290.0	241.5
291.0	139.0
291.3	195.7
292.3	131.7
292.0	149.5
292.0	219.5
292.0	236.0
293.5	166.0
294.5	177.0
294.3	189.7
294.7	201.7
295.5	144.0
295.7	154.7
295.0	225.5
296.5	160.0
296.0	208.5
296.0	239.5
297.5	137.0
297.5	183.0
298.0	215.0
297.0	232.5
298.5	172.0
299.7	149.3
299.7	195.7
299.5	221.0
301.5	165.0
301.0	188.0
302.0	202.8
301.0	237.0
302.7	226.7
303.0	178.0
303.3	209.3
304.3	142.7
304.0	158.0
305.0	216.5
305.5	233.0
306.5	134.0
306.5	172.0
306.5	184.0
306.5	192.0
306.5	198.0
307.0	222.5
307.0	240.0
308.5	151.0
308.7	204.7
309.5	228.5
310.0	165.0
310.5	212.0
311.0	139.0
311.0	177.0
311.7	188.7
311.0	235.0
312.7	158.3
312.5	217.5
313.0	145.0
313.0	194.5
313.5	224.0
313.0	241.0
314.5	171.0
314.5	201.0
315.3	133.3
315.5	183.0
315.5	231.0
316.0	207.5
317.5	152.0
317.0	236.5
318.3	139.3
318.0	165.0
318.0	214.0
319.0	177.0
319.0	189.5
319.5	220.0
320.0	196.5
320.8	226.6
321.3	158.3
321.5	203.0
322.0	146.0
322.3	171.7
322.0	232.5
323.3	209.3
324.0	238.5
324.0	133.0
324.5	184.5
325.0	152.5
325.0	165.0
325.7	191.3
325.0	216.0
326.0	140.0
326.3	222.3
327.0	177.0
327.0	198.5
328.7	204.7
328.0	229.0
329.3	146.3
329.0	159.0
329.5	170.5
329.3	234.3
330.0	211.5
331.0	134.5
331.5	182.0
331.5	187.0
331.5	218.0
331.0	240.0
332.5	152.0
332.7	193.7
333.5	164.0
333.5	224.5
334.0	141.0
334.7	176.3
334.5	200.5
336.0	158.0
335.5	207.0
335.0	231.0
337.0	214.0
336.8	236.6
337.0	147.0
338.0	170.0
338.0	220.0
339.0	136.0
339.5	152.5
339.0	183.0
339.0	190.0
340.5	227.0
341.7	175.7
341.0	196.5
341.0	203.5
342.5	142.0
342.0	164.0
342.5	233.0
343.0	210.0
343.5	239.0
344.5	149.0
344.5	157.0
344.0	186.5
344.0	216.5
346.0	170.0
346.0	181.0
346.5	192.0
346.5	223.0
347.7	137.3
347.5	199.0
348.7	205.7
348.0	229.5
348.5	236.0
349.5	175.0
349.5	212.5
350.0	144.0
350.0	163.5
351.0	218.5
352.0	151.0
352.5	225.0
352.7	180.7
353.3	131.3
353.0	194.5
354.5	158.0
354.5	170.5
354.5	201.0
354.0	231.5
355.0	138.5
355.0	208.0
355.0	238.0
356.5	214.5
358.0	176.5
358.0	145.0
358.3	164.7
358.0	221.5
359.0	183.0
359.5	190.5
359.5	227.5
360.0	152.5
360.0	197.0
360.5	204.0
361.7	171.3
361.5	210.5
361.5	233.5
362.0	130.5
362.0	139.5
362.5	158.5
362.0	217.0
362.0	240.0
364.0	223.0
365.0	146.5
365.0	179.5
365.5	187.0
365.7	193.7
366.5	166.0
366.5	200.0
366.5	206.0
367.5	133.5
367.0	154.0
367.7	212.7
367.0	229.0
368.3	172.3
368.0	219.0
368.0	236.0
370.0	160.0
371.0	142.5
372.5	149.0
372.0	178.0
372.5	184.0
372.0	190.0
372.0	196.0
372.5	202.0
372.0	224.5
373.0	166.5
373.0	216.5
374.0	209.5
374.0	232.0
374.0	238.5
375.7	137.3
375.0	155.5
376.5	173.0
377.5	227.5
378.0	144.0
378.0	161.5
378.5	192.0
378.5	198.5
378.5	204.0
378.0	221.0
379.0	180.0
379.3	186.3
380.2	236.4
380.5	150.5
380.5	168.5
381.5	132.0
381.0	215.0
381.5	231.0
382.7	208.7
383.5	139.0
383.0	157.0
383.0	224.5
384.5	176.0
384.5	196.0
384.5	202.0
385.5	145.5
385.5	189.5
385.7	218.7
386.0	163.0
386.0	183.0
386.5	240.0
387.5	234.5
388.0	152.0
388.0	213.0
388.5	223.0
388.0	229.0
389.0	133.5
389.5	170.0
389.5	207.0
390.7	159.3
391.5	140.0
391.3	193.3
391.0	200.5
392.5	147.0
392.0	186.5
393.5	180.0
394.0	218.3
393.5	238.0
394.5	225.0
394.0	232.0
395.0	153.5
395.0	166.0
395.0	173.5
395.0	211.0
396.5	133.0
396.3	204.3
397.7	197.3
398.0	141.5
398.5	160.0
399.2	184.6
398.5	191.0
399.5	148.0
399.7	228.7
399.0	235.0
399.5	241.0
400.5	178.0
400.5	222.0
401.5	215.0
402.7	154.7
402.0	171.0
402.5	202.0
402.0	208.5
403.0	136.5
405.0	165.0
405.5	189.0
405.0	195.5
405.5	233.0
405.0	239.0
406.0	219.5
406.0	226.5
407.0	143.0
407.0	159.0
407.0	182.5
407.3	212.7
408.0	176.0
409.0	131.0
409.3	151.7
409.5	200.0
409.0	206.0
410.5	170.0
411.5	187.5
411.7	193.7
412.5	138.5
412.3	163.3
412.7	217.3
412.0	224.5
412.0	231.5
412.0	237.5
413.0	146.0
413.5	211.0
414.5	157.0
414.7	204.3
415.5	175.0
415.0	181.5
416.0	131.5
416.3	198.3
416.7	241.7
417.0	151.0
417.5	222.0
418.7	169.3
418.0	187.5
418.0	235.5
419.0	144.0
419.5	193.0
419.0	215.5
420.3	137.3
420.5	163.0
420.0	228.5
421.4	179.2
421.5	203.0
421.0	209.5
422.8	156.6
423.5	220.5
424.5	173.0
424.0	191.0
424.0	197.5
424.5	233.0
424.0	240.0
425.0	150.0
426.5	142.5
426.5	167.5
426.7	184.7
426.0	214.5
426.6	227.2
427.5	136.0
427.7	208.3
428.5	161.0
429.7	154.7
429.3	178.7
429.5	202.0
430.0	195.5
430.0	238.5
431.0	189.0
431.0	219.5
431.7	231.7
432.0	131.0
432.0	148.0
432.0	172.5
433.7	141.3
433.5	166.0
433.0	213.5
434.5	184.5
434.0	207.0
434.0	224.5
435.0	159.0
435.3	199.7
437.5	153.0
437.0	178.0
437.0	192.0
437.0	235.0
438.0	135.5
438.0	219.0
438.0	229.0
440.0	147.0
440.5	165.0
440.0	172.0
440.0	212.5
441.5	184.5
441.0	205.5
441.5	239.0
442.7	158.3
442.0	224.0
443.0	140.5
443.5	198.0
444.5	133.5
444.0	177.5
444.0	191.0
444.0	231.5
445.7	152.3
445.5	218.0
446.0	210.0
447.0	169.5
448.5	145.0
448.5	188.5
448.0	203.5
448.5	225.0
449.0	182.0
449.0	237.0
450.6	138.2
450.0	158.0
450.5	196.0
450.3	232.3
451.5	130.5
451.6	175.8
451.0	214.5
452.3	220.3
453.0	151.0
453.5	209.5
454.5	169.5
454.7	202.3
455.0	143.5
455.7	162.7
455.0	187.5
455.0	226.0
455.5	238.0
457.7	135.7
457.0	181.0
457.0	195.5
457.0	232.0
458.0	215.5
459.0	155.5
459.3	174.3
459.5	208.0
460.0	149.0
460.0	221.5
461.5	168.0
461.0	191.0
461.0	202.0
462.5	185.0
462.0	228.0
463.3	140.3
463.0	212.0
463.0	235.5
463.3	161.7
464.5	218.0
465.0	133.5
465.0	179.0
465.0	196.0
466.3	151.7
466.5	173.0
466.5	207.0
466.5	223.5
467.5	190.0
467.7	230.7
468.3	201.3
469.5	158.0
470.0	165.8
469.5	213.0
470.0	184.0
470.0	237.0
471.3	195.3
471.5	219.0
472.3	137.7
472.0	145.5
472.5	178.0
472.5	226.0
473.0	207.0
474.7	152.7
474.0	172.5
474.0	189.0
474.5	202.0
474.7	231.7
476.0	160.5
476.3	212.3
477.0	184.0
477.7	194.7
477.7	237.3
478.7	132.7
478.5	225.0
479.3	140.3
479.5	168.0
479.0	218.5
480.5	148.0
481.5	155.5
481.0	176.5
481.5	189.0
481.0	200.5
481.5	207.0
482.0	232.0
484.5	183.0
484.0	213.5
485.5	163.0
485.0	195.5
485.7	220.7
485.0	238.5
486.5	135.5
486.7	169.7
486.5	227.5
487.0	144.0
488.5	151.0
488.7	177.3
488.5	202.0
488.5	234.0
489.0	190.0
489.5	208.5
491.0	158.0
491.5	216.0
492.5	132.5
492.0	184.5
492.5	197.0
492.7	222.7
493.7	138.7
493.5	165.0
494.0	172.0
493.5	230.0
493.0	238.0
494.5	146.0
495.0	204.0
496.0	153.0
496.0	178.5
496.5	191.5
497.0	210.5
498.0	160.0
498.5	185.5
499.5	134.0
499.0	198.0
499.0	218.5
499.0	226.5
499.0	234.0
500.0	240.0
501.7	141.7
501.5	167.0
501.5	174.5
502.3	148.3
503.0	204.0
504.3	155.3
504.5	181.0
504.7	194.3
504.5	211.0
505.0	188.0
505.5	217.0
505.3	223.7
505.0	230.0
505.5	237.0
507.5	136.5
507.5	162.5
509.5	150.5
509.0	169.5
509.5	199.5
510.0	177.0
510.0	206.5
511.7	130.7
511.7	143.3
511.0	184.5
511.0	191.5
511.0	213.5
511.5	233.5
512.0	220.0
512.0	227.0
512.0	240.0
513.0	156.5
514.5	165.5
515.3	137.3
515.5	203.5
516.5	149.0
516.0	172.0
516.5	210.0
517.0	180.0
517.5	188.5
517.3	196.3
517.5	217.0
517.7	237.3
518.0	224.0
518.5	231.0
519.0	143.0
520.0	154.0
520.7	160.7
521.0	241.5
522.5	168.0
523.0	135.5
523.5	175.0
523.5	194.0
523.0	200.0
523.0	207.0
523.5	220.0
524.7	148.3
524.0	182.0
524.0	213.0
524.3	227.3
524.5	235.0
525.5	188.0
526.0	141.5
526.5	155.5
528.0	162.5
530.0	170.5
530.7	177.7
530.5	198.5
530.7	217.3
530.0	224.0
531.0	135.5
531.5	185.0
531.0	205.0
531.0	211.0
531.0	231.0
532.3	143.3
532.3	191.3
532.5	237.0
533.5	151.0
535.0	159.0
536.0	166.0
536.5	173.5
536.7	226.7
537.5	137.5
537.7	208.3
538.0	181.5
538.5	188.0
538.0	202.0
538.0	218.5
538.5	234.5
539.0	195.0
540.5	146.5
541.3	153.7
542.0	162.5
542.0	230.0
543.3	169.3
544.0	212.0
543.0	224.0
544.7	133.7
544.7	177.3
545.0	198.5
544.5	205.5
545.0	184.5
545.5	218.0
545.7	235.7
546.6	141.2
546.0	191.5
547.0	149.0
548.0	158.5
548.5	229.0
549.5	165.0
551.0	209.0
551.3	172.3
551.0	222.5
552.0	180.5
552.5	188.0
552.0	202.0
552.0	215.5
553.3	136.3
553.0	144.5
553.0	195.0
553.0	236.0
555.0	153.5
555.5	161.0
555.7	227.7
557.0	168.5
557.5	206.0
558.3	176.7
559.0	221.0
559.5	132.0
559.3	184.7
559.0	213.0
559.0	234.5
559.3	241.3
560.0	140.5
560.5	193.0
560.5	200.0
561.0	149.5
562.0	156.5
563.0	164.5
563.0	228.0
564.0	172.5
564.3	208.3
566.5	137.0
566.5	144.0
566.0	180.5
566.5	188.0
566.3	215.7
566.0	236.0
567.5	196.0
567.5	222.5
568.5	152.5
569.5	160.0
569.0	203.0
570.3	167.3
570.5	230.0
572.0	176.5
572.0	210.5
573.0	133.5
573.0	183.0
573.0	218.0
574.0	140.0
574.0	192.5
574.0	237.0
575.5	199.0
575.5	225.0
576.5	149.0
576.0	164.0
577.5	157.0
577.0	206.5
578.3	231.3
579.5	171.0
579.5	179.0
579.3	187.3
579.0	213.0
580.0	136.5
580.0	219.5
580.0	239.0
581.5	194.0
582.0	143.5
582.0	163.5
582.5	201.5
583.0	224.5
584.0	151.5
584.5	208.5
585.5	132.0
585.0	183.0
585.5	231.0
586.0	175.5
586.7	189.7
586.5	238.0
587.5	139.0
587.0	217.5
588.0	158.5
588.3	167.0
588.5	196.5
589.0	146.5
589.5	224.5
590.5	204.5
592.0	184.0
592.0	212.0
593.3	133.3
593.5	154.0
593.7	191.7
593.0	230.5
593.7	237.7
594.7	141.7
594.5	161.5
594.5	219.0
595.6	170.2
596.0	149.0
596.5	178.0
596.0	199.0
597.7	207.3
597.0	226.0
599.7	232.3
600.5	137.0
600.3	145.3
600.3	188.3
600.3	214.3
601.7	158.7
601.5	195.0
601.0	239.5
602.0	152.0
602.0	166.0
602.0	174.0
602.5	222.0
604.7	180.7
604.0	201.5
605.0	228.0
605.5	141.0
606.5	134.0
606.5	209.0
606.5	235.0
608.3	147.3
608.0	169.5
608.0	189.5
609.0	155.0
609.5	216.5
610.5	176.5
610.0	197.5
610.5	224.0
612.7	163.3
612.7	184.3
612.7	203.7
613.0	141.0
613.0	230.5
614.5	238.0
615.3	170.3
615.7	192.3
615.5	211.0
616.3	150.3
618.0	158.0
617.5	218.5
618.0	178.5
618.0	199.5
619.2	225.6
619.0	137.0
621.0	165.0
621.0	186.5
621.7	206.3
621.0	233.5
621.5	241.0
622.0	144.0
624.0	131.0
625.0	151.5
624.7	171.7
624.3	194.3
625.0	213.5
625.5	221.5
627.0	138.0
627.3	179.3
627.3	201.7
627.7	229.7
628.0	158.5
628.5	237.0
630.5	166.0
630.3	188.3
630.0	209.5
631.0	145.0
632.0	132.5
632.7	153.7
632.0	174.0
632.5	196.0
633.0	224.5
634.0	204.0
634.5	232.5
635.3	160.3
635.5	180.5
635.3	239.3
636.0	139.0
636.5	148.5
638.0	169.0
638.3	189.3
640.5	146.5
640.3	155.3
640.7	196.7
640.0	211.5
641.5	132.5
641.0	175.5
641.3	220.3
641.3	227.3
85.5	244.0
86.0	255.0
86.0	346.0
88.5	274.5
89.2	287.4
88.5	311.5
89.5	261.5
89.3	281.3
89.5	319.0
90.3	249.3
90.0	295.5
91.0	339.5
92.5	269.0
93.5	242.0
93.7	255.3
93.5	326.0
93.5	347.0
95.5	277.0
95.0	299.5
95.5	306.5
95.5	334.5
96.5	293.0
96.5	314.0
97.0	262.5
97.7	284.7
98.0	250.0
98.3	321.3
99.7	341.3
100.5	270.5
100.3	328.3
100.0	349.5
102.7	244.3
102.0	256.5
102.0	289.5
102.5	303.0
102.5	309.0
102.0	335.0
103.0	278.0
103.0	316.0
104.0	295.5
104.5	323.0
105.0	264.0
106.5	251.0
106.0	284.0
106.7	345.7
107.0	339.0
108.3	271.3
108.0	301.0
108.0	331.5
109.3	290.3
110.0	313.0
110.0	257.0
110.0	306.5
110.7	319.3
110.5	326.0
111.7	245.3
111.0	278.5
112.0	296.5
113.7	344.3
113.7	351.3
114.0	265.5
114.3	284.3
114.5	337.0
115.5	252.5
116.5	272.0
116.5	303.0
116.5	310.0
117.2	316.6
116.5	330.0
117.5	259.0
118.0	290.5
117.5	323.0
119.0	279.0
120.5	297.0
120.5	348.0
121.5	247.0
121.5	266.0
121.5	340.5
123.3	254.3
123.0	285.0
123.5	308.0
123.5	320.5
123.7	334.3
124.5	273.5
124.5	302.0
124.7	314.3
124.0	327.5
125.3	260.7
126.0	242.0
126.0	291.5
127.0	345.0
127.0	352.0
128.0	249.0
128.0	280.0
129.3	297.7
129.0	338.5
130.0	267.5
130.5	287.0
130.5	325.0
130.0	331.5
131.3	255.3
131.0	305.0
131.5	311.0
131.5	318.5
133.7	242.7
133.0	275.0
133.5	293.0
133.5	346.5
134.0	261.5
134.7	341.7
135.5	281.5
135.5	336.0
136.0	249.5
136.5	329.0
137.5	269.0
137.5	300.0
138.0	307.5
138.7	315.3
138.0	322.0
139.3	256.3
140.3	275.7
140.0	289.0
140.0	351.5
141.5	244.0
141.5	344.5
142.0	263.0
142.5	295.0
142.3	336.3
145.0	313.2
144.7	250.7
144.0	283.0
144.5	320.0
144.0	327.5
145.5	301.0
146.0	270.5
146.0	307.0
147.0	257.5
147.5	277.0
147.0	289.5
147.0	349.5
148.3	345.3
149.0	245.0
149.0	296.0
149.3	331.7
149.7	338.7
150.0	264.5
151.5	302.5
151.5	317.5
151.0	325.0
152.7	272.3
152.5	284.5
153.5	252.0
153.5	291.0
153.7	310.3
154.5	349.0
155.5	343.0
156.5	242.5
156.7	259.3
156.0	279.0
156.0	297.0
156.5	329.5
156.0	336.0
157.5	267.0
158.0	323.0
159.7	285.7
159.0	303.5
159.0	316.0
160.0	247.5
161.0	253.0
161.5	274.0
161.5	292.0
161.7	309.7
161.5	341.0
161.0	348.0
162.7	334.3
163.3	260.7
163.5	298.0
163.7	327.7
164.3	280.3
164.5	321.0
166.5	268.0
166.5	286.5
166.5	304.0
166.0	315.0
167.0	248.5
167.3	345.7
168.5	293.0
168.5	339.0
169.0	256.0
169.7	275.7
169.3	309.7
170.5	263.0
170.8	298.4
170.0	326.5
171.5	282.5
172.0	320.0
172.0	332.5
173.0	244.0
173.5	251.0
173.0	269.5
173.0	303.5
173.5	344.0
173.0	351.5
175.0	288.8
174.0	314.5
175.5	258.0
175.5	295.0
176.5	277.5
176.3	328.7
176.5	338.0
177.7	301.3
177.5	308.0
178.0	265.0
178.5	349.0
179.5	272.0
179.0	284.0
179.4	321.8
179.5	332.0
180.3	246.3
181.5	253.0
181.0	343.0
182.7	290.3
182.0	297.5
182.0	314.5
183.0	260.5
183.5	279.0
183.5	304.0
184.0	326.5
183.5	337.5
185.0	267.0
185.5	350.5
186.5	242.5
186.8	273.6
186.5	285.0
186.0	309.0
186.3	319.3
187.5	249.0
187.3	330.3
187.5	343.0
188.3	255.3
188.3	295.7
189.5	301.0
189.5	314.0
189.3	335.7
190.0	262.5
190.5	290.0
190.0	324.0
191.5	280.0
192.7	268.7
192.3	306.7
192.5	348.0
193.5	245.0
194.5	251.5
194.5	258.0
194.5	285.5
194.0	319.0
194.0	330.5
194.7	341.3
195.5	274.5
195.0	297.0
197.3	263.3
197.5	302.5
197.0	313.5
197.0	324.5
198.0	280.5
198.0	291.0
198.7	335.7
198.5	352.0
199.5	242.0
199.5	269.5
199.0	308.0
200.0	248.5
202.0	329.0
201.5	256.0
201.5	318.5
201.0	346.5
202.5	275.0
202.5	286.0
202.0	298.0
203.0	341.0
204.0	263.5
204.7	304.3
204.0	312.5
204.7	323.7
205.5	280.0
205.5	292.0
205.3	334.7
205.7	351.7
206.5	245.0
207.0	251.0
207.3	258.3
207.0	269.0
207.5	345.5
209.5	286.5
209.0	298.5
209.5	317.5
209.6	329.8
209.0	339.0
210.0	264.0
210.0	275.0
210.5	311.0
211.0	324.5
212.5	304.5
213.5	247.0
213.8	253.6
213.0	259.5
213.3	292.3
213.3	342.3
213.0	349.0
214.5	270.0
214.0	281.0
214.0	335.5
216.0	298.5
216.7	316.3
216.5	322.5
216.5	329.0
217.0	264.0
217.7	275.3
217.0	286.5
217.5	310.0
219.7	244.3
219.7	250.7
219.0	347.0
220.0	258.0
220.5	281.0
220.0	292.0
220.5	305.0
220.7	340.3
221.5	269.0
221.5	334.0
222.3	298.3
224.2	321.4
223.5	327.5
224.0	286.5
224.0	315.5
224.3	351.7
225.7	254.3
225.0	263.0
225.0	274.5
225.3	309.7
225.5	345.0
226.5	247.5
226.3	280.7
226.5	293.0
226.5	338.0
227.0	304.0
228.5	332.0
229.0	298.5
230.3	268.7
230.5	313.0
230.5	326.0
230.0	349.5
231.0	260.0
231.5	275.5
231.5	289.0
231.3	307.7
231.5	320.0
231.5	343.0
232.3	252.3
232.0	282.5
233.0	295.0
233.0	302.0
233.5	336.5
234.0	246.0
234.5	330.0
235.5	352.0
237.5	258.0
237.0	265.0
237.0	272.0
237.5	279.5
237.7	285.3
237.5	318.0
237.0	324.0
237.0	346.5
238.5	292.0
238.0	299.0
238.5	305.0
238.0	312.0
238.0	340.5
239.5	251.0
239.7	334.3
241.5	245.0
241.7	351.3
242.5	269.0
242.0	328.5
243.0	262.0
243.0	276.0
243.5	296.0
243.5	302.5
243.5	309.0
243.5	315.0
243.7	345.3
244.5	255.5
244.0	282.0
244.5	289.0
244.7	322.7
245.5	340.0
246.5	334.0
247.0	249.0
247.5	294.0
248.5	266.0
248.5	272.5
248.7	328.3
248.0	350.0
249.0	243.0
249.0	278.5
249.0	300.0
249.0	306.0
249.0	311.5
249.5	345.0
250.5	260.0
250.0	285.0
250.0	317.5
250.5	323.0
251.5	339.0
252.5	254.0
252.0	290.0
253.5	248.5
253.5	270.0
253.0	333.0
254.5	242.0
254.0	275.0
254.0	296.0
254.5	309.0
254.3	349.7
255.0	302.0
255.0	314.5
255.5	327.0
256.7	264.3
256.0	280.0
256.5	321.0
257.5	258.0
257.5	286.0
257.0	344.0
258.0	338.0
259.0	246.5
259.5	252.0
259.0	292.5
260.3	275.7
260.0	298.0
260.5	305.0
260.5	311.0
260.0	332.0
260.5	349.0
261.5	317.0
262.5	322.0
262.0	327.0
263.0	282.0
263.3	337.3
263.0	343.5
265.0	258.5
264.0	265.0
264.0	289.0
265.5	247.0
265.5	301.0
266.0	295.0
266.5	307.5
267.0	313.8
266.5	348.0
267.7	252.7
267.5	277.5
267.0	319.0
267.5	331.0
267.5	341.5
268.0	325.0
269.5	242.0
269.7	284.7
269.3	336.7
270.5	268.0
271.0	291.0
271.0	297.5
271.5	303.5
272.4	351.6
272.0	248.0
272.0	257.0
272.5	310.0
273.0	274.0
273.0	316.0
273.0	322.0
273.5	328.0
273.5	346.0
274.5	280.0
274.0	334.0
274.0	340.0
275.5	242.0
275.5	252.5
275.0	263.0
276.5	287.0
276.7	306.3
277.0	293.0
277.0	300.0
278.5	247.0
278.5	258.0
278.0	269.5
278.0	319.0
279.5	282.5
279.0	313.0
279.0	324.5
279.0	330.5
279.5	337.0
279.0	349.0
280.0	276.0
280.5	343.0
281.0	264.0
282.5	243.0
282.0	252.5
282.0	304.5
283.5	293.0
283.0	300.0
284.0	270.5
284.0	287.0
284.5	316.0
284.0	321.5
285.3	258.7
285.0	280.5
285.0	309.5
285.0	327.5
285.0	334.0
285.5	338.5
286.8	247.3
286.0	348.0
287.5	265.0
287.0	303.0
288.0	276.0
288.0	297.0
289.0	253.0
289.5	291.0
289.8	313.4
289.5	331.5
290.0	270.0
290.5	285.5
290.0	319.0
290.0	325.0
290.5	343.0
291.0	307.5
291.0	337.5
291.3	349.3
292.0	259.0
292.0	280.0
293.3	249.7
294.2	264.3
293.0	301.5
294.0	275.0
294.5	296.0
295.0	245.0
295.5	290.0
295.7	322.7
295.0	334.5
296.7	254.3
296.5	269.0
296.3	284.3
296.0	311.0
296.3	317.3
296.5	328.5
296.5	340.0
296.5	351.5
297.0	346.0
298.0	306.0
299.0	260.0
299.0	278.5
299.0	300.0
300.5	249.5
300.5	294.0
301.0	273.0
301.5	320.5
301.0	331.5
302.0	243.5
302.7	266.3
302.0	288.0
302.0	314.5
302.5	326.0
302.5	337.0
302.0	343.0
302.7	348.7
303.7	253.7
303.5	282.5
303.0	309.5
304.7	259.3
304.0	304.0
305.5	277.0
305.0	298.5
306.0	335.0
306.0	292.0
307.7	247.7
307.5	271.0
307.7	323.3
307.5	330.0
308.5	263.5
308.0	286.0
308.0	312.5
308.7	318.3
308.0	340.0
308.3	351.7
309.0	308.0
309.0	346.0
310.0	256.5
310.8	280.4
310.0	302.5
311.0	296.5
312.0	275.0
312.7	290.7
313.5	251.5
313.5	310.0
313.5	315.0
313.0	326.5
313.0	332.0
314.0	245.5
314.7	262.3
314.0	269.0
314.0	321.5
314.0	337.0
314.0	342.5
314.0	349.0
315.0	284.5
315.7	300.7
315.0	306.0
316.5	257.0
317.5	279.0
317.0	295.0
318.6	329.2
319.0	242.5
319.5	273.0
319.5	289.0
319.0	311.5
319.0	318.0
319.0	324.0
319.3	334.3
319.5	340.0
319.3	345.7
320.5	248.0
320.3	305.7
320.0	351.5
321.5	254.0
321.5	267.0
321.5	283.0
321.5	300.0
323.5	260.5
323.5	294.0
324.5	277.5
324.0	315.0
324.5	321.0
324.5	337.0
325.5	244.0
325.3	309.3
325.0	326.0
325.3	331.7
325.0	343.0
325.0	349.0
326.0	271.5
326.0	288.0
326.5	304.0
327.0	250.0
327.3	298.7
328.5	256.0
328.0	266.0
329.5	283.0
329.0	293.0
329.0	318.5
330.0	314.0
330.0	323.5
330.5	340.0
330.5	346.0
330.5	352.0
331.7	246.3
331.0	261.0
331.0	276.5
331.0	328.5
331.5	334.0
332.0	288.0
332.5	302.5
332.0	308.5
333.3	270.7
333.0	297.0
334.0	253.5
335.7	264.7
335.7	281.3
335.3	318.3
336.0	258.5
336.7	312.7
336.0	325.0
336.0	343.5
336.0	349.5
337.0	242.5
337.7	286.7
337.0	293.0
337.5	306.0
337.0	331.5
337.3	337.3
338.0	249.0
338.3	270.3
338.0	300.0
339.0	276.0
340.5	254.0
341.5	321.5
341.5	327.5
341.0	346.5
341.5	352.0
342.5	243.0
342.3	260.3
342.0	284.0
342.0	290.0
342.0	316.0
342.5	333.5
342.0	341.5
343.0	266.5
343.5	273.0
343.0	296.0
343.5	302.0
343.3	308.3
344.5	248.0
345.0	279.5
346.5	254.5
346.0	338.0
346.5	349.0
347.5	263.0
347.0	286.0
347.5	319.0
347.0	324.5
347.0	329.5
348.0	292.0
348.0	298.5
348.0	312.0
349.0	242.0
349.0	269.5
349.5	276.0
349.0	306.0
349.0	334.0
349.3	343.7
350.5	249.0
351.0	282.0
351.5	352.5
352.5	254.0
352.0	288.0
352.0	328.0
352.5	338.5
352.5	300.5
352.5	316.0
353.0	260.0
353.5	266.0
353.0	294.5
353.5	310.0
353.0	322.0
353.5	348.0
354.5	305.0
354.0	333.5
355.0	272.5
356.0	244.5
356.5	278.5
356.7	343.3
357.0	251.0
357.0	285.0
358.7	256.7
358.0	290.5
358.5	313.5
358.7	319.3
358.5	325.0
358.0	331.0
358.0	338.0
359.0	263.0
359.5	296.5
359.5	302.5
359.5	308.0
360.0	269.0
360.5	349.0
361.5	275.0
362.0	281.5
362.5	339.0
362.5	344.0
363.0	247.0
363.5	287.5
363.5	328.0
363.7	333.7
364.5	253.0
364.5	259.5
364.0	293.0
364.0	311.5
364.0	317.0
364.5	322.5
365.7	265.7
365.0	299.0
365.5	306.0
366.0	271.0
366.7	350.3
367.0	277.5
367.0	344.0
368.5	284.0
368.3	338.3
369.0	242.0
369.3	249.3
369.0	290.0
369.3	295.7
369.5	302.5
369.5	320.0
370.0	256.5
370.0	309.0
370.0	313.5
370.0	326.0
370.0	332.0
371.0	262.0
372.0	268.5
372.0	274.0
373.5	280.5
373.0	342.5
373.0	349.5
374.3	245.3
374.5	252.5
374.5	293.0
374.5	299.5
374.0	305.0
374.0	335.5
375.0	286.0
375.5	311.0
375.0	317.0
375.5	323.0
375.5	329.0
376.5	259.5
378.0	265.0
378.0	272.0
379.0	278.0
378.5	338.5
378.0	345.5
379.3	351.7
380.3	242.3
380.0	249.0
380.7	255.3
380.3	289.3
380.0	301.0
380.5	308.0
380.5	332.5
381.0	283.0
381.0	295.0
381.0	314.0
381.0	320.0
381.0	326.0
382.0	342.0
383.0	262.0
383.3	268.3
384.2	337.4
384.0	347.5
385.0	274.0
385.5	280.0
385.5	299.0
385.0	304.5
385.5	311.5
386.0	246.0
386.0	252.0
386.3	286.3
386.0	293.0
386.5	317.5
386.7	323.7
386.3	329.3
387.0	258.0
388.0	343.0
389.0	263.5
389.5	270.0
389.5	308.0
389.0	349.5
391.0	249.5
391.3	276.3
391.7	283.3
391.5	290.0
391.0	296.5
391.0	302.5
391.5	313.5
392.7	254.7
392.0	320.0
392.0	325.5
392.3	331.3
392.5	339.0
394.5	244.8
393.0	346.0
394.0	260.5
395.5	266.0
395.5	307.0
395.5	351.5
396.5	335.0
397.3	287.7
397.0	294.0
397.0	300.0
397.3	316.3
397.7	323.3
397.0	342.5
398.0	250.0
398.0	276.0
398.0	282.5
398.5	329.0
399.0	310.5
400.0	256.0
400.5	262.0
400.0	347.0
401.0	304.5
401.0	338.5
402.0	267.0
402.5	291.0
402.3	296.3
402.7	319.7
403.0	246.0
403.0	273.0
403.5	279.0
403.5	285.0
403.0	333.0
404.0	252.0
404.0	314.5
404.5	328.0
404.3	343.3
405.5	309.0
406.5	258.0
406.3	348.3
407.5	264.0
407.5	270.0
407.0	304.0
407.0	323.0
407.0	339.0
408.5	248.5
408.5	276.0
408.0	293.0
408.0	298.5
408.5	318.5
409.0	281.5
409.0	287.5
409.0	333.0
410.5	243.0
410.3	313.3
410.5	344.0
411.0	254.0
411.7	307.7
411.0	328.0
413.0	260.0
413.0	273.0
413.5	296.5
413.0	302.5
413.0	322.5
413.0	338.0
413.0	349.0
414.5	266.5
414.5	278.5
414.5	285.0
414.0	290.5
415.5	248.0
415.0	317.5
415.0	333.0
416.5	312.0
416.5	344.0
417.5	255.0
417.0	327.5
418.0	306.0
419.0	271.0
419.7	294.3
419.0	300.0
419.0	322.0
419.0	337.0
419.7	348.7
420.0	261.0
420.5	277.0
420.5	282.0
420.0	288.0
421.5	245.5
421.0	251.5
421.0	316.5
421.7	331.3
422.5	267.0
422.5	326.0
422.5	341.0
423.0	310.0
424.0	304.0
424.5	346.0
425.3	256.3
425.0	273.0
425.7	298.3
426.0	336.3
425.3	351.3
426.0	292.0
426.0	321.0
427.0	250.0
427.5	263.0
427.0	279.5
427.0	286.0
427.0	314.5
427.5	329.0
428.7	342.3
429.5	269.0
429.0	308.5
430.0	245.0
430.0	302.5
431.0	253.0
431.0	296.0
431.0	325.0
431.5	347.5
432.5	259.0
432.0	276.0
432.3	290.3
432.5	318.5
432.0	332.0
432.3	338.3
433.5	282.0
433.7	312.7
434.0	265.0
435.5	248.5
435.5	306.5
436.0	242.0
436.0	271.0
436.0	300.5
436.5	323.0
436.5	335.0
436.0	343.0
436.5	350.0
437.5	287.5
437.5	294.0
438.0	254.5
438.5	278.0
438.7	316.7
438.5	330.0
439.0	261.0
439.5	340.0
440.5	283.5
440.0	310.5
441.0	245.5
441.0	267.0
441.7	299.3
441.5	305.0
441.0	325.5
441.5	346.0
442.5	251.0
442.5	320.0
442.5	335.0
443.7	257.7
443.0	273.0
443.0	289.5
444.5	279.0
444.5	352.5
445.5	295.5
445.0	315.0
445.0	330.0
445.0	340.0
446.0	263.5
446.5	285.0
446.0	308.5
447.0	242.0
447.5	253.0
447.0	302.0
447.0	325.0
448.3	275.3
448.5	319.5
448.5	335.0
448.5	345.0
449.5	248.0
449.3	269.3
449.0	291.0
450.0	259.0
450.3	313.7
451.0	280.5
451.5	297.0
452.0	308.0
451.7	330.3
451.5	350.0
452.0	339.5
453.0	243.0
453.0	265.0
453.0	275.0
453.0	286.0
453.0	324.5
454.0	253.0
455.0	292.0
455.0	302.5
455.0	319.0
455.0	334.5
455.0	345.5
456.5	248.0
456.5	270.0
456.5	313.5
457.0	258.5
457.0	281.0
457.5	351.0
458.3	297.3
458.7	307.7
458.3	340.3
459.0	287.0
459.5	324.0
460.0	242.5
460.3	253.3
460.0	265.0
460.0	276.0
462.0	292.5
461.0	319.0
461.3	335.7
461.5	345.5
462.0	302.0
462.5	313.0
463.5	259.0
463.0	282.0
463.3	329.7
463.7	247.7
463.3	270.3
464.7	307.7
464.0	351.0
465.0	324.0
465.0	340.0
466.5	287.0
466.0	297.5
467.0	242.0
467.0	253.5
467.0	265.0
467.0	276.0
467.0	318.0
468.5	303.0
468.0	313.0
468.0	335.5
468.3	345.3
469.0	293.0
470.5	248.0
470.5	259.5
470.3	270.7
470.3	282.3
470.5	352.0
471.0	309.0
471.5	322.0
472.3	298.7
472.0	340.5
473.5	254.0
473.5	288.0
473.5	316.0
473.5	327.0
474.0	243.0
474.0	266.0
474.0	277.5
474.5	305.0
474.7	346.3
476.7	283.7
476.0	294.0
477.0	260.5
477.7	271.7
477.0	311.0
477.0	322.0
477.5	337.5
478.0	249.0
478.5	300.0
478.5	342.5
479.5	289.0
480.5	255.0
480.7	277.7
480.0	316.0
480.0	328.5
481.5	243.5
481.0	266.0
481.0	305.5
481.5	334.0
481.5	348.5
483.0	284.5
483.0	294.5
483.0	322.0
483.5	339.0
484.5	250.0
484.5	261.0
484.5	273.0
484.0	311.0
485.0	300.5
486.0	328.0
486.0	344.5
487.5	256.0
487.5	279.0
487.0	290.0
487.0	317.0
488.0	268.0
488.0	306.5
488.0	334.0
488.0	350.5
489.0	244.0
489.5	296.0
489.0	323.0
491.0	250.5
491.3	262.3
491.7	273.7
491.0	285.0
491.0	312.5
491.0	340.0
492.0	302.0
492.5	346.0
493.3	318.7
493.0	329.5
494.5	256.0
494.0	290.5
495.5	245.0
495.0	268.0
495.0	279.5
495.0	307.5
495.0	335.0
495.5	352.0
496.0	325.0
497.0	296.0
497.0	314.0
497.0	341.5
498.5	251.0
498.7	262.3
498.0	286.0
499.7	273.7
499.0	302.0
499.0	330.5
499.5	347.0
500.0	320.0
501.0	336.5
501.0	309.0
502.0	246.5
502.0	257.0
502.5	268.5
502.0	281.0
502.0	292.5
503.5	315.5
503.0	326.0
503.5	342.0
504.7	298.7
504.5	305.0
506.0	251.0
506.0	263.5
506.0	275.0
506.0	287.0
506.5	321.0
506.5	348.0
507.0	310.0
507.5	338.0
508.5	245.0
508.5	293.0
509.0	257.5
509.3	269.3
509.5	281.0
509.0	327.0
510.7	304.3
510.0	316.0
510.0	344.0
511.0	333.0
512.5	251.0
512.5	287.5
512.5	298.5
513.0	263.5
513.0	275.5
513.0	311.0
513.3	321.3
513.0	350.0
514.0	338.0
515.5	293.0
516.0	245.0
516.5	257.0
516.5	270.0
516.0	282.5
516.5	316.0
516.7	326.7
517.3	304.3
517.0	344.5
518.5	333.0
519.7	251.3
519.5	263.5
519.0	288.0
519.5	351.0
520.0	276.0
520.0	311.0
520.0	321.5
521.0	299.0
521.0	339.5
523.5	247.0
523.5	259.0
523.5	270.0
523.0	282.0
523.0	293.5
523.7	305.7
523.7	316.3
523.0	328.0
523.5	346.0
526.5	276.0
526.0	288.0
526.0	334.0
526.5	351.0
527.5	311.0
527.5	323.0
528.0	242.0
528.0	252.5
528.0	264.5
528.0	299.5
528.0	340.5
529.5	283.0
529.5	329.0
530.5	271.0
530.0	293.5
530.0	347.0
531.5	247.0
531.0	258.5
531.0	305.5
531.0	318.0
532.5	288.0
532.5	334.5
532.0	352.5
533.5	277.0
534.3	323.3
535.0	253.5
535.0	265.0
535.0	300.0
535.5	312.0
535.0	341.0
536.0	242.5
537.0	283.0
537.0	295.0
537.0	329.5
537.0	348.0
538.5	260.0
538.0	271.5
538.5	318.0
539.0	248.0
539.7	288.7
539.0	306.0
539.0	335.5
541.5	266.0
541.5	277.0
541.0	325.0
542.7	253.7
542.5	312.0
542.0	342.5
543.5	242.0
543.0	284.0
544.0	293.0
544.0	300.0
544.3	319.3
544.0	331.0
544.0	349.5
545.7	259.7
545.5	272.0
546.5	307.0
546.5	337.0
547.5	247.5
547.0	280.5
548.5	265.5
548.7	287.7
548.3	325.7
549.0	313.5
549.0	343.5
550.0	254.0
550.7	295.3
551.0	242.0
551.5	332.0
552.5	270.5
552.5	277.0
552.0	302.0
552.0	320.0
552.5	350.0
553.0	260.0
553.7	308.7
554.7	283.7
554.0	339.0
555.0	248.0
555.5	327.0
556.0	290.5
556.0	315.5
557.0	265.5
557.0	345.5
558.0	253.5
558.5	272.5
558.0	297.5
559.3	304.3
559.5	321.0
559.0	333.0
559.5	351.5
560.3	279.3
561.0	260.0
561.3	310.3
562.7	247.7
562.0	286.0
563.5	293.0
563.3	316.3
563.5	327.5
563.0	339.0
564.7	266.7
564.7	299.7
564.3	346.3
565.0	254.5
566.0	274.5
566.7	306.3
567.5	321.5
567.0	334.0
568.5	243.0
568.7	261.3
568.0	281.5
568.7	288.7
568.0	313.5
568.0	352.5
569.5	341.0
570.5	249.5
570.5	295.0
571.0	269.0
571.0	327.5
572.5	276.0
572.5	302.0
572.0	347.0
573.5	309.0
574.0	256.5
574.0	334.5
575.5	244.0
575.0	283.0
575.0	316.0
576.5	264.0
576.0	290.5
576.0	323.0
577.7	297.7
577.0	342.0
578.0	271.0
578.7	329.3
579.3	250.3
579.3	304.3
580.5	278.0
580.5	311.0
580.0	348.5
581.0	259.0
581.5	336.0
582.7	284.7
582.3	317.3
583.5	245.0
583.5	266.0
583.5	292.0
583.5	324.5
584.0	274.0
584.0	344.0
585.5	299.0
586.5	306.5
586.0	331.5
586.0	351.0
588.8	253.2
587.0	280.5
587.5	313.0
588.5	269.0
588.5	338.5
589.6	246.2
589.0	260.5
589.0	287.0
589.0	320.0
591.0	276.0
591.7	293.7
591.0	326.5
591.5	345.0
592.3	301.3
593.5	308.0
593.5	333.0
594.5	315.0
594.0	352.0
595.5	250.5
595.7	258.3
595.5	322.0
596.0	244.0
596.5	281.0
596.0	339.0
597.0	266.5
597.0	273.0
597.7	288.7
597.3	297.3
598.3	327.3
598.3	346.3
600.0	304.0
600.7	310.7
600.5	317.0
601.7	254.7
601.0	333.0
602.0	247.0
602.0	262.0
602.3	277.7
603.0	270.0
603.5	285.0
604.5	292.0
604.0	322.0
604.0	339.5
605.0	299.0
606.5	307.0
606.5	328.0
606.3	346.3
608.3	243.0
608.7	250.7
608.7	316.7
609.5	258.0
610.0	281.0
609.0	333.5
610.0	266.0
610.5	274.0
611.5	295.0
611.5	322.5
611.5	340.5
612.5	303.0
613.5	311.0
614.7	328.7
614.0	347.5
616.0	244.5
616.0	253.5
616.7	261.7
616.8	276.8
616.0	317.0
616.5	335.0
617.0	269.0
617.5	284.0
618.0	291.0
618.0	298.0
618.0	342.0
619.0	306.5
619.5	324.0
620.5	313.0
620.0	350.5
621.5	249.5
622.5	257.0
622.0	330.5
622.7	338.7
623.4	265.2
623.3	279.3
624.5	272.5
624.5	286.5
624.5	294.0
625.5	303.0
625.5	318.0
625.0	345.0
626.5	310.5
626.7	326.3
626.5	352.5
628.5	244.5
628.7	332.7
630.7	251.7
630.3	260.3
630.7	267.7
630.0	341.0
631.5	275.0
631.5	283.0
631.7	290.7
632.5	298.0
632.5	306.5
632.5	348.0
633.0	313.5
634.0	321.0
634.5	336.0
635.0	328.5
637.0	247.8
636.7	255.7
637.3	263.3
638.0	270.5
638.0	343.5
639.0	277.5
639.0	287.0
639.0	294.0
639.7	301.7
639.7	310.3
640.0	317.0
639.0	351.5
641.5	242.5
641.7	324.7
84.7	415.0
86.0	355.5
86.7	435.7
87.3	366.3
87.5	374.0
88.5	381.5
88.5	388.5
89.0	429.5
90.7	412.3
90.3	462.3
91.3	359.7
91.0	450.0
92.5	353.0
93.5	369.5
94.0	393.0
94.3	434.3
95.0	376.5
95.0	385.0
95.5	400.5
95.0	426.5
96.5	407.5
96.0	456.5
98.7	356.7
98.3	413.3
98.5	449.0
99.0	364.0
99.5	462.5
100.7	371.3
100.5	390.0
100.7	423.3
101.3	396.7
101.5	430.0
101.0	437.0
102.0	378.5
102.5	404.0
102.5	443.0
103.5	456.0
104.0	410.0
104.0	417.0
106.0	360.0
105.0	384.5
106.7	353.3
106.5	367.0
107.0	374.0
107.3	392.3
107.5	426.5
107.5	448.5
107.0	462.5
109.3	398.3
109.5	406.0
110.5	379.0
111.0	413.5
111.5	434.0
111.0	442.0
111.7	456.7
113.7	365.3
113.5	372.5
113.3	385.3
113.3	421.3
114.3	358.7
115.0	393.0
115.5	428.0
116.0	401.5
116.0	449.5
118.7	381.7
118.3	408.3
118.5	415.0
119.0	434.5
119.7	456.7
120.3	388.3
121.2	395.6
121.0	355.5
121.0	363.0
121.3	423.3
121.0	443.5
122.5	370.5
123.5	377.5
123.5	402.5
124.0	429.5
124.5	450.5
125.5	410.5
126.5	384.0
126.3	417.3
126.5	437.0
127.0	359.0
127.5	391.0
128.0	366.0
128.7	458.3
129.5	398.5
129.7	424.3
129.0	444.5
130.7	371.7
130.3	405.3
131.5	379.5
131.5	431.0
132.5	451.5
133.0	354.5
133.5	361.5
133.0	412.5
134.0	419.5
135.0	393.5
134.5	438.5
135.0	367.5
136.5	376.0
136.3	386.3
136.0	400.5
136.5	446.0
136.3	458.7
137.3	407.3
137.0	426.5
138.5	358.5
140.3	382.3
140.0	414.0
140.5	433.0
141.0	371.5
141.0	396.0
141.5	421.0
141.0	453.0
142.5	364.5
142.5	439.5
143.0	390.5
143.7	401.7
144.5	356.0
145.6	408.6
144.5	461.0
145.5	427.0
146.5	377.0
146.0	447.5
147.0	385.5
147.5	395.0
147.3	415.3
148.0	369.0
148.5	434.5
148.7	454.7
149.5	421.0
149.3	441.3
150.3	362.7
151.0	402.0
152.5	355.5
152.0	380.0
152.0	389.5
152.5	410.0
152.0	428.0
152.5	462.0
153.3	373.7
153.5	385.5
153.7	447.7
155.5	397.0
155.0	416.5
155.0	436.0
156.5	368.0
156.3	455.7
157.7	361.3
157.0	379.5
157.0	442.0
158.3	385.3
158.5	404.0
158.0	423.5
158.5	430.5
159.5	391.0
159.5	411.0
160.0	354.5
160.5	449.0
160.5	462.0
161.5	374.0
162.5	398.0
162.5	418.0
163.7	380.7
164.0	406.0
163.0	437.0
163.3	455.3
164.5	367.5
164.7	386.7
165.0	360.0
165.5	425.0
165.7	443.3
166.8	352.8
166.3	411.7
167.5	392.0
167.5	431.0
167.5	450.0
168.0	375.0
168.0	403.0
168.0	462.0
170.0	398.0
170.5	365.0
170.0	382.5
170.5	437.5
170.0	456.0
171.0	420.0
172.0	358.0
172.3	387.7
172.0	408.0
172.7	445.3
173.3	426.3
174.0	377.5
174.5	414.0
175.3	370.7
175.0	393.5
175.5	433.0
175.0	451.5
175.5	459.5
176.5	404.0
176.8	440.6
177.5	382.5
178.0	363.5
178.5	421.5
179.0	355.0
179.5	410.0
180.7	375.7
180.5	393.0
180.0	428.0
180.5	447.0
181.3	387.3
181.3	399.3
182.0	416.5
182.0	435.0
182.5	454.5
182.5	462.0
183.3	369.7
184.3	357.3
184.0	405.0
184.5	423.0
185.0	381.5
185.7	392.7
185.0	442.0
186.5	365.0
186.5	430.5
187.5	375.0
187.7	410.7
187.0	449.5
188.7	386.7
189.0	399.5
189.0	419.0
189.0	437.0
189.5	458.0
191.5	354.0
191.5	361.0
191.3	405.3
191.5	425.0
191.7	444.7
192.0	368.5
192.5	393.0
193.0	414.5
193.3	451.3
194.5	381.0
194.0	433.0
196.7	375.3
196.7	387.7
196.0	399.0
196.7	409.7
196.3	420.7
196.5	439.5
197.0	358.0
197.3	457.3
198.5	364.0
199.0	445.5
199.8	427.4
200.0	393.5
200.5	404.0
200.7	415.3
200.7	451.3
201.5	370.0
201.5	382.0
202.0	434.0
204.0	358.0
203.5	376.0
203.7	422.7
203.0	462.0
204.3	388.3
204.0	399.0
204.5	410.0
204.0	440.5
204.0	457.0
205.5	365.0
207.5	383.0
207.0	429.0
207.0	446.5
208.0	371.0
208.0	393.5
208.0	405.0
208.3	417.3
209.0	435.0
209.7	453.7
210.0	360.5
210.7	377.3
210.0	459.5
211.5	355.0
211.0	399.5
211.0	424.0
211.3	441.3
212.0	388.0
212.0	411.5
214.0	366.5
213.5	371.5
214.5	383.0
214.5	429.5
214.5	448.0
215.5	394.0
215.3	406.7
215.0	418.5
215.7	462.7
216.3	359.3
216.5	456.0
217.5	377.0
217.5	436.0
218.7	353.3
218.0	400.5
218.0	413.0
218.5	424.0
219.5	388.5
219.0	443.0
220.3	364.3
220.0	371.0
221.5	382.0
221.5	395.5
222.7	407.3
222.0	418.5
223.0	431.7
222.0	438.0
222.5	448.5
222.7	459.7
223.5	454.0
224.0	358.0
225.0	369.0
224.5	376.0
225.3	391.3
225.3	401.7
225.3	413.3
225.7	425.7
226.0	443.5
228.7	363.3
228.0	386.0
228.5	397.0
228.3	419.3
228.0	436.5
228.0	463.0
229.0	380.0
229.0	408.0
229.0	456.5
230.0	449.0
231.0	357.0
231.5	375.0
231.0	430.0
232.0	402.5
232.0	414.0
233.3	368.7
233.0	391.5
233.3	424.7
233.5	442.0
235.5	362.0
235.0	386.0
235.5	397.0
235.5	408.0
235.5	420.0
235.0	435.5
235.0	460.5
236.0	379.5
236.0	454.5
237.7	402.7
237.7	428.7
238.3	414.7
238.3	447.7
239.0	357.0
239.0	374.0
239.5	391.0
240.3	367.7
240.0	440.5
241.0	408.0
243.3	396.0
242.0	419.5
242.0	434.5
242.0	459.0
243.0	362.0
243.5	379.0
243.0	402.5
243.0	452.5
244.3	413.3
244.7	429.3
245.5	356.0
245.0	372.5
245.0	446.0
246.0	390.5
246.0	424.0
246.5	439.0
247.3	366.7
247.0	407.5
248.0	384.0
248.7	400.3
248.0	418.0
248.7	457.3
249.5	361.0
249.7	377.3
249.3	433.3
250.0	451.0
251.5	371.5
251.0	394.0
251.0	411.0
251.0	427.5
251.5	444.5
252.0	355.5
252.5	389.0
253.0	422.0
254.0	366.0
254.0	383.0
254.0	405.0
254.3	438.7
255.0	399.0
255.5	416.0
255.3	455.3
256.5	360.5
256.0	377.0
256.5	432.0
256.7	449.3
257.3	393.7
258.0	371.0
258.0	410.0
258.5	426.0
259.5	355.0
259.5	387.5
260.0	420.3
259.0	443.0
260.5	381.5
260.0	403.5
260.0	460.0
261.0	366.0
261.0	436.0
262.5	376.0
262.0	398.0
262.0	414.5
262.5	454.0
263.0	360.0
263.3	430.3
263.5	447.5
264.7	370.7
264.5	392.0
264.0	408.0
264.5	425.0
266.5	354.5
266.7	380.7
267.0	441.0
267.0	365.0
267.0	403.0
267.5	418.5
268.7	375.7
268.3	412.7
268.0	435.0
268.7	451.7
268.0	458.0
269.0	359.5
269.7	385.7
269.5	397.0
270.0	428.5
270.0	446.0
271.5	369.5
271.0	408.0
271.5	423.0
272.7	380.7
272.0	391.5
272.5	462.5
273.5	357.5
273.5	364.0
273.0	438.5
273.5	456.0
274.0	402.5
275.0	413.3
274.0	417.5
274.0	432.0
275.7	375.3
275.5	449.5
276.0	386.5
276.5	397.0
276.0	427.0
277.5	443.5
278.3	360.3
278.7	369.3
279.0	408.3
278.5	420.0
279.5	354.5
279.0	381.0
279.5	392.0
279.5	436.5
279.0	460.5
280.0	402.5
280.5	454.0
281.5	413.5
281.0	431.0
282.5	375.5
283.2	386.4
282.5	425.0
283.5	364.5
283.5	398.0
283.5	441.0
283.0	447.0
284.5	419.0
285.5	353.5
286.0	359.0
285.5	381.0
285.5	403.5
285.0	409.0
286.5	370.5
286.5	391.0
286.0	435.5
286.3	458.7
287.7	429.3
287.0	452.5
288.7	395.7
288.7	423.7
289.0	376.0
289.0	385.5
289.0	413.0
289.0	444.5
290.0	365.0
290.0	401.0
290.0	407.0
290.3	418.3
290.5	439.0
291.7	355.3
291.5	391.5
292.5	371.5
292.5	381.0
292.5	449.5
292.0	463.5
293.0	434.0
294.0	360.5
295.3	386.8
294.5	398.0
294.0	428.0
294.0	456.5
295.5	376.0
295.5	404.5
295.0	410.0
295.5	416.0
296.0	367.0
296.0	422.0
296.5	444.0
297.5	357.0
297.0	392.0
297.5	438.5
298.7	371.3
298.0	382.0
298.7	461.3
299.0	362.5
299.0	432.0
300.7	401.3
300.5	426.5
300.5	449.0
300.0	455.5
301.5	387.0
301.0	396.5
302.5	377.0
302.0	421.0
302.3	442.7
303.0	354.5
303.5	360.0
303.0	367.5
303.7	436.3
304.5	382.0
304.0	392.0
306.0	415.3
305.0	430.5
305.0	459.5
306.0	372.5
306.5	410.0
306.5	425.0
306.0	453.5
307.5	363.5
307.3	387.7
307.0	398.5
307.7	447.3
308.5	357.5
308.5	378.0
308.0	404.0
308.5	420.0
308.5	441.0
309.5	368.5
309.5	393.0
310.0	435.0
311.5	384.0
311.0	429.0
311.0	458.0
312.3	373.3
312.7	397.7
312.0	407.5
312.0	413.5
312.3	451.7
313.5	360.5
313.5	389.0
313.7	402.3
313.5	418.0
313.0	424.0
314.0	354.5
314.0	379.5
314.0	445.0
315.0	365.5
315.5	369.5
316.2	433.4
315.0	438.5
316.5	393.5
316.7	410.7
316.0	461.5
317.5	384.0
317.0	427.5
317.5	455.5
318.0	375.0
318.5	405.5
318.5	449.0
319.5	357.5
319.3	415.3
319.0	421.0
320.5	370.0
320.7	388.7
320.0	400.0
320.5	443.0
321.0	364.0
321.0	380.0
322.7	394.7
322.7	431.7
322.0	438.0
322.0	459.5
323.0	409.0
324.0	425.0
323.3	453.7
324.0	375.0
324.5	384.5
324.5	404.0
324.0	448.0
325.0	355.0
325.3	360.7
325.5	419.0
326.7	365.7
326.7	389.7
326.5	398.5
327.7	371.3
327.0	379.5
327.0	413.5
327.0	442.5
328.0	436.0
328.0	457.0
329.5	394.0
329.0	408.0
329.5	430.0
329.0	451.0
330.5	376.0
330.5	385.0
331.0	358.0
331.5	363.0
331.0	402.5
331.0	423.0
332.3	367.7
332.0	417.0
333.5	380.5
333.7	390.3
333.5	397.0
333.5	412.0
333.0	440.0
333.7	446.7
334.0	372.0
334.5	428.0
334.0	434.0
334.5	454.0
334.0	460.5
335.3	361.3
335.5	406.5
336.0	355.5
336.5	422.0
337.5	376.5
337.0	385.0
337.0	401.0
338.0	366.5
338.0	395.0
338.0	416.5
339.5	389.5
339.7	410.7
339.3	437.3
339.0	443.0
339.5	450.0
340.5	381.0
340.5	426.0
340.0	457.0
341.0	362.5
341.0	371.5
341.7	404.7
341.0	432.0
341.5	463.0
342.0	357.5
342.0	420.5
343.3	376.3
343.5	386.5
343.0	399.0
344.0	366.5
344.0	393.0
344.0	415.5
344.5	447.0
345.0	409.0
345.7	429.7
345.3	441.3
345.5	453.0
346.7	371.3
346.3	381.7
346.0	435.5
346.3	459.3
347.0	355.5
347.0	361.5
348.0	390.0
348.3	402.3
349.0	396.0
349.0	413.5
349.5	419.5
350.0	366.5
350.5	378.0
350.0	408.0
350.0	444.5
351.5	384.5
351.5	449.5
351.5	456.0
352.3	358.3
352.0	372.5
352.0	433.0
352.0	439.5
352.5	462.0
354.5	363.0
354.0	411.0
354.5	417.0
355.0	398.0
355.5	404.0
356.0	422.0
356.5	368.5
356.0	381.0
356.0	428.0
356.0	444.5
357.0	354.0
357.3	374.3
357.0	452.0
357.5	458.0
358.0	386.0
358.0	437.0
359.0	359.0
359.7	407.7
359.0	432.0
360.5	364.5
360.5	401.0
360.0	413.0
360.7	442.7
361.0	380.5
362.0	376.0
362.0	390.0
362.0	426.5
362.0	448.0
363.0	355.0
363.0	370.0
363.5	433.0
363.0	454.0
363.7	460.7
364.5	361.0
365.5	384.5
365.5	394.5
365.0	439.0
366.0	400.0
366.0	410.0
367.5	377.0
367.0	424.0
367.0	445.0
369.0	361.0
368.0	366.0
368.0	389.5
368.0	429.5
368.0	450.5
369.0	435.0
369.0	457.0
369.7	463.7
370.0	356.0
370.5	399.0
371.0	371.0
371.5	381.0
371.0	394.0
371.0	404.0
371.0	410.0
371.0	440.5
372.7	385.7
372.5	417.0
373.5	366.0
373.5	375.5
373.0	423.0
373.5	447.0
373.0	453.5
374.5	361.0
374.7	390.7
374.0	428.5
375.0	355.0
375.5	396.5
375.0	435.5
375.0	459.5
376.5	370.0
376.5	380.0
376.0	401.5
376.0	407.5
376.7	413.7
377.0	442.5
377.7	419.7
378.7	384.3
378.5	425.0
378.0	452.0
380.2	357.4
379.5	362.0
379.0	431.0
380.7	366.3
380.5	393.0
380.0	437.5
380.5	447.5
380.5	463.0
381.5	372.0
381.5	410.0
381.5	457.0
382.7	377.7
382.0	398.5
382.0	404.0
382.5	416.0
383.3	388.7
383.0	422.0
384.5	383.0
384.5	427.0
384.5	432.5
384.0	442.0
385.0	353.5
385.0	452.5
386.0	359.0
386.5	462.0
387.5	369.0
387.3	374.3
387.3	393.3
387.0	407.0
387.5	412.5
387.0	437.0
387.5	447.0
388.0	399.5
388.5	418.0
389.0	380.0
389.0	386.5
389.0	424.0
389.7	430.7
389.7	457.3
390.5	441.5
391.0	355.0
391.5	452.0
392.7	396.7
392.5	409.0
393.0	360.0
393.0	372.0
393.0	391.0
393.3	436.7
394.5	378.0
394.0	383.5
394.5	414.0
394.5	420.5
394.7	426.7
394.0	446.5
396.0	431.5
396.7	441.7
396.0	458.0
397.5	357.0
398.6	362.8
397.0	390.0
397.5	406.0
398.5	395.0
398.0	452.0
399.0	374.0
399.5	423.0
399.3	462.7
400.7	367.7
400.0	380.0
400.5	386.0
400.5	401.0
400.3	411.3
400.5	417.0
400.0	436.0
400.0	446.5
401.5	353.0
401.0	429.0
402.5	391.0
402.0	457.0
403.5	358.0
403.0	441.0
404.0	372.5
404.7	377.7
404.3	396.3
404.0	406.0
404.0	451.5
405.5	383.0
405.5	423.5
405.5	435.0
406.0	363.0
406.7	401.7
406.0	412.0
407.0	418.0
406.5	446.0
406.0	461.5
407.5	368.0
407.5	429.5
408.0	388.0
408.7	456.3
409.3	353.3
409.5	373.0
410.0	392.5
409.0	440.5
410.3	358.3
410.5	378.0
410.0	407.0
410.3	423.7
411.5	383.5
411.5	414.0
411.5	435.0
411.0	451.0
412.0	364.0
412.0	397.5
413.0	429.0
413.0	445.0
413.5	461.5
414.0	369.0
414.0	389.0
414.0	403.5
414.3	419.3
415.5	354.0
415.5	374.0
415.5	456.0
416.5	359.5
416.0	380.0
416.5	394.0
416.0	409.0
416.5	425.0
416.0	439.0
417.5	434.0
417.0	450.0
418.0	365.0
418.0	385.0
418.5	399.5
418.0	415.5
419.3	444.3
419.5	462.5
420.0	370.5
420.3	404.7
420.0	429.5
421.7	355.7
421.7	375.7
421.0	390.0
421.0	421.5
421.5	454.5
422.5	361.0
422.0	411.0
422.0	438.5
423.0	381.5
423.5	395.0
424.5	366.5
424.5	386.0
425.2	416.6
424.5	426.5
424.0	433.0
424.0	449.0
425.5	400.5
425.3	406.3
426.0	443.0
426.0	459.0
427.5	357.0
427.0	371.5
428.0	377.5
427.5	421.5
428.0	390.5
428.0	438.0
428.0	453.5
429.0	362.5
429.7	382.7
429.7	395.7
429.0	410.5
429.7	431.3
430.5	403.5
430.0	447.5
431.5	353.5
431.5	367.0
431.7	425.7
431.5	463.0
432.7	387.7
432.5	442.0
433.0	372.5
433.7	414.7
433.0	420.0
433.0	457.5
434.3	358.3
434.0	377.5
434.5	393.0
434.5	409.0
434.0	436.0
435.0	398.5
435.0	452.0
436.7	363.3
436.0	383.0
436.0	430.0
436.7	446.7
437.5	368.5
437.0	403.5
437.3	462.7
438.5	354.5
438.0	389.0
438.0	424.5
439.7	373.7
439.0	418.5
439.0	441.0
439.0	457.0
440.5	359.0
440.5	379.0
440.5	395.0
440.0	412.5
440.5	435.0
441.0	451.0
442.5	364.5
442.0	384.0
442.5	400.0
442.0	406.5
442.7	428.7
443.7	389.7
443.0	445.0
444.3	369.7
444.0	423.0
444.0	461.0
445.0	417.0
445.0	439.0
446.0	375.0
446.0	380.0
446.0	411.0
446.0	455.0
447.5	360.0
447.0	404.5
447.5	432.5
447.5	449.5
448.0	386.0
448.0	392.5
448.0	398.0
449.3	365.3
449.5	427.0
449.5	444.0
450.5	380.0
450.0	421.0
450.5	459.0
451.3	355.3
451.5	370.0
451.7	408.3
451.0	414.5
451.5	437.5
452.7	374.7
452.3	402.3
452.5	454.0
453.5	390.0
453.0	396.0
454.3	361.3
454.0	431.5
454.0	448.0
455.0	463.8
455.0	384.0
455.0	423.5
456.5	366.5
456.0	417.5
456.0	442.5
457.0	378.0
457.5	394.0
457.5	399.5
457.0	406.0
457.3	411.3
457.0	458.5
458.5	372.0
458.0	437.0
459.0	356.0
459.0	388.0
459.0	452.5
460.5	426.5
460.0	432.0
461.5	362.0
461.0	382.5
461.0	420.5
461.0	447.0
462.5	376.5
462.0	415.0
462.5	441.5
462.0	462.5
463.0	368.0
463.0	392.5
463.7	397.7
463.0	403.0
463.0	409.0
464.5	436.0
464.0	457.0
465.0	356.5
465.5	374.0
465.0	387.0
465.5	430.0
466.5	381.0
466.0	451.0
467.0	363.5
467.7	417.7
467.0	423.5
468.3	390.3
468.5	401.0
468.5	406.0
468.7	411.7
468.3	445.7
469.5	370.0
469.7	440.3
469.0	461.5
470.5	395.5
470.3	455.7
471.0	377.5
471.5	384.5
471.0	434.0
472.0	358.0
472.0	428.0
472.7	449.7
473.5	415.0
473.0	421.0
474.0	364.5
474.3	373.3
474.5	391.0
474.5	409.0
474.7	443.7
475.0	397.0
475.0	403.0
476.0	438.0
476.7	453.7
476.0	460.0
477.0	353.0
477.0	370.0
477.0	379.5
477.0	432.0
478.5	360.0
478.0	386.5
478.0	425.5
479.0	418.5
479.0	447.5
480.0	375.0
480.0	394.0
480.5	400.5
480.0	406.5
480.3	412.3
481.0	366.0
481.5	441.5
482.0	382.0
482.5	436.0
482.5	458.0
483.0	355.5
483.5	429.0
484.0	387.5
484.0	422.0
484.0	452.0
485.0	371.5
486.4	377.4
485.5	410.5
485.5	416.0
485.3	446.3
486.5	361.0
486.0	398.5
486.0	404.5
487.0	392.5
487.5	440.0
487.5	462.0
488.5	433.5
489.0	367.5
489.5	383.5
489.0	427.0
489.0	456.0
490.0	420.0
490.5	450.0
491.0	356.0
491.0	373.0
491.5	389.0
491.0	401.5
491.0	413.5
491.5	444.0
492.0	395.0
492.0	407.5
493.5	363.0
493.3	460.7
494.0	379.0
494.0	437.0
495.5	369.5
495.5	424.0
495.0	430.5
496.0	385.5
496.5	417.0
496.0	453.5
497.5	358.0
497.0	392.0
497.0	398.5
497.3	404.3
497.5	410.5
497.0	447.5
498.0	375.0
498.3	441.3
499.7	364.7
500.5	381.5
500.0	434.0
500.0	458.0
501.5	421.5
501.5	427.0
502.0	353.0
502.5	371.0
502.0	388.0
502.0	394.5
502.5	452.0
503.0	401.0
503.0	408.0
503.0	414.0
503.5	445.5
504.0	359.5
505.0	377.0
505.0	438.5
506.5	366.0
506.3	431.3
506.0	462.5
507.0	383.5
507.0	418.5
507.5	456.0
508.5	355.0
508.0	391.0
508.0	397.5
508.5	404.5
508.0	424.5
509.0	372.5
509.7	449.7
510.0	411.5
510.5	443.0
511.5	361.0
511.0	379.0
512.0	428.5
512.0	436.0
513.3	367.7
513.0	386.0
513.0	418.5
513.0	461.0
514.0	401.0
515.5	357.0
515.0	407.0
515.0	454.0
516.0	374.0
516.0	394.0
516.0	424.0
516.5	440.5
516.5	447.5
517.3	412.3
518.0	363.0
518.0	381.0
518.0	429.0
518.5	434.0
519.5	418.0
520.0	369.0
520.0	388.0
520.0	401.0
520.5	459.0
521.5	452.0
522.3	357.3
522.0	376.0
522.0	407.0
522.0	424.5
522.5	438.5
522.5	445.5
523.0	395.0
524.3	363.7
524.5	413.0
524.7	430.3
524.3	463.3
525.0	383.0
526.5	370.0
526.0	401.5
526.5	420.0
527.0	390.5
528.0	443.0
528.0	358.5
528.0	436.5
528.0	450.0
528.0	457.0
529.3	377.3
529.0	408.0
529.0	425.5
530.3	364.3
530.5	396.0
530.5	415.0
531.0	385.0
531.5	431.5
533.0	371.0
533.3	402.7
533.5	421.0
533.3	439.3
534.5	391.0
534.0	446.0
534.3	452.3
535.0	359.0
535.0	381.5
535.0	409.5
535.0	459.0
536.5	427.0
537.5	397.5
538.5	364.0
538.0	376.0
538.3	386.7
538.3	415.3
538.5	434.0
539.0	354.0
540.5	370.5
540.0	404.5
540.0	422.0
540.0	441.5
541.5	393.0
541.0	448.0
541.5	454.5
541.0	461.0
542.5	360.0
542.3	380.3
543.0	410.0
543.0	428.5
544.7	399.0
545.0	366.5
545.0	417.5
545.0	436.5
546.3	373.3
546.3	385.3
546.5	444.0
547.0	355.0
547.0	451.0
548.7	361.7
548.0	405.5
548.0	424.0
548.3	458.7
549.0	393.0
550.0	379.5
550.0	412.5
550.0	431.5
551.5	368.0
551.7	398.7
551.5	439.0
552.7	386.7
553.7	356.7
553.5	374.0
553.0	419.5
553.3	445.7
553.7	452.7
554.0	408.0
555.0	363.0
555.0	381.0
555.0	426.5
556.3	392.3
556.5	403.0
556.0	459.5
557.0	414.0
557.0	433.5
557.5	441.0
559.5	360.0
560.0	367.0
559.0	386.5
559.5	448.0
560.5	374.0
560.0	398.0
560.7	420.7
561.0	408.5
561.0	454.5
562.0	380.5
562.0	428.5
563.0	436.3
563.5	392.0
563.3	461.3
564.5	357.0
564.5	403.0
564.0	414.5
564.0	443.0
565.7	385.7
566.0	363.5
566.5	369.5
566.0	422.5
566.5	449.0
567.5	397.0
568.0	376.5
568.5	409.0
568.0	455.5
569.0	417.0
569.0	438.0
570.0	391.0
570.5	429.0
571.0	358.5
571.7	402.7
571.5	444.0
571.3	462.7
572.0	365.0
572.3	384.3
572.7	422.7
572.5	451.0
573.0	371.0
574.5	378.0
574.5	396.0
575.0	353.0
575.0	414.5
575.5	457.0
576.7	407.7
576.0	440.0
577.0	361.0
577.0	389.0
577.0	433.0
579.0	367.0
579.0	382.5
579.0	401.5
579.5	426.5
580.5	419.5
580.0	445.0
580.5	452.0
581.5	355.5
581.3	373.2
581.0	394.5
582.5	413.0
582.0	437.5
583.5	387.5
583.0	459.0
584.0	362.0
584.5	431.0
585.3	380.7
585.7	406.3
585.7	424.3
585.0	448.0
586.3	368.3
587.3	399.8
586.7	442.3
587.3	453.7
588.0	375.0
588.0	393.0
589.5	356.5
589.5	418.5
589.5	436.0
590.3	385.3
590.0	459.5
591.3	363.3
591.0	411.0
591.0	448.0
592.5	429.0
593.5	371.5
593.0	379.0
593.5	403.5
593.5	423.0
594.0	440.5
594.5	391.0
594.0	397.0
594.5	453.5
596.0	416.0
597.7	358.3
598.0	365.3
597.7	386.3
597.0	434.5
597.0	460.5
598.0	409.0
598.0	447.5
599.0	427.5
600.7	393.7
601.5	353.0
601.0	378.0
601.0	401.0
601.7	453.7
602.0	370.5
602.0	440.0
603.0	432.5
604.5	407.0
604.7	413.7
604.7	419.7
604.3	460.0
605.5	358.0
605.0	365.0
605.0	382.5
605.5	389.0
605.5	446.0
607.0	376.0
607.0	396.0
607.0	427.0
608.5	353.0
609.5	370.0
609.3	402.3
609.3	434.3
610.0	453.5
612.0	363.5
612.0	382.5
612.0	391.0
613.0	423.0
613.7	448.3
613.0	460.0
614.7	355.7
614.4	375.2
615.5	397.0
616.0	428.3
616.5	368.0
616.5	436.0
617.7	361.7
617.0	404.5
617.0	454.5
618.0	417.5
618.0	443.0
619.3	389.7
619.5	411.5
620.3	381.3
620.5	460.0
621.0	373.5
621.0	423.0
622.5	357.5
622.0	400.0
622.0	431.0
622.0	448.0
623.0	365.0
623.0	439.5
624.5	377.5
624.5	407.0
624.0	417.0
625.7	386.7
625.5	453.5
626.3	394.7
626.7	413.7
627.7	427.7
627.0	446.0
627.0	461.0
629.5	378.0
629.5	402.0
629.0	420.0
629.5	434.5
630.3	363.7
630.0	371.0
631.5	408.5
631.0	441.5
631.0	450.0
632.0	390.5
632.5	458.0
633.5	355.0
634.7	376.7
634.0	396.5
634.7	415.7
635.5	369.0
635.0	383.5
637.5	403.0
636.0	423.0
636.0	431.0
636.7	438.3
636.0	446.5
637.0	360.0
640.8	365.0
638.5	454.0
638.5	461.5
639.0	390.0
641.0	372.0
641.0	378.5
640.7	417.7
642.2	396.6
641.0	410.0
641.7	426.7
641.5	434.5
84.7	543.7
85.5	550.5
85.5	559.0
86.5	471.0
86.0	523.0
87.0	480.5
87.5	493.5
88.0	512.5
88.3	531.7
88.5	572.0
89.7	500.7
90.7	538.7
90.5	546.0
91.5	487.0
92.5	475.0
92.0	525.5
93.0	552.5
94.5	494.5
94.8	559.6
95.7	512.7
96.5	469.0
96.0	481.0
96.7	531.3
96.5	540.5
96.5	572.0
98.5	488.0
99.7	524.3
99.3	565.3
100.5	475.5
100.5	545.5
100.0	553.0
102.0	496.5
101.0	517.0
103.5	469.0
103.5	509.5
103.5	539.0
104.5	482.5
104.0	558.0
104.7	571.3
105.5	490.0
106.5	522.5
106.0	550.5
107.5	503.0
108.0	476.5
108.0	543.5
108.0	564.5
109.0	515.5
110.5	496.0
110.5	537.5
111.0	469.0
111.0	557.0
112.3	482.3
112.3	508.3
112.5	530.0
113.0	489.0
113.0	548.5
114.7	476.3
114.5	522.0
115.7	463.3
116.0	502.0
116.5	563.5
117.5	514.0
117.0	541.0
118.7	554.4
118.0	493.5
119.0	470.5
119.7	485.3
119.5	534.0
120.7	546.7
121.0	507.5
122.7	478.3
122.0	527.0
122.5	567.5
123.3	464.7
123.7	519.7
124.5	500.0
124.3	540.3
124.3	559.3
125.3	491.7
126.5	534.0
127.3	470.3
127.5	484.0
127.0	514.0
129.7	525.7
129.0	552.5
129.5	563.5
130.7	477.3
131.5	464.0
131.7	518.7
131.0	538.5
131.0	545.0
132.5	558.0
133.8	489.4
134.0	504.0
135.0	471.0
135.0	511.5
136.5	550.0
136.5	564.0
137.7	476.7
137.5	484.0
138.0	524.5
138.0	542.5
138.3	570.7
140.7	466.3
140.5	494.0
140.5	508.0
140.5	558.0
141.5	501.0
141.7	538.7
142.0	517.0
143.5	472.5
143.5	480.0
143.5	488.0
144.5	531.5
144.3	564.3
145.3	552.3
146.3	544.7
147.5	511.0
147.5	524.0
148.0	467.0
148.5	503.5
149.5	558.5
149.7	496.3
149.0	538.5
149.0	573.0
151.3	482.7
151.7	489.3
151.3	517.3
152.0	476.0
153.0	531.5
153.0	564.5
154.5	543.0
154.0	550.5
156.5	467.0
156.5	511.0
156.0	524.5
157.5	495.0
157.0	503.0
157.0	537.0
157.0	573.0
158.0	473.0
158.5	480.5
158.5	487.0
158.0	518.0
158.7	556.5
160.3	530.3
161.5	546.0
162.7	565.3
163.7	523.7
164.8	468.6
164.5	476.5
164.3	491.7
164.5	506.5
164.0	513.5
164.7	536.7
164.5	574.0
165.7	499.3
165.7	552.7
166.0	483.0
167.0	560.5
167.3	529.3
170.0	541.5
170.0	549.0
170.0	566.5
171.5	503.5
171.0	510.0
172.2	516.4
171.7	535.3
171.7	574.7
172.5	496.5
172.0	555.0
173.5	466.0
173.0	472.0
173.7	480.3
173.7	487.7
173.5	523.0
173.5	530.5
175.5	563.0
176.5	570.0
177.0	534.0
177.5	540.0
177.5	550.5
178.5	501.5
178.5	509.0
179.5	476.5
179.2	493.0
179.0	527.5
179.0	558.0
180.5	469.5
180.7	483.7
180.5	517.0
181.0	545.0
182.0	564.5
183.5	535.0
184.4	552.7
184.5	504.0
185.7	487.7
185.5	496.0
185.0	522.0
185.0	571.5
186.5	510.5
186.5	541.0
187.0	558.8
187.0	473.5
187.0	481.0
188.0	466.5
189.0	516.5
188.0	528.0
189.5	547.0
189.3	565.7
191.5	534.5
192.5	492.0
192.5	499.0
192.5	505.5
192.0	523.0
192.5	554.0
194.0	477.5
193.7	484.7
193.3	573.7
194.5	471.0
194.5	542.0
195.0	511.5
196.0	464.0
196.0	528.5
196.0	561.5
197.5	518.0
197.5	549.0
198.0	495.0
198.5	536.5
199.5	507.0
199.0	568.5
200.5	482.0
200.5	488.5
200.5	500.0
200.0	524.5
201.5	475.0
201.5	531.5
201.0	574.0
202.0	468.5
202.5	544.5
203.0	513.5
203.0	563.0
204.5	520.0
206.0	493.5
206.5	485.5
206.7	500.3
206.7	525.7
206.3	539.7
206.7	568.7
207.0	479.0
207.0	551.0
208.3	465.3
208.0	471.5
209.5	509.0
210.0	515.0
210.0	533.5
210.3	563.7
211.0	546.0
211.0	557.0
212.5	489.0
212.5	521.0
212.5	570.5
213.5	475.0
213.7	481.7
214.0	527.5
213.7	540.3
214.5	469.0
214.7	495.7
214.5	504.0
215.0	551.5
216.0	511.0
217.0	488.5
217.0	516.5
217.3	534.3
217.0	563.0
218.5	557.5
219.0	546.0
220.5	473.0
220.0	479.5
221.0	500.0
220.7	568.7
221.3	466.3
221.0	493.0
221.5	522.0
222.0	528.5
222.5	487.0
223.0	507.5
222.0	540.0
222.5	551.5
223.3	515.0
224.0	562.5
225.3	533.3
226.0	477.0
227.8	469.4
227.0	483.0
227.5	497.0
227.3	545.7
227.7	556.3
228.0	490.5
228.5	526.5
228.3	568.7
229.0	503.5
229.5	514.5
229.5	520.5
230.3	539.7
231.3	509.3
231.5	551.0
232.0	563.0
233.0	474.0
233.7	480.7
233.5	533.0
234.5	466.0
234.7	486.7
235.0	493.0
235.5	545.0
236.5	500.0
236.0	506.5
236.5	518.5
236.0	526.0
236.3	556.7
236.5	570.5
237.7	512.7
237.5	538.0
238.5	470.5
240.0	476.5
240.7	465.3
240.5	532.0
240.0	550.0
240.5	563.0
241.0	482.5
241.5	496.0
241.5	489.0
242.5	503.0
243.0	509.0
243.3	516.3
243.0	523.5
243.0	544.0
245.0	538.0
244.5	557.0
244.5	569.0
246.7	463.3
246.0	471.0
246.7	478.7
246.7	549.7
248.0	486.5
248.5	493.0
248.5	499.5
248.0	532.0
248.0	563.0
248.5	574.5
249.3	505.3
249.5	511.0
249.3	519.3
250.7	525.7
250.3	538.3
250.0	544.0
252.7	468.3
252.0	475.0
252.5	482.0
252.5	515.0
252.0	557.0
252.3	568.7
254.0	536.0
254.5	549.0
255.5	488.5
255.5	495.5
255.5	502.5
255.3	509.3
255.3	529.3
255.0	562.5
256.0	522.0
256.7	543.3
257.5	516.0
257.0	574.5
258.5	473.0
258.0	479.0
258.3	555.3
260.0	466.0
260.5	526.0
260.5	533.0
260.5	568.0
261.5	499.0
261.5	539.0
262.0	561.5
262.0	492.5
262.0	506.0
262.0	513.0
262.0	519.5
262.0	550.0
263.7	477.7
263.0	485.0
264.5	544.5
265.0	471.5
265.7	529.3
265.5	556.0
265.0	574.0
266.3	567.3
267.0	465.5
268.0	489.3
267.0	523.5
267.0	535.5
268.3	496.3
268.0	503.5
268.0	510.0
268.0	516.5
269.0	482.5
270.0	476.0
270.0	549.0
270.0	561.0
271.5	542.0
271.7	573.3
272.0	469.5
272.0	528.0
272.5	555.0
273.5	521.0
273.0	534.5
274.5	494.0
274.3	500.7
274.0	507.0
274.0	513.5
275.5	488.0
275.5	566.5
276.0	480.0
277.5	474.0
277.7	560.3
278.0	467.0
278.5	525.0
278.0	544.0
279.0	518.0
279.0	531.0
279.0	538.0
280.5	504.5
280.0	511.0
280.5	554.0
280.0	572.0
281.7	485.7
281.5	492.0
281.0	498.5
282.0	479.0
283.0	565.5
284.0	472.0
284.7	522.3
284.0	548.0
285.3	464.3
285.5	515.5
285.0	529.0
285.3	535.7
285.0	542.5
285.7	559.3
286.5	509.0
287.5	489.0
287.0	495.5
287.0	502.0
287.5	571.0
288.5	553.0
289.5	470.0
289.0	482.5
290.0	476.0
291.5	527.0
291.5	540.0
291.3	546.7
291.0	564.5
292.7	512.7
292.5	520.0
292.0	533.0
293.5	493.0
293.5	499.0
293.5	506.0
293.5	558.0
294.0	486.5
295.0	480.0
295.3	570.3
296.0	473.5
296.5	551.5
297.3	467.3
297.5	544.0
298.5	524.0
298.0	531.0
298.0	537.5
298.4	563.2
299.5	497.0
299.0	510.5
299.0	517.0
300.5	484.0
300.0	490.5
300.0	503.0
301.5	476.5
301.7	556.7
302.3	470.7
302.5	570.5
303.0	542.0
303.3	548.3
304.5	465.0
304.5	521.5
304.0	528.0
304.0	535.0
305.3	494.7
305.5	508.0
305.0	515.0
305.0	563.5
306.0	481.0
306.0	488.0
307.7	475.3
308.0	501.0
308.5	469.5
308.3	557.7
309.0	551.5
309.7	569.7
310.0	464.0
310.5	491.0
310.0	518.5
310.0	526.0
310.0	532.0
310.0	539.0
310.0	545.0
311.7	485.3
311.5	512.5
311.5	563.5
312.5	496.0
312.5	506.0
313.0	479.5
314.7	467.7
314.0	473.5
314.0	501.0
314.3	556.7
316.0	522.5
316.0	529.0
316.0	535.5
316.5	542.0
317.5	510.0
317.7	515.7
317.0	549.0
317.3	568.7
318.0	483.5
318.0	491.5
318.7	497.7
319.0	477.5
319.5	504.0
320.0	471.5
320.0	563.0
321.0	465.5
321.0	544.5
321.5	556.0
322.0	519.5
322.0	532.5
322.5	539.0
322.7	574.3
323.5	494.5
323.0	526.0
324.0	481.5
324.0	488.0
324.0	508.0
324.0	513.5
324.5	568.0
325.0	475.0
325.0	500.5
325.5	550.0
326.0	469.5
326.0	561.0
327.3	463.3
328.5	530.5
328.0	535.5
328.0	544.0
328.5	555.0
329.5	492.0
329.0	518.5
330.0	479.0
330.0	485.5
330.3	504.3
330.0	511.0
330.0	525.5
330.0	573.0
331.5	467.5
331.0	473.5
331.0	498.0
331.7	566.3
332.0	549.5
333.5	539.0
333.5	560.0
334.3	544.7
335.0	489.0
335.5	515.0
335.5	521.0
335.5	533.0
336.5	477.0
336.0	483.0
336.7	495.3
336.0	507.5
336.3	554.7
337.0	465.5
337.3	471.7
337.0	501.5
337.0	527.0
337.0	573.0
338.0	566.0
339.0	549.0
340.0	543.0
341.5	486.0
341.0	491.5
341.5	518.0
341.0	537.0
341.5	560.0
342.5	469.0
342.3	480.7
342.5	504.5
342.0	511.5
342.0	524.0
342.5	531.0
343.0	475.0
343.5	497.5
343.5	554.0
343.7	571.3
345.3	547.7
346.5	491.0
346.5	565.0
347.7	465.7
347.5	508.0
347.5	515.0
347.0	541.5
348.0	471.5
348.5	478.0
348.0	484.5
348.5	501.5
348.0	521.0
348.5	528.0
348.0	535.0
349.0	559.0
350.5	552.5
351.0	495.0
352.0	546.3
351.5	571.0
352.0	489.0
353.3	467.7
353.5	474.5
353.7	481.7
353.7	512.3
353.5	538.5
354.0	506.0
354.0	518.5
354.0	525.0
354.0	532.0
354.0	564.0
355.0	499.0
356.5	493.0
356.0	557.0
358.3	464.3
358.3	470.3
358.5	487.0
358.5	550.0
359.3	476.3
359.7	481.3
359.0	503.0
359.5	516.0
359.5	537.0
359.0	544.0
360.5	510.0
360.0	522.5
360.0	529.5
360.0	569.5
361.0	562.5
362.5	498.0
362.0	555.5
364.0	466.5
364.0	472.5
364.7	484.7
364.0	492.0
364.5	504.0
364.5	541.0
365.0	479.0
365.7	546.7
366.5	514.0
367.0	520.0
366.3	526.7
366.0	533.0
367.0	508.5
367.5	560.0
367.0	567.5
369.0	501.0
368.3	553.7
369.5	469.5
369.5	495.0
370.0	475.0
370.5	481.0
370.3	488.3
371.0	531.0
373.0	523.5
372.5	543.0
373.0	510.5
373.3	516.7
373.0	536.5
373.0	549.0
373.5	563.0
374.7	505.7
374.0	555.5
374.5	569.5
375.0	466.0
375.7	472.3
375.5	478.0
375.7	485.3
375.5	492.0
375.0	498.0
376.0	528.0
378.0	513.5
378.0	533.0
378.7	539.7
379.3	525.7
379.0	546.0
379.7	574.3
380.0	469.0
380.0	506.5
380.5	519.0
380.0	552.5
380.0	559.5
380.5	567.0
381.5	476.5
381.0	482.0
381.0	488.0
381.0	495.0
381.5	501.0
383.0	510.5
385.0	523.0
384.5	537.0
385.5	467.0
385.7	515.7
385.0	529.0
385.7	542.7
385.5	550.0
385.5	564.0
386.5	473.0
386.5	479.0
386.0	505.5
386.5	556.0
386.0	570.5
387.0	486.0
387.0	491.5
388.5	498.0
389.5	510.0
390.0	532.5
392.0	464.0
391.3	469.7
391.0	504.0
391.5	520.0
391.0	526.0
391.3	540.3
391.0	545.5
392.5	476.0
392.5	482.0
392.0	551.5
393.0	488.5
393.7	494.7
393.5	514.0
394.5	557.0
395.5	501.0
395.7	507.7
396.0	530.0
397.3	467.3
397.7	478.7
397.0	524.5
397.0	543.0
397.5	549.0
398.5	473.0
398.0	485.0
398.0	518.0
398.5	555.0
399.0	562.0
399.8	569.6
400.0	491.5
400.3	534.3
401.0	497.5
401.7	504.7
401.0	511.0
403.5	469.0
403.7	521.7
403.0	528.5
403.0	539.0
403.5	545.0
404.0	475.0
404.0	481.0
404.5	487.5
404.5	551.0
404.0	564.5
406.0	494.0
406.0	515.5
406.5	558.0
407.0	501.0
407.0	508.5
407.0	535.0
408.5	541.0
408.0	570.5
409.0	466.0
409.5	471.5
409.7	477.7
409.0	483.5
409.3	524.3
410.0	531.0
410.0	547.5
411.5	489.5
411.5	554.0
411.0	565.0
412.0	497.0
412.0	512.5
413.0	518.5
413.3	536.7
414.5	467.0
414.5	481.0
414.0	503.0
414.0	571.0
415.5	474.0
415.5	526.0
415.0	543.5
415.0	559.0
416.0	486.0
417.0	492.8
416.7	508.7
416.0	549.5
417.5	532.0
418.5	515.0
418.3	552.7
418.3	564.7
419.3	498.3
420.5	469.0
420.0	474.5
420.0	480.5
420.5	521.0
420.0	538.5
421.0	504.0
421.5	558.5
421.5	571.0
422.0	487.5
422.0	527.5
422.0	546.0
423.0	510.0
424.7	494.3
424.5	552.5
425.0	477.0
425.0	516.0
425.0	534.0
425.0	565.5
426.0	465.5
426.0	500.0
427.3	482.3
427.5	523.0
427.3	540.7
428.7	488.7
428.0	505.0
428.0	558.5
428.5	571.0
429.0	471.0
429.5	511.0
429.0	547.0
430.5	529.0
431.0	495.0
431.0	535.5
431.3	563.7
432.0	477.5
432.5	518.0
432.0	552.5
432.5	567.5
433.7	467.3
433.5	501.5
434.5	484.0
434.5	541.5
434.5	558.5
435.5	507.0
435.3	524.0
436.5	473.0
436.0	490.0
437.3	571.7
438.5	479.0
438.0	496.5
438.0	513.0
438.5	530.0
438.5	536.5
438.5	548.0
438.5	559.0
439.0	553.5
440.5	503.0
440.0	519.5
440.5	542.5
440.5	564.0
441.5	468.0
441.0	485.5
442.5	492.0
442.7	508.7
442.0	525.5
443.0	475.0
444.5	515.0
444.5	558.0
444.7	569.7
445.0	498.5
445.0	531.5
445.0	551.5
446.0	481.0
446.0	538.5
446.5	545.0
447.0	471.0
447.3	487.3
447.3	504.7
447.0	521.5
448.0	564.0
448.0	465.5
449.0	493.5
449.5	510.5
449.5	527.0
451.0	476.0
451.5	516.5
451.0	534.5
451.0	556.5
451.3	570.7
452.5	483.5
452.0	499.5
452.7	550.3
453.3	543.7
454.0	469.0
454.0	489.0
454.0	505.5
454.3	522.3
456.0	495.0
456.0	529.0
456.5	562.0
456.0	569.0
457.0	480.0
457.0	511.5
457.0	535.0
458.0	554.5
459.0	473.5
459.0	500.0
459.0	516.5
459.5	541.0
460.5	468.0
460.5	485.0
460.0	548.0
461.0	491.0
461.5	506.0
461.5	524.0
461.5	573.5
462.7	530.0
462.0	566.0
463.5	478.5
463.5	495.5
463.5	559.5
464.0	512.5
465.7	472.3
465.5	536.0
466.0	490.0
466.5	501.0
466.3	517.3
466.3	543.3
466.0	552.0
467.5	467.0
467.5	484.0
468.0	571.0
469.5	506.0
469.0	524.0
469.5	530.0
469.5	564.0
470.0	477.5
470.0	495.0
470.0	557.5
471.5	548.5
472.5	471.5
472.7	489.3
472.0	512.5
472.0	541.5
473.5	500.5
473.0	536.0
474.0	465.0
474.3	482.3
474.5	518.5
474.7	525.7
476.7	507.3
476.5	532.0
476.0	553.5
476.0	561.5
476.0	568.5
477.0	476.0
478.0	495.0
478.5	547.0
479.0	470.0
479.0	487.0
479.0	513.5
479.5	539.0
480.5	502.0
481.5	464.0
481.5	481.0
481.0	527.0
482.0	558.0
482.0	565.0
482.5	572.0
483.0	474.5
483.0	491.5
483.0	519.0
483.5	533.0
484.0	551.0
484.0	507.5
484.7	544.3
486.0	468.5
486.0	486.0
486.0	497.0
486.0	525.0
487.0	514.0
488.8	478.6
488.0	503.0
488.0	538.0
488.7	556.3
488.0	562.5
488.0	569.0
490.5	473.0
490.3	490.3
490.7	518.7
490.0	530.5
490.5	550.0
492.5	467.0
492.0	508.0
492.5	543.0
493.7	495.7
494.0	484.0
494.0	524.5
494.5	537.0
494.5	561.0
495.0	513.5
496.5	548.0
496.5	478.0
496.7	554.3
497.0	574.0
497.3	501.7
497.3	530.7
498.0	471.0
498.0	489.0
498.5	520.0
498.0	542.0
498.0	567.0
499.0	464.0
500.3	495.7
500.0	508.0
502.3	539.5
501.0	483.0
501.0	559.5
502.0	526.0
502.7	571.7
503.0	475.0
503.5	514.0
504.2	534.4
503.5	553.5
504.0	468.5
504.5	490.0
504.5	503.0
506.0	521.0
506.8	545.4
506.0	565.5
507.0	479.5
508.0	495.5
508.0	508.5
509.0	538.5
508.0	559.0
509.5	473.5
509.0	485.0
509.0	527.0
511.5	543.0
510.6	571.2
511.0	467.5
511.5	514.5
511.0	549.5
512.5	490.0
512.0	502.5
512.0	532.5
513.2	562.8
514.0	556.0
514.0	478.0
514.5	522.0
515.5	496.0
515.5	508.0
515.7	538.7
516.5	472.0
516.7	484.3
516.5	528.0
516.0	546.0
517.5	550.5
518.0	465.0
518.5	568.5
518.0	574.5
519.0	502.5
519.5	515.5
519.7	542.3
519.5	561.0
520.0	490.5
520.5	534.0
521.0	477.5
521.3	522.3
522.0	509.0
523.7	484.3
523.7	496.3
523.5	555.0
524.0	470.0
524.3	528.3
524.0	573.0
526.0	503.5
526.6	515.2
526.5	541.0
526.3	548.3
526.5	567.0
527.6	476.8
528.0	490.5
528.7	521.7
528.5	534.0
528.0	560.0
529.5	553.0
530.0	464.5
530.7	497.7
531.0	509.0
533.6	564.4
531.0	571.0
532.0	485.0
532.5	527.5
533.5	471.0
533.5	515.5
533.0	547.5
534.5	503.0
535.5	478.5
535.0	491.0
535.5	535.0
535.0	558.0
536.0	521.5
537.0	465.5
537.0	552.0
538.7	498.0
538.5	509.0
538.8	530.0
538.5	571.0
539.0	485.5
540.0	472.5
541.5	516.0
541.0	557.5
542.0	491.0
542.5	504.0
542.0	536.0
542.5	564.5
543.0	478.5
543.0	523.0
543.5	540.5
544.7	465.7
545.5	498.5
546.0	486.0
547.0	510.0
546.5	532.0
547.0	472.5
547.5	571.5
548.0	519.0
548.5	537.5
548.0	560.5
548.0	566.5
549.5	504.0
550.3	479.3
550.0	492.5
550.0	526.5
551.5	466.5
551.5	545.5
552.0	515.0
553.0	486.0
553.5	498.0
553.3	532.3
553.0	553.5
553.0	565.5
553.0	574.0
554.0	473.0
554.6	539.4
555.0	509.0
555.3	521.7
557.3	478.7
557.0	492.0
557.0	503.5
557.0	570.0
558.0	528.0
558.3	558.7
559.0	467.5
559.3	515.7
559.0	551.0
560.0	498.5
560.7	543.7
561.3	485.3
562.0	473.5
562.5	509.5
562.0	534.5
562.5	570.5
563.7	492.7
563.5	522.0
563.0	564.5
564.3	503.7
564.0	555.5
565.0	479.5
565.5	548.0
566.0	468.0
566.0	529.0
566.5	540.5
567.5	498.0
568.5	486.5
568.0	516.0
568.7	569.3
569.7	561.3
570.0	474.5
570.7	509.3
570.0	523.5
570.5	554.5
572.0	531.3
572.0	493.5
572.7	539.3
572.3	546.3
573.0	481.0
573.0	502.0
574.5	469.0
574.7	515.3
574.7	573.3
576.0	487.5
576.0	566.0
577.0	476.5
577.0	507.0
577.5	523.5
577.7	550.7
577.0	559.0
578.5	494.0
578.5	532.5
579.0	464.5
580.3	482.3
580.5	501.0
580.7	544.3
580.5	571.5
581.3	471.3
582.7	537.7
582.0	555.5
582.0	564.0
583.0	489.0
583.0	521.0
585.0	477.0
586.0	465.0
586.5	532.0
586.0	550.0
586.5	561.0
586.7	568.7
587.7	483.7
587.0	505.0
587.5	543.0
589.0	471.5
589.3	517.7
589.5	525.0
590.5	537.0
590.7	555.3
591.0	490.0
591.5	509.5
592.5	478.0
593.0	466.0
593.5	503.5
593.0	530.0
594.3	496.7
594.7	522.7
594.0	567.0
595.0	483.5
595.6	541.2
595.0	573.5
596.5	471.5
598.5	490.0
598.5	508.0
598.3	534.3
598.5	553.5
600.5	479.0
600.3	502.7
600.5	527.0
601.0	467.0
602.7	520.3
602.5	547.0
602.0	569.5
603.5	485.5
603.5	498.0
605.0	513.6
603.5	539.5
603.5	560.5
604.7	472.7
605.7	532.7
606.0	506.0
607.0	479.0
607.0	491.0
607.0	553.0
608.3	466.7
608.0	524.5
609.0	518.5
609.0	545.0
612.5	497.5
612.0	510.5
612.8	530.6
612.0	568.5
614.3	479.7
615.3	466.3
615.0	491.0
615.5	504.0
615.7	523.3
616.5	552.0
616.0	562.0
618.7	515.7
618.5	544.0
619.0	471.0
619.7	477.3
619.0	497.0
619.0	509.5
620.5	484.0
620.0	536.0
620.0	556.0
620.3	570.3
621.5	528.0
622.5	491.0
622.5	503.0
622.5	562.0
623.0	466.0
623.5	521.0
623.5	549.5
625.3	472.8
625.0	510.0
626.5	480.0
626.3	514.7
626.5	542.0
627.0	534.0
627.5	566.0
628.7	488.3
628.5	573.0
629.0	506.0
629.7	525.3
631.3	546.3
632.0	466.0
632.7	511.7
632.0	519.0
632.7	552.7
633.3	482.3
633.0	559.5
634.0	474.0
634.7	569.7
636.5	500.0
636.5	540.5
637.7	518.3
637.0	524.0
638.5	555.5
639.0	469.0
639.5	478.0
639.0	505.5
639.5	513.0
639.3	547.3
640.0	563.5
642.0	485.0
84.3	594.3
85.3	582.7
90.5	587.0
89.7	617.3
90.3	609.7
91.5	594.5
93.0	578.0
95.5	604.5
97.5	584.0
97.0	613.0
97.5	621.0
101.0	578.0
101.0	599.5
103.7	614.7
104.5	607.0
105.0	584.5
107.3	591.3
110.0	578.5
110.0	600.0
111.0	613.5
112.5	586.0
114.0	593.5
114.5	607.0
117.7	619.3
119.0	580.8
118.0	599.5
120.5	612.5
122.3	589.3
123.5	605.0
124.3	575.3
127.0	597.0
128.5	610.5
131.0	590.5
131.3	603.3
132.5	624.0
135.7	577.7
135.5	585.5
135.5	595.5
135.5	617.0
137.0	608.5
141.0	600.0
142.0	592.0
143.0	578.5
143.5	606.0
145.7	585.7
148.0	599.0
149.7	591.7
149.0	621.0
151.0	578.5
154.0	586.0
154.0	604.5
155.5	597.5
155.0	627.0
158.0	619.5
160.5	585.0
160.0	611.0
161.3	603.3
163.5	625.0
165.5	596.0
165.5	618.0
167.5	582.0
167.7	610.3
168.0	589.5
169.5	603.0
172.6	596.2
172.0	623.5
173.5	616.0
174.5	583.5
177.5	602.0
178.3	589.3
179.0	626.8
179.0	577.0
181.0	596.5
182.0	614.0
184.5	584.5
184.0	604.5
186.3	591.7
187.0	626.3
188.0	618.5
189.0	579.0
189.5	599.0
189.3	611.7
192.5	585.5
192.0	606.0
194.5	616.0
194.5	623.0
195.0	593.0
197.3	579.3
198.7	601.3
200.0	587.0
201.0	618.0
201.5	625.5
202.0	594.5
205.0	582.0
205.0	600.0
206.5	614.0
208.0	588.0
208.5	621.0
209.0	576.5
209.5	595.0
211.5	603.0
212.5	610.5
213.5	582.5
214.0	617.0
214.5	624.0
215.5	589.5
217.5	597.0
219.0	605.0
220.5	612.5
220.5	620.0
221.3	584.3
222.5	592.0
223.0	626.5
225.0	599.5
227.0	607.0
228.3	614.7
229.5	621.5
230.0	588.0
231.0	594.0
233.0	601.5
233.0	576.0
234.0	609.5
235.5	583.0
236.5	617.0
237.5	590.0
237.3	623.3
239.3	597.7
240.0	604.5
242.0	577.5
242.5	611.5
243.0	585.0
244.5	593.0
244.3	619.3
244.7	626.7
246.8	601.8
250.0	581.0
250.3	588.7
251.3	595.3
251.5	621.0
253.5	602.0
256.3	583.3
258.0	591.0
258.0	625.5
259.5	598.5
260.0	605.0
260.5	612.0
260.0	619.0
263.5	585.5
264.5	593.0
265.3	623.3
267.0	600.0
267.5	616.0
269.7	579.7
269.5	608.0
272.5	621.0
273.0	594.0
274.5	584.5
274.3	601.3
276.7	578.3
278.5	626.0
279.3	589.3
280.3	596.3
280.0	619.5
282.0	583.5
282.0	603.5
282.5	612.5
284.5	625.5
285.0	577.0
286.5	590.5
287.0	598.0
287.3	618.3
288.5	605.0
289.0	582.5
289.7	611.3
291.5	576.0
293.5	587.5
293.0	593.5
294.0	622.8
295.0	601.0
295.5	608.0
295.5	615.5
296.5	583.0
299.0	576.5
299.5	626.0
300.0	590.0
300.5	597.0
302.5	583.5
302.3	604.3
302.0	612.5
302.3	619.3
306.5	588.0
306.0	625.0
307.0	576.5
307.0	594.5
308.0	600.0
308.3	608.7
309.0	616.5
311.5	583.0
313.0	590.0
314.0	574.5
314.5	596.5
314.0	604.5
315.0	612.0
317.0	617.5
317.5	626.5
318.5	580.0
318.0	587.0
319.5	600.0
320.0	593.0
320.7	607.7
323.7	613.7
324.0	583.5
325.0	590.0
327.7	579.3
328.0	603.0
330.3	622.7
331.5	585.0
332.5	592.0
332.5	611.5
333.5	598.0
334.5	578.5
336.0	605.0
336.0	618.0
338.5	584.0
339.0	593.5
339.0	625.0
340.0	613.0
341.3	600.3
343.5	589.0
343.7	619.3
346.0	583.0
345.5	595.0
345.0	606.5
348.0	612.5
349.5	577.0
349.0	600.0
350.0	588.5
351.0	619.0
352.5	607.0
352.0	626.0
354.0	582.0
354.0	594.5
355.0	613.0
356.3	575.7
357.0	601.0
357.0	619.5
358.5	589.5
360.0	607.5
361.0	582.0
361.5	614.0
362.5	595.5
363.5	619.0
364.0	575.5
364.7	602.7
365.5	588.0
365.0	625.5
366.5	610.0
368.5	582.0
368.7	594.3
369.0	616.0
371.7	575.7
373.0	588.0
373.0	599.0
374.5	612.0
376.0	581.5
376.5	594.0
376.7	618.7
379.0	606.0
380.7	588.3
381.0	599.5
382.0	613.0
383.0	581.5
383.0	621.0
384.7	593.7
387.5	576.0
387.7	586.7
387.0	605.0
389.0	598.5
390.5	611.0
390.0	623.5
391.5	580.5
392.3	592.3
394.5	601.5
395.3	586.3
396.0	615.0
398.0	608.5
397.3	622.3
398.5	596.5
399.0	581.5
401.0	589.0
401.7	602.3
404.0	614.5
405.5	595.5
406.0	583.5
407.7	607.3
410.0	578.0
410.0	588.5
410.5	622.0
411.5	614.0
413.5	595.0
414.0	584.0
414.0	607.0
417.5	577.5
418.0	589.5
419.0	613.5
421.0	583.0
421.3	596.3
422.5	608.0
425.2	577.4
424.5	616.0
424.0	624.0
425.0	589.0
427.5	594.5
427.0	602.0
429.5	584.0
429.0	609.5
430.0	623.0
431.0	616.0
432.7	576.7
433.0	590.0
434.5	597.0
435.0	605.0
436.0	612.0
437.5	618.5
438.0	626.0
439.0	585.0
440.5	592.5
441.5	577.5
442.3	600.3
442.5	608.0
444.0	615.0
446.0	582.3
446.5	589.0
447.5	575.0
448.0	595.0
448.0	604.0
450.7	610.7
451.7	618.3
453.5	585.0
454.0	577.5
454.0	592.5
457.0	599.0
457.0	606.0
458.3	613.7
458.0	621.0
460.5	589.0
462.0	581.5
462.0	595.0
464.0	601.0
465.3	608.3
465.0	616.5
466.0	623.5
467.8	577.4
468.0	591.5
470.5	583.5
471.0	597.5
471.5	604.5
472.0	612.0
474.5	576.0
473.0	619.5
474.0	590.0
476.5	582.0
478.3	601.7
479.5	595.0
479.3	614.7
480.0	587.5
481.3	621.3
483.0	579.0
484.5	585.0
485.5	599.5
486.0	591.5
488.0	608.0
488.5	616.5
489.0	576.0
490.0	623.0
492.0	588.0
492.5	596.0
493.7	581.3
494.7	603.7
495.0	611.0
498.3	627.3
500.0	598.5
504.5	614.0
505.7	592.7
505.5	622.0
506.5	585.0
510.5	603.0
511.7	588.7
511.3	610.3
512.0	596.0
516.5	583.0
517.0	606.5
518.3	590.3
519.0	598.0
520.0	613.5
521.5	621.5
524.5	586.0
525.0	593.5
527.7	607.7
528.0	578.5
528.5	616.0
529.0	623.0
531.0	583.5
532.7	589.7
534.5	604.0
536.0	577.5
535.0	611.0
536.5	626.0
538.0	584.5
538.5	592.0
540.3	599.3
541.5	606.5
542.5	614.0
545.0	578.5
545.5	594.5
546.7	586.3
549.3	601.3
549.0	609.0
551.0	581.0
556.0	605.5
556.7	612.7
558.5	577.0
558.5	598.5
560.0	591.0
570.0	607.0
572.5	581.0
572.5	614.0
575.5	594.0
579.5	579.5
582.2	591.2
585.0	584.0
588.0	576.5
590.0	604.5
590.5	625.5
591.5	612.5
595.5	595.0
595.0	620.5
596.0	601.5
607.5	575.0
608.5	581.5
608.0	619.0
608.7	626.3
610.0	589.0
613.5	597.0
614.5	576.0
617.5	591.0
618.0	584.5
622.5	579.0
624.5	586.5
627.0	593.5
628.5	601.5
629.6	608.2
630.0	581.0
631.7	588.7
633.0	596.5
634.5	603.5
636.5	576.5
637.0	583.5
641.7	591.3
641.0	600.5
642.0	580.5
93.3	149.3
86.0	143.0
79.7	147.2
74.8	139.9
71.3	149.3
76.2	154.9
83.9	160.8
90.5	166.4
83.2	168.5
79.4	174.8
73.4	169.9
75.2	163.6
68.5	157.7
67.5	164.7
62.9	150.7
65.7	141.3
80.4	135.7
88.5	135.7
94.4	131.5
100.0	127.3
100.0	119.2
93.0	124.1
86.4	128.0
108.0	113.6
105.9	97.9
99.3	102.4
108.0	105.9
116.8	109.8
116.4	116.8
116.4	125.5
125.5	129.7
115.0	101.4
114.0	93.7
93.7	115.4
100.3	110.5
91.9	107.0
86.7	119.6
78.3	127.6
70.6	133.2
79.0	119.9
83.6	110.8
84.3	102.8
91.2	98.6
98.6	93.7
123.1	97.2
123.4	104.5
132.5	101.4
132.5	108.7
132.5	116.4
133.9	124.8
142.7	119.2
143.0	128.0
92.3	186.0
76.9	182.9
84.3	188.8
71.0	177.3
64.0	171.0
62.2	178.0
68.5	185.0
74.5	190.6
81.1	196.9
76.6	203.5
71.0	197.2
65.7	191.6
61.5	199.3
67.1	204.2
73.1	211.5
82.9	210.1
93.7	223.4
87.8	217.1
79.4	217.1
76.2	224.5
70.6	217.8
68.5	226.6
73.4	232.2
81.5	230.8
79.0	238.1
69.9	239.2
76.6	244.8
81.1	250.4
77.3	257.0
72.0	251.4
99.6	206.0
150.3	123.4
158.0	126.6
165.0	130.1
164.0	121.3
156.6	117.8
142.0	104.5
138.8	97.2
131.1	92.6
148.3	100.7
148.3	110.1
156.3	110.5
155.9	103.8
154.9	96.1
161.5	98.6
169.9	100.3
172.0	108.7
162.9	114.3
170.3	116.4
172.4	125.5
180.4	129.4
179.4	121.3
178.7	114.0
178.7	102.8
176.2	93.7
184.3	96.1
188.1	102.8
186.7	115.7
183.2	108.7
192.3	110.1
197.6	104.5
193.4	96.8
203.5	99.6
195.8	118.9
187.8	123.8
196.5	127.3
203.5	124.1
204.9	116.8
199.3	111.5
207.0	108.4
212.6	101.4
216.4	107.3
211.9	113.6
218.5	116.4
211.5	121.0
211.2	129.0
219.9	124.8
229.0	122.7
235.0	126.6
235.3	118.5
226.6	115.7
232.2	111.2
223.4	110.1
222.0	103.1
218.9	95.4
227.6	96.5
231.1	103.8
235.7	97.9
239.5	104.5
247.9	108.0
256.7	109.1
249.7	115.4
253.5	101.4
265.1	111.9
273.2	103.5
267.9	97.2
259.5	95.1
250.8	94.0
241.4	91.9
209.9	93.7
281.2	104.5
284.7	111.5
280.5	117.8
295.9	109.4
299.1	117.1
306.1	111.9
314.1	113.3
321.8	114.7
330.5	114.7
338.6	115.4
334.7	109.1
346.3	117.1
354.7	117.8
361.0	114.0
357.1	107.0
364.8	108.4
368.0	116.8
415.5	125.2
266.5	272.0
259.5	269.9
388.9	335.7
448.0	164.0
287.2	98.9
277.7	97.2
295.2	94.4
307.5	95.1
315.8	99.6
323.5	91.9
315.8	91.2
328.8	95.8
337.9	96.1
345.6	96.8
354.7	97.5
366.9	96.1
374.9	97.5
380.9	93.0
372.5	89.8
359.6	91.6
383.3	99.6
392.1	100.0
388.2	93.3
397.0	95.1
394.2	107.3
388.2	113.3
405.0	115.7
418.6	112.6
416.1	105.9
408.1	103.8
404.9	96.8
414.4	98.9
424.9	113.6
423.8	107.3
429.4	102.4
422.1	100.0
420.7	93.3
429.4	94.0
411.2	91.9
436.4	98.9
436.4	90.9
444.5	95.4
445.5	102.8
431.2	110.1
438.5	114.0
445.5	118.2
444.8	110.5
452.9	107.0
452.5	114.3
452.2	122.7
459.8	111.5
459.8	103.8
452.9	100.3
451.8	93.0
461.2	96.1
468.2	100.7
466.8	108.0
474.5	104.9
477.3	98.6
482.9	104.5
487.1	98.6
490.3	106.3
470.7	93.0
484.0	92.6
496.2	99.3
499.4	105.6
493.1	112.2
487.1	119.2
490.6	124.5
495.5	119.6
497.6	126.9
504.3	122.0
500.4	114.7
506.4	109.1
509.2	116.4
512.7	123.4
520.3	123.1
518.9	130.1
527.3	119.9
518.2	116.4
515.1	110.1
513.0	103.5
520.7	103.5
505.3	102.1
505.3	95.4
514.7	96.8
522.8	94.4
527.7	100.7
531.5	94.0
539.6	92.3
548.3	95.8
555.7	96.5
563.4	96.1
570.7	97.5
523.1	110.1
530.1	106.3
532.2	113.3
537.8	108.0
540.6	115.4
545.2	108.0
554.3	108.7
550.4	115.4
547.6	122.0
541.7	126.6
555.0	123.1
567.2	129.7
571.1	123.4
573.5	116.8
571.4	110.1
588.5	117.5
591.3	96.5
610.9	117.1
609.5	110.1
617.2	105.2
613.7	97.9
617.6	112.6
625.3	109.1
624.2	117.8
617.6	121.3
643.8	163.3
611.2	288.1
642.4	442.4
612.3	538.2
635.4	532.2
627.3	497.6
635.0	491.6
627.3	556.3
593.7	548.0
595.8	560.5
611.9	556.7
608.4	564.0
600.0	579.1
593.7	582.2
590.9	588.9
577.7	586.8
566.5	576.6
521.4	579.8
533.6	596.2
525.9	600.8
502.5	605.7
496.9	618.9
513.7	618.6
536.4	618.9
543.0	621.7
551.1	616.5
551.1	623.8
558.1	620.0
552.1	593.8
553.9	586.4
562.3	582.9
569.3	588.5
567.2	594.8
564.0	603.2
572.1	600.8
581.9	598.7
588.8	595.9
601.4	587.5
510.9	578.7
502.5	578.7
500.0	587.8
479.0	608.1
532.9	540.6
538.5	543.8
546.9	553.2
543.7	548.0
581.9	508.4
582.9	514.4
596.2	515.4
582.6	526.6
605.3	593.8
603.5	601.1
621.4	595.5
619.3	603.2
597.2	607.4
611.2	603.2
605.6	608.8
622.4	609.2
614.4	610.2
621.0	616.1
628.0	614.7
600.7	615.1
577.7	607.1
564.4	610.9
566.5	618.2
572.8	624.2
578.0	618.9
584.0	614.4
584.7	607.8
586.4	620.7
581.2	627.7
584.0	635.7
575.9	634.0
591.3	632.9
601.1	624.2
596.5	629.1
604.2	632.2
561.9	624.9
556.0	629.8
544.1	629.1
520.0	629.1
514.0	625.9
506.0	629.1
499.7	633.6
491.3	630.1
485.0	628.0
474.5	626.6
444.4	621.7
449.7	625.2
458.8	628.4
466.8	630.5
471.7	635.4
478.7	632.6
486.7	636.1
479.0	640.3
493.7	637.8
501.1	643.1
487.8	643.1
507.0	636.8
513.7	632.9
509.5	644.1
516.5	639.6
523.1	636.4
529.4	630.5
537.1	633.3
529.7	639.2
550.7	633.3
543.7	637.1
537.8	642.0
567.9	629.8
561.6	634.7
556.0	638.9
569.3	638.2
578.4	642.4
600.0	638.9
450.4	632.9
457.7	636.1
466.5	639.9
615.1	620.3
618.3	628.0
624.4	622.4
627.5	630.1
620.9	635.0
612.5	633.3
609.7	639.9
590.8	641.7
616.7	645.2
627.2	642.0
632.4	624.2
635.5	614.7
641.1	609.5
522.6	644.5
549.5	643.1
562.5	643.8
392.9	565.8
394.3	573.8
403.7	575.6
277.2	608.1
274.7	614.4
254.1	614.0
248.8	608.8
326.5	595.9
371.6	605.3
371.2	622.8
376.5	626.6
384.2	629.4
389.1	617.5
404.4	626.3
396.8	628.7
404.4	634.3
411.4	629.8
418.1	620.0
418.4	628.7
427.5	631.5
435.9	632.9
444.0	629.8
443.6	638.2
452.0	640.3
428.2	637.5
420.5	635.7
412.8	636.8
390.5	631.5
397.1	636.1
383.8	637.5
377.9	633.3
370.9	630.8
359.7	627.0
323.0	620.7
312.5	622.4
311.1	630.5
304.8	631.2
303.4	638.9
310.4	636.8
318.8	633.3
325.8	627.0
334.2	628.7
328.2	633.6
345.3	625.2
340.8	631.5
348.1	631.2
355.8	632.6
364.2	633.6
409.7	601.1
418.1	601.5
262.1	579.4
269.8	588.5
335.9	636.8
345.3	637.8
371.6	637.8
224.6	573.5
227.1	580.5
170.1	631.2
161.3	632.6
178.1	634.3
186.5	633.6
194.2	630.5
201.5	633.6
208.5	628.7
216.9	631.2
211.0	636.1
218.3	638.2
225.7	634.0
232.3	627.7
233.7	635.7
240.3	631.5
246.6	634.3
250.8	628.4
255.7	634.0
270.8	628.4
273.2	634.3
282.0	632.2
290.7	629.8
297.0	634.3
288.6	636.1
294.9	641.3
279.5	638.2
263.1	630.1
265.9	636.8
250.8	640.6
240.3	639.2
260.3	641.7
273.2	642.4
322.5	639.6
176.0	607.8
179.8	620.7
159.6	592.4
159.9	578.4
130.2	570.0
127.0	583.6
114.5	570.7
91.7	565.8
82.3	566.5
81.2	574.9
77.7	580.1
80.9	588.5
74.9	593.4
77.7	600.8
81.2	608.8
86.5	602.2
79.5	615.4
82.6	622.8
90.3	626.3
97.0	631.2
109.2	621.0
103.6	627.3
114.1	627.0
124.2	627.0
127.0	618.9
143.1	614.7
152.2	612.6
141.0	623.8
148.0	629.8
138.2	630.8
130.2	631.2
120.4	633.6
110.3	634.0
103.3	637.1
116.2	640.3
127.4	638.5
144.5	635.4
152.6	634.7
137.2	639.6
148.7	641.7
158.5	639.9
167.3	638.5
193.8	638.2
204.3	641.0
228.5	641.7
94.9	639.2
87.5	633.3
79.8	628.7
77.7	635.4
86.8	641.3
97.7	645.9
104.7	643.1
122.8	645.9
131.9	645.2
142.1	647.6
92.8	518.9
99.8	503.2
92.4	506.0
81.9	506.3
83.0	498.3
83.0	487.1
81.9	475.6
76.7	480.1
78.1	492.0
75.3	501.8
79.8	515.1
82.3	528.7
81.9	536.4
76.3	522.4
74.6	509.5
77.0	471.0
81.9	465.8
86.8	455.6
80.2	458.4
74.9	463.7
81.9	450.7
77.7	444.4
94.2	442.0
86.1	444.4
77.7	436.0
71.1	449.0
72.1	456.3
70.7	440.2
70.7	431.8
75.6	426.3
82.3	429.8
87.2	422.4
93.8	418.6
128.1	506.7
131.9	496.5
134.7	532.6
130.5	577.0
198.0	610.5
205.0	607.4
218.0	576.6
88.2	405.4
88.2	396.6
81.6	394.5
81.9	385.4
81.6	401.9
80.9	408.8
75.6	415.8
80.9	377.7
74.6	379.1
74.9	389.3
74.9	397.3
74.6	404.7
80.5	370.7
81.6	361.3
78.8	351.1
75.3	357.4
75.3	364.8
78.4	341.7
83.7	336.8
88.6	331.6
83.3	323.5
77.4	330.5
75.3	321.8
81.9	316.2
74.9	313.7
80.9	307.4
74.6	300.8
71.4	307.1
81.9	298.3
88.2	303.6
75.3	292.7
74.6	285.4
82.6	278.1
83.3	269.3
82.3	261.3
74.2	263.7
82.3	292.0
81.9	284.4
76.3	271.1
74.9	277.7
67.2	266.5
67.6	274.2
69.3	259.9
364.1	405.0
345.6	423.9
350.8	425.6
390.7	404.0
395.2	400.8
360.3	396.3
352.9	392.1
357.8	391.4
366.2	372.1
388.9	362.3
384.4	364.8
393.1	366.5
300.8	415.8
300.8	410.6
303.3	405.4
367.6	414.4
368.0	419.7
362.0	421.8
361.7	417.2
352.1	187.8
395.8	271.7
631.9	216.3
504.3	332.3
468.7	329.4
473.9	332.9
610.9	409.8
611.5	416.2
612.1	473.4
610.3	441.3
253.6	461.7
393.9	536.7
97.9	592.2
104.7	531.5
457.7	330.2
241.8	385.3
610.6	484.8
341.9	578.1
276.1	550.0
198.0	555.7
204.2	556.2
586.4	496.6
